%!PS-Adobe-3.0 EPSF-3.0
%%Creator: MATLAB, The MathWorks, Inc. Version 8.2.0.701 (R2013b). Operating System: Microsoft Windows 8.
%%Title: D:\MICdatafiles\12plots\Addmic.eps
%%CreationDate: 09/05/2015  19:33:33
%%DocumentNeededFonts: Helvetica
%%+ Helvetica-Bold
%%DocumentProcessColors: Cyan Magenta Yellow Black
%%LanguageLevel: 2
%%Pages: 1
%%BoundingBox:  -138   192   733   649
%%EndComments

%%BeginProlog
% MathWorks dictionary
/MathWorks 160 dict begin
% definition operators
/bdef {bind def} bind def
/ldef {load def} bind def
/xdef {exch def} bdef
/xstore {exch store} bdef
% operator abbreviations
/c  /clip ldef
/cc /concat ldef
/cp /closepath ldef
/gr /grestore ldef
/gs /gsave ldef
/mt /moveto ldef
/np /newpath ldef
/cm /currentmatrix ldef
/sm /setmatrix ldef
/rm /rmoveto ldef
/rl /rlineto ldef
/s {show newpath} bdef
/sc {setcmykcolor} bdef
/sr /setrgbcolor ldef
/sg /setgray ldef
/w /setlinewidth ldef
/j /setlinejoin ldef
/cap /setlinecap ldef
/rc {rectclip} bdef
/rf {rectfill} bdef
% page state control
/pgsv () def
/bpage {/pgsv save def} bdef
/epage {pgsv restore} bdef
/bplot /gsave ldef
/eplot {stroke grestore} bdef
% orientation switch
/portraitMode 0 def /landscapeMode 1 def /rotateMode 2 def
% coordinate system mappings
/dpi2point 0 def
% font control
/FontSize 0 def
/FMS {/FontSize xstore findfont [FontSize 0 0 FontSize neg 0 0]
  makefont setfont} bdef
/ISOLatin1Encoding where {pop /WindowsLatin1Encoding 256 array bdef
ISOLatin1Encoding WindowsLatin1Encoding copy pop
/.notdef/.notdef/quotesinglbase/florin/quotedblbase/ellipsis/dagger
/daggerdbl/circumflex/perthousand/Scaron/guilsinglleft/OE/.notdef/.notdef
/.notdef/.notdef/quoteleft/quoteright/quotedblleft/quotedblright/bullet
/endash/emdash/tilde/trademark/scaron/guilsinglright/oe/.notdef/.notdef
/Ydieresis WindowsLatin1Encoding 128 32 getinterval astore pop}
{/WindowsLatin1Encoding StandardEncoding bdef} ifelse
/reencode {exch dup where {pop load} {pop StandardEncoding} ifelse
  exch dup 3 1 roll findfont dup length dict begin
  { 1 index /FID ne {def}{pop pop} ifelse } forall
  /Encoding exch def currentdict end definefont pop} bdef
/isroman {findfont /CharStrings get /Agrave known} bdef
/FMSR {3 1 roll 1 index dup isroman {reencode} {pop pop} ifelse
  exch FMS} bdef
/csm {1 dpi2point div -1 dpi2point div scale neg translate
 dup landscapeMode eq {pop -90 rotate}
  {rotateMode eq {90 rotate} if} ifelse} bdef
% line types: solid, dotted, dashed, dotdash
/SO { [] 0 setdash } bdef
/DO { [.5 dpi2point mul 4 dpi2point mul] 0 setdash } bdef
/DA { [6 dpi2point mul] 0 setdash } bdef
/DD { [.5 dpi2point mul 4 dpi2point mul 6 dpi2point mul 4
  dpi2point mul] 0 setdash } bdef
% macros for lines and objects
/L {lineto stroke} bdef
/MP {3 1 roll moveto 1 sub {rlineto} repeat} bdef
/AP {{rlineto} repeat} bdef
/PDlw -1 def
/W {/PDlw currentlinewidth def setlinewidth} def
/PP {closepath eofill} bdef
/DP {closepath stroke} bdef
/MR {4 -2 roll moveto dup  0 exch rlineto exch 0 rlineto
  neg 0 exch rlineto closepath} bdef
/FR {MR stroke} bdef
/PR {MR fill} bdef
/L1i {{currentfile picstr readhexstring pop} image} bdef
/tMatrix matrix def
/MakeOval {newpath tMatrix currentmatrix pop translate scale
0 0 1 0 360 arc tMatrix setmatrix} bdef
/FO {MakeOval stroke} bdef
/PO {MakeOval fill} bdef
/PD {currentlinewidth 2 div 0 360 arc fill
   PDlw -1 eq not {PDlw w /PDlw -1 def} if} def
/FA {newpath tMatrix currentmatrix pop translate scale
  0 0 1 5 -2 roll arc tMatrix setmatrix stroke} bdef
/PA {newpath tMatrix currentmatrix pop	translate 0 0 moveto scale
  0 0 1 5 -2 roll arc closepath tMatrix setmatrix fill} bdef
/FAn {newpath tMatrix currentmatrix pop translate scale
  0 0 1 5 -2 roll arcn tMatrix setmatrix stroke} bdef
/PAn {newpath tMatrix currentmatrix pop translate 0 0 moveto scale
  0 0 1 5 -2 roll arcn closepath tMatrix setmatrix fill} bdef
/vradius 0 def /hradius 0 def /lry 0 def
/lrx 0 def /uly 0 def /ulx 0 def /rad 0 def
/MRR {/vradius xdef /hradius xdef /lry xdef /lrx xdef /uly xdef
  /ulx xdef newpath tMatrix currentmatrix pop ulx hradius add uly
  vradius add translate hradius vradius scale 0 0 1 180 270 arc 
  tMatrix setmatrix lrx hradius sub uly vradius add translate
  hradius vradius scale 0 0 1 270 360 arc tMatrix setmatrix
  lrx hradius sub lry vradius sub translate hradius vradius scale
  0 0 1 0 90 arc tMatrix setmatrix ulx hradius add lry vradius sub
  translate hradius vradius scale 0 0 1 90 180 arc tMatrix setmatrix
  closepath} bdef
/FRR {MRR stroke } bdef
/PRR {MRR fill } bdef
/MlrRR {/lry xdef /lrx xdef /uly xdef /ulx xdef /rad lry uly sub 2 div def
  newpath tMatrix currentmatrix pop ulx rad add uly rad add translate
  rad rad scale 0 0 1 90 270 arc tMatrix setmatrix lrx rad sub lry rad
  sub translate rad rad scale 0 0 1 270 90 arc tMatrix setmatrix
  closepath} bdef
/FlrRR {MlrRR stroke } bdef
/PlrRR {MlrRR fill } bdef
/MtbRR {/lry xdef /lrx xdef /uly xdef /ulx xdef /rad lrx ulx sub 2 div def
  newpath tMatrix currentmatrix pop ulx rad add uly rad add translate
  rad rad scale 0 0 1 180 360 arc tMatrix setmatrix lrx rad sub lry rad
  sub translate rad rad scale 0 0 1 0 180 arc tMatrix setmatrix
  closepath} bdef
/FtbRR {MtbRR stroke } bdef
/PtbRR {MtbRR fill } bdef
/stri 6 array def /dtri 6 array def
/smat 6 array def /dmat 6 array def
/tmat1 6 array def /tmat2 6 array def /dif 3 array def
/asub {/ind2 exch def /ind1 exch def dup dup
  ind1 get exch ind2 get sub exch } bdef
/tri_to_matrix {
  2 0 asub 3 1 asub 4 0 asub 5 1 asub
  dup 0 get exch 1 get 7 -1 roll astore } bdef
/compute_transform {
  dmat dtri tri_to_matrix tmat1 invertmatrix 
  smat stri tri_to_matrix tmat2 concatmatrix } bdef
/ds {stri astore pop} bdef
/dt {dtri astore pop} bdef
/db {2 copy /cols xdef /rows xdef mul dup 3 mul string
  currentfile 
  3 index 0 eq {/ASCIIHexDecode filter}
  {/ASCII85Decode filter 3 index 2 eq {/RunLengthDecode filter} if }
  ifelse exch readstring pop
  dup 0 3 index getinterval /rbmap xdef
  dup 2 index dup getinterval /gbmap xdef
  1 index dup 2 mul exch getinterval /bbmap xdef pop pop}bdef
/it {gs np dtri aload pop moveto lineto lineto cp c
  cols rows 8 compute_transform 
  rbmap gbmap bbmap true 3 colorimage gr}bdef
/il {newpath moveto lineto stroke}bdef
currentdict end def
%%EndProlog

%%BeginSetup
MathWorks begin

0 cap

end
%%EndSetup

%%Page: 1 1
%%BeginPageSetup
%%PageBoundingBox:  -138   192   733   649
MathWorks begin
bpage
%%EndPageSetup

%%BeginObject: obj1
bplot

/dpi2point 12 def
portraitMode -1656 7788 csm

    0     0 10457  5474 rc
95 dict begin %Colortable dictionary
/c0 { 0.000000 0.000000 0.000000 sr} bdef
/c1 { 1.000000 1.000000 1.000000 sr} bdef
/c2 { 0.900000 0.000000 0.000000 sr} bdef
/c3 { 0.000000 0.820000 0.000000 sr} bdef
/c4 { 0.000000 0.000000 0.800000 sr} bdef
/c5 { 0.910000 0.820000 0.320000 sr} bdef
/c6 { 1.000000 0.260000 0.820000 sr} bdef
/c7 { 0.000000 0.820000 0.820000 sr} bdef
c0
1 j
1 sg
   0    0 10458 5475 rf
6 w
0 1916 3611 0 0 -1916 289 2229 4 MP
PP
-3611 0 0 1916 3611 0 0 -1916 289 2229 5 MP stroke
4 w
DO
0 sg
 289 2229 mt  289  313 L
 289  313 mt  289  313 L
 690 2229 mt  690  313 L
 690  313 mt  690  313 L
1091 2229 mt 1091  313 L
1091  313 mt 1091  313 L
1492 2229 mt 1492  313 L
1492  313 mt 1492  313 L
1893 2229 mt 1893  313 L
1893  313 mt 1893  313 L
2295 2229 mt 2295  313 L
2295  313 mt 2295  313 L
2696 2229 mt 2696  313 L
2696  313 mt 2696  313 L
3097 2229 mt 3097  313 L
3097  313 mt 3097  313 L
3498 2229 mt 3498  313 L
3498  313 mt 3498  313 L
3900 2229 mt 3900  313 L
3900  313 mt 3900  313 L
 289 2229 mt 3900 2229 L
3900 2229 mt 3900 2229 L
 289 1955 mt 3900 1955 L
3900 1955 mt 3900 1955 L
 289 1681 mt 3900 1681 L
3900 1681 mt 3900 1681 L
 289 1407 mt 3900 1407 L
3900 1407 mt 3900 1407 L
 289 1134 mt 3900 1134 L
3900 1134 mt 3900 1134 L
 289  860 mt 3900  860 L
3900  860 mt 3900  860 L
 289  586 mt 3900  586 L
3900  586 mt 3900  586 L
 289  313 mt 3900  313 L
3900  313 mt 3900  313 L
SO
6 w
 289  313 mt 3900  313 L
 289 2229 mt 3900 2229 L
3900 2229 mt 3900  313 L
 289 2229 mt  289  313 L
 289 2229 mt 3900 2229 L
 289 2229 mt  289  313 L
 289 2229 mt  289 2192 L
 289  313 mt  289  349 L
%%IncludeResource: font Helvetica
/Helvetica /WindowsLatin1Encoding 120 FMSR

 223 2374 mt 
(10) s
 690 2229 mt  690 2192 L
 690  313 mt  690  349 L
 624 2374 mt 
(20) s
1091 2229 mt 1091 2192 L
1091  313 mt 1091  349 L
1025 2374 mt 
(30) s
1492 2229 mt 1492 2192 L
1492  313 mt 1492  349 L
1426 2374 mt 
(40) s
1893 2229 mt 1893 2192 L
1893  313 mt 1893  349 L
1827 2374 mt 
(50) s
2295 2229 mt 2295 2192 L
2295  313 mt 2295  349 L
2229 2374 mt 
(60) s
2696 2229 mt 2696 2192 L
2696  313 mt 2696  349 L
2630 2374 mt 
(70) s
3097 2229 mt 3097 2192 L
3097  313 mt 3097  349 L
3031 2374 mt 
(80) s
3498 2229 mt 3498 2192 L
3498  313 mt 3498  349 L
3432 2374 mt 
(90) s
3900 2229 mt 3900 2192 L
3900  313 mt 3900  349 L
3800 2374 mt 
(100) s
 289 2229 mt  325 2229 L
3900 2229 mt 3863 2229 L
 188 2273 mt 
(0) s
 289 1955 mt  325 1955 L
3900 1955 mt 3863 1955 L
 121 1999 mt 
(50) s
 289 1681 mt  325 1681 L
3900 1681 mt 3863 1681 L
  54 1725 mt 
(100) s
 289 1407 mt  325 1407 L
3900 1407 mt 3863 1407 L
  54 1451 mt 
(150) s
 289 1134 mt  325 1134 L
3900 1134 mt 3863 1134 L
  54 1178 mt 
(200) s
 289  860 mt  325  860 L
3900  860 mt 3863  860 L
  54  904 mt 
(250) s
 289  586 mt  325  586 L
3900  586 mt 3863  586 L
  54  630 mt 
(300) s
 289  313 mt  325  313 L
3900  313 mt 3863  313 L
  54  357 mt 
(350) s
 289  313 mt 3900  313 L
 289 2229 mt 3900 2229 L
3900 2229 mt 3900  313 L
 289 2229 mt  289  313 L
gs 289 313 3612 1917 rc
18 w
/c8 { 0.000000 0.000000 1.000000 sr} bdef
c8
402 8 401 25 401 -2 401 6 402 -45 401 41 401 -1 401 26 
401 -17 289 1542 10 MP stroke
gr

18 w
c8
gs 197 1433 3796 251 rc
  36   36  289 1542 FO
  36   36  690 1525 FO
  36   36 1091 1551 FO
  36   36 1492 1550 FO
  36   36 1893 1591 FO
  36   36 2295 1546 FO
  36   36 2696 1552 FO
  36   36 3097 1550 FO
  36   36 3498 1575 FO
  36   36 3900 1583 FO
gr

gs 289 313 3612 1917 rc
gr

0 sg
%%IncludeResource: font Helvetica-Bold
/Helvetica-Bold /WindowsLatin1Encoding 120 FMSR

1157  164 mt 
(Time to reach feasible region \(D) s
%%IncludeResource: font Helvetica-Bold
/Helvetica-Bold /WindowsLatin1Encoding 96 FMSR

2973  224 mt 
(f) s
%%IncludeResource: font Helvetica-Bold
/Helvetica-Bold /WindowsLatin1Encoding 120 FMSR

3004  164 mt 
(\)) s
gs 289 313 3612 1917 rc
DO
/c9 { 1.000000 0.000000 0.000000 sr} bdef
c9
402 60 401 -110 401 62 401 34 402 27 401 -45 401 -9 401 26 
401 8 289 434 10 MP stroke
gr

c9
DO
gs 197 322 3796 308 rc
SO
0 j
41 71 -82 0 41 -71 289 481 4 MP
DP
41 71 -82 0 41 -71 690 489 4 MP
DP
41 71 -82 0 41 -71 1091 515 4 MP
DP
41 71 -82 0 41 -71 1492 506 4 MP
DP
41 71 -82 0 41 -71 1893 461 4 MP
DP
41 71 -82 0 41 -71 2295 488 4 MP
DP
41 71 -82 0 41 -71 2696 522 4 MP
DP
41 71 -82 0 41 -71 3097 584 4 MP
DP
41 71 -82 0 41 -71 3498 474 4 MP
DP
41 71 -82 0 41 -71 3900 534 4 MP
DP
DO
gr

gs 289 313 3612 1917 rc
DD
/c10 { 0.000000 1.000000 0.000000 sr} bdef
c10
402 5 401 2 401 8 401 -12 402 4 401 -4 401 -6 401 14 
401 -6 289 2095 10 MP stroke
gr

c10
DD
gs 197 1993 3796 203 rc
SO
 264 2070 mt  314 2120 L
 314 2070 mt  264 2120 L
 665 2064 mt  715 2114 L
 715 2064 mt  665 2114 L
1066 2078 mt 1116 2128 L
1116 2078 mt 1066 2128 L
1467 2072 mt 1517 2122 L
1517 2072 mt 1467 2122 L
1868 2068 mt 1918 2118 L
1918 2068 mt 1868 2118 L
2270 2072 mt 2320 2122 L
2320 2072 mt 2270 2122 L
2671 2060 mt 2721 2110 L
2721 2060 mt 2671 2110 L
3072 2068 mt 3122 2118 L
3122 2068 mt 3072 2118 L
3473 2070 mt 3523 2120 L
3523 2070 mt 3473 2120 L
3875 2075 mt 3925 2125 L
3925 2075 mt 3875 2125 L
DD
gr

gs 289 313 3612 1917 rc
DA
/c11 { 0.000000 0.000000 0.172414 sr} bdef
c11
402 -11 401 -8 401 -3 401 32 402 -21 401 18 401 -13 401 9 
401 8 289 1919 10 MP stroke
gr

c11
DA
gs 197 1827 3796 218 rc
SO
 253 1919 mt  325 1919 L
 289 1883 mt  289 1955 L
 654 1927 mt  726 1927 L
 690 1891 mt  690 1963 L
1055 1936 mt 1127 1936 L
1091 1900 mt 1091 1972 L
1456 1923 mt 1528 1923 L
1492 1887 mt 1492 1959 L
1857 1941 mt 1929 1941 L
1893 1905 mt 1893 1977 L
2259 1920 mt 2331 1920 L
2295 1884 mt 2295 1956 L
2660 1952 mt 2732 1952 L
2696 1916 mt 2696 1988 L
3061 1949 mt 3133 1949 L
3097 1913 mt 3097 1985 L
3462 1941 mt 3534 1941 L
3498 1905 mt 3498 1977 L
3864 1930 mt 3936 1930 L
3900 1894 mt 3900 1966 L
 264 1894 mt  314 1944 L
 314 1894 mt  264 1944 L
 665 1902 mt  715 1952 L
 715 1902 mt  665 1952 L
1066 1911 mt 1116 1961 L
1116 1911 mt 1066 1961 L
1467 1898 mt 1517 1948 L
1517 1898 mt 1467 1948 L
1868 1916 mt 1918 1966 L
1918 1916 mt 1868 1966 L
2270 1895 mt 2320 1945 L
2320 1895 mt 2270 1945 L
2671 1927 mt 2721 1977 L
2721 1927 mt 2671 1977 L
3072 1924 mt 3122 1974 L
3122 1924 mt 3072 1974 L
3473 1916 mt 3523 1966 L
3523 1916 mt 3473 1966 L
3875 1905 mt 3925 1955 L
3925 1905 mt 3875 1955 L
DA
gr

gs 289 313 3612 1917 rc
SO
/c12 { 1.000000 0.103448 0.724138 sr} bdef
c12
402 -7 401 1 401 15 401 -3 402 -3 401 6 401 -1 401 6 
401 3 289 2132 10 MP stroke
gr

c12
SO
gs 197 2040 3796 209 rc
0 j
0 -58 -58 0 0 58 58 0 260 2103 5 MP
DP
0 -58 -58 0 0 58 58 0 661 2106 5 MP
DP
0 -58 -58 0 0 58 58 0 1062 2112 5 MP
DP
0 -58 -58 0 0 58 58 0 1463 2111 5 MP
DP
0 -58 -58 0 0 58 58 0 1864 2117 5 MP
DP
0 -58 -58 0 0 58 58 0 2266 2114 5 MP
DP
0 -58 -58 0 0 58 58 0 2667 2111 5 MP
DP
0 -58 -58 0 0 58 58 0 3068 2126 5 MP
DP
0 -58 -58 0 0 58 58 0 3469 2127 5 MP
DP
0 -58 -58 0 0 58 58 0 3871 2120 5 MP
DP
gr

gs 289 313 3612 1917 rc
DO
/c13 { 1.000000 0.827586 0.000000 sr} bdef
c13
402 37 401 18 401 -32 401 18 402 -51 401 56 401 22 401 -39 
401 6 289 1644 10 MP stroke
gr

c13
DO
gs 197 1519 3796 263 rc
SO
0 j
36 47 -36 47 -36 -47 36 -47 289 1691 5 MP
DP
36 47 -36 47 -36 -47 36 -47 690 1697 5 MP
DP
36 47 -36 47 -36 -47 36 -47 1091 1658 5 MP
DP
36 47 -36 47 -36 -47 36 -47 1492 1680 5 MP
DP
36 47 -36 47 -36 -47 36 -47 1893 1736 5 MP
DP
36 47 -36 47 -36 -47 36 -47 2295 1685 5 MP
DP
36 47 -36 47 -36 -47 36 -47 2696 1703 5 MP
DP
36 47 -36 47 -36 -47 36 -47 3097 1671 5 MP
DP
36 47 -36 47 -36 -47 36 -47 3498 1689 5 MP
DP
36 47 -36 47 -36 -47 36 -47 3900 1726 5 MP
DP
DO
gr

gs 289 313 3612 1917 rc
DD
/c14 { 0.000000 0.344828 0.000000 sr} bdef
c14
402 -40 401 48 401 -72 401 -28 402 1 401 3 401 -24 401 -94 
401 100 289 664 10 MP stroke
gr

c14
DD
gs 197 458 3796 399 rc
SO
24 W
289 664 PD
24 W
690 764 PD
24 W
1091 670 PD
24 W
1492 646 PD
24 W
1893 649 PD
24 W
2295 650 PD
24 W
2696 622 PD
24 W
3097 550 PD
24 W
3498 598 PD
24 W
3900 558 PD
DD
gr

gs 289 313 3612 1917 rc
DA
/c15 { 0.517241 0.517241 1.000000 sr} bdef
c15
402 34 401 -22 401 13 401 28 402 -57 401 53 401 10 401 -16 
401 -22 289 1659 10 MP stroke
gr

c15
DA
gs 197 1529 3796 248 rc
SO
0 j
-41 71 -41 -71 82 0 248 1683 4 MP
DP
-41 71 -41 -71 82 0 649 1661 4 MP
DP
-41 71 -41 -71 82 0 1050 1645 4 MP
DP
-41 71 -41 -71 82 0 1451 1655 4 MP
DP
-41 71 -41 -71 82 0 1852 1708 4 MP
DP
-41 71 -41 -71 82 0 2254 1651 4 MP
DP
-41 71 -41 -71 82 0 2655 1679 4 MP
DP
-41 71 -41 -71 82 0 3056 1692 4 MP
DP
-41 71 -41 -71 82 0 3457 1670 4 MP
DP
-41 71 -41 -71 82 0 3859 1704 4 MP
DP
DA
gr

gs 289 313 3612 1917 rc
SO
/c16 { 0.620690 0.310345 0.275862 sr} bdef
c16
402 -44 401 84 401 -185 401 124 402 20 401 74 401 -59 401 -18 
401 4 289 641 10 MP stroke
gr

c16
SO
gs 197 476 3796 403 rc
0 j
-71 41 0 -82 71 41 242 641 4 MP
DP
-71 41 0 -82 71 41 643 645 4 MP
DP
-71 41 0 -82 71 41 1044 627 4 MP
DP
-71 41 0 -82 71 41 1445 568 4 MP
DP
-71 41 0 -82 71 41 1846 642 4 MP
DP
-71 41 0 -82 71 41 2248 662 4 MP
DP
-71 41 0 -82 71 41 2649 786 4 MP
DP
-71 41 0 -82 71 41 3050 601 4 MP
DP
-71 41 0 -82 71 41 3451 685 4 MP
DP
-71 41 0 -82 71 41 3853 641 4 MP
DP
gr

gs 289 313 3612 1917 rc
DO
/c17 { 0.000000 1.000000 0.758621 sr} bdef
c17
402 73 401 -5 401 8 401 -14 402 -9 401 39 401 -10 401 8 
401 30 289 1636 10 MP stroke
gr

c17
DO
gs 197 1544 3796 305 rc
SO
0 j
0 82 -71 -41 71 -41 265 1677 4 MP
DP
0 82 -71 -41 71 -41 666 1707 4 MP
DP
0 82 -71 -41 71 -41 1067 1715 4 MP
DP
0 82 -71 -41 71 -41 1468 1705 4 MP
DP
0 82 -71 -41 71 -41 1869 1744 4 MP
DP
0 82 -71 -41 71 -41 2271 1735 4 MP
DP
0 82 -71 -41 71 -41 2672 1721 4 MP
DP
0 82 -71 -41 71 -41 3073 1729 4 MP
DP
0 82 -71 -41 71 -41 3474 1724 4 MP
DP
0 82 -71 -41 71 -41 3876 1797 4 MP
DP
DO
gr

gs 289 313 3612 1917 rc
SO
/c18 { 0.000000 0.517241 0.586207 sr} bdef
c18
402 54 401 -154 401 196 401 -162 402 41 401 71 401 -199 401 192 
401 186 289 510 10 MP stroke
gr

c18
SO
gs 197 418 3796 563 rc
0 j
-21 -16 8 -25 -22 15 -21 -15 8 25 -21 16 26 0 8 24 
9 -24 26 0 254 498 11 MP
DP
-21 -16 8 -25 -22 15 -21 -15 8 25 -21 16 26 0 8 24 
9 -24 26 0 655 684 11 MP
DP
-21 -16 8 -25 -22 15 -21 -15 8 25 -21 16 26 0 8 24 
9 -24 26 0 1056 876 11 MP
DP
-21 -16 8 -25 -22 15 -21 -15 8 25 -21 16 26 0 8 24 
9 -24 26 0 1457 677 11 MP
DP
-21 -16 8 -25 -22 15 -21 -15 8 25 -21 16 26 0 8 24 
9 -24 26 0 1858 748 11 MP
DP
-21 -16 8 -25 -22 15 -21 -15 8 25 -21 16 26 0 8 24 
9 -24 26 0 2260 789 11 MP
DP
-21 -16 8 -25 -22 15 -21 -15 8 25 -21 16 26 0 8 24 
9 -24 26 0 2661 627 11 MP
DP
-21 -16 8 -25 -22 15 -21 -15 8 25 -21 16 26 0 8 24 
9 -24 26 0 3062 823 11 MP
DP
-21 -16 8 -25 -22 15 -21 -15 8 25 -21 16 26 0 8 24 
9 -24 26 0 3463 669 11 MP
DP
-21 -16 8 -25 -22 15 -21 -15 8 25 -21 16 26 0 8 24 
9 -24 26 0 3865 723 11 MP
DP
gr

gs 289 313 3612 1917 rc
DO
/c19 { 0.000000 0.000000 0.482759 sr} bdef
c19
402 271 401 -223 401 140 401 -11 402 110 401 -152 401 62 401 46 
401 -4 289 581 10 MP stroke
gr

c19
DO
gs 197 441 3796 472 rc
SO
0 j
-13 -18 13 -18 -21 0 -10 -18 -10 18 -21 0 13 18 -13 18 
21 0 10 18 10 -18 21 0 258 563 13 MP
DP
-13 -18 13 -18 -21 0 -10 -18 -10 18 -21 0 13 18 -13 18 
21 0 10 18 10 -18 21 0 659 559 13 MP
DP
-13 -18 13 -18 -21 0 -10 -18 -10 18 -21 0 13 18 -13 18 
21 0 10 18 10 -18 21 0 1060 605 13 MP
DP
-13 -18 13 -18 -21 0 -10 -18 -10 18 -21 0 13 18 -13 18 
21 0 10 18 10 -18 21 0 1461 667 13 MP
DP
-13 -18 13 -18 -21 0 -10 -18 -10 18 -21 0 13 18 -13 18 
21 0 10 18 10 -18 21 0 1862 515 13 MP
DP
-13 -18 13 -18 -21 0 -10 -18 -10 18 -21 0 13 18 -13 18 
21 0 10 18 10 -18 21 0 2264 625 13 MP
DP
-13 -18 13 -18 -21 0 -10 -18 -10 18 -21 0 13 18 -13 18 
21 0 10 18 10 -18 21 0 2665 614 13 MP
DP
-13 -18 13 -18 -21 0 -10 -18 -10 18 -21 0 13 18 -13 18 
21 0 10 18 10 -18 21 0 3066 754 13 MP
DP
-13 -18 13 -18 -21 0 -10 -18 -10 18 -21 0 13 18 -13 18 
21 0 10 18 10 -18 21 0 3467 531 13 MP
DP
-13 -18 13 -18 -21 0 -10 -18 -10 18 -21 0 13 18 -13 18 
21 0 10 18 10 -18 21 0 3869 802 13 MP
DP
DO
gr

gs 289 313 3612 1917 rc
SO
6 w
gr

6 w
SO
1 sg
0 1916 3621 0 0 -1916 4287 2238 4 MP
PP
-3621 0 0 1916 3621 0 0 -1916 4287 2238 5 MP stroke
4 w
DO
0 sg
4287 2238 mt 4287  322 L
4287  322 mt 4287  322 L
4689 2238 mt 4689  322 L
4689  322 mt 4689  322 L
5091 2238 mt 5091  322 L
5091  322 mt 5091  322 L
5494 2238 mt 5494  322 L
5494  322 mt 5494  322 L
5896 2238 mt 5896  322 L
5896  322 mt 5896  322 L
6298 2238 mt 6298  322 L
6298  322 mt 6298  322 L
6701 2238 mt 6701  322 L
6701  322 mt 6701  322 L
7103 2238 mt 7103  322 L
7103  322 mt 7103  322 L
7505 2238 mt 7505  322 L
7505  322 mt 7505  322 L
7908 2238 mt 7908  322 L
7908  322 mt 7908  322 L
4287 2238 mt 7908 2238 L
7908 2238 mt 7908 2238 L
4287 1964 mt 7908 1964 L
7908 1964 mt 7908 1964 L
4287 1690 mt 7908 1690 L
7908 1690 mt 7908 1690 L
4287 1416 mt 7908 1416 L
7908 1416 mt 7908 1416 L
4287 1143 mt 7908 1143 L
7908 1143 mt 7908 1143 L
4287  869 mt 7908  869 L
7908  869 mt 7908  869 L
4287  595 mt 7908  595 L
7908  595 mt 7908  595 L
4287  322 mt 7908  322 L
7908  322 mt 7908  322 L
SO
6 w
4287  322 mt 7908  322 L
4287 2238 mt 7908 2238 L
7908 2238 mt 7908  322 L
4287 2238 mt 4287  322 L
4287 2238 mt 7908 2238 L
4287 2238 mt 4287  322 L
4287 2238 mt 4287 2201 L
4287  322 mt 4287  358 L
%%IncludeResource: font Helvetica
/Helvetica /WindowsLatin1Encoding 120 FMSR

4221 2383 mt 
(10) s
4689 2238 mt 4689 2201 L
4689  322 mt 4689  358 L
4623 2383 mt 
(20) s
5091 2238 mt 5091 2201 L
5091  322 mt 5091  358 L
5025 2383 mt 
(30) s
5494 2238 mt 5494 2201 L
5494  322 mt 5494  358 L
5428 2383 mt 
(40) s
5896 2238 mt 5896 2201 L
5896  322 mt 5896  358 L
5830 2383 mt 
(50) s
6298 2238 mt 6298 2201 L
6298  322 mt 6298  358 L
6232 2383 mt 
(60) s
6701 2238 mt 6701 2201 L
6701  322 mt 6701  358 L
6635 2383 mt 
(70) s
7103 2238 mt 7103 2201 L
7103  322 mt 7103  358 L
7037 2383 mt 
(80) s
7505 2238 mt 7505 2201 L
7505  322 mt 7505  358 L
7439 2383 mt 
(90) s
7908 2238 mt 7908 2201 L
7908  322 mt 7908  358 L
7808 2383 mt 
(100) s
4287 2238 mt 4323 2238 L
7908 2238 mt 7871 2238 L
4086 2282 mt 
(1.1) s
4287 1964 mt 4323 1964 L
7908 1964 mt 7871 1964 L
4019 2008 mt 
(1.12) s
4287 1690 mt 4323 1690 L
7908 1690 mt 7871 1690 L
4019 1734 mt 
(1.14) s
4287 1416 mt 4323 1416 L
7908 1416 mt 7871 1416 L
4019 1460 mt 
(1.16) s
4287 1143 mt 4323 1143 L
7908 1143 mt 7871 1143 L
4019 1187 mt 
(1.18) s
4287  869 mt 4323  869 L
7908  869 mt 7871  869 L
4086  913 mt 
(1.2) s
4287  595 mt 4323  595 L
7908  595 mt 7871  595 L
4019  639 mt 
(1.22) s
4287  322 mt 4323  322 L
7908  322 mt 7871  322 L
4019  366 mt 
(1.24) s
4287  268 mt 
(x 10) s
%%IncludeResource: font Helvetica
/Helvetica /WindowsLatin1Encoding 80 FMSR

4513  194 mt 
(-12) s
4287  322 mt 7908  322 L
4287 2238 mt 7908 2238 L
7908 2238 mt 7908  322 L
4287 2238 mt 4287  322 L
gs 4287 322 3622 1917 rc
18 w
c8
403 67 402 -27 402 27 403 -27 402 0 402 54 403 -13 402 27 
402 0 4287 748 10 MP stroke
gr

18 w
c8
gs 4195 656 3806 293 rc
  36   36 4287  748 FO
  36   36 4689  748 FO
  36   36 5091  775 FO
  36   36 5494  762 FO
  36   36 5896  816 FO
  36   36 6298  816 FO
  36   36 6701  789 FO
  36   36 7103  816 FO
  36   36 7505  789 FO
  36   36 7908  856 FO
gr

gs 4287 322 3622 1917 rc
gr

0 sg
%%IncludeResource: font Helvetica-Bold
/Helvetica-Bold /WindowsLatin1Encoding 120 FMSR

5425  227 mt 
(Wilcoxon rank sum test) s
gs 4287 322 3622 1917 rc
DO
c9
403 13 402 0 402 14 403 -54 402 27 402 13 403 0 402 -54 
402 81 4287 708 10 MP stroke
gr

c9
DO
gs 4195 616 3806 266 rc
SO
0 j
41 71 -82 0 41 -71 4287 755 4 MP
DP
41 71 -82 0 41 -71 4689 836 4 MP
DP
41 71 -82 0 41 -71 5091 782 4 MP
DP
41 71 -82 0 41 -71 5494 782 4 MP
DP
41 71 -82 0 41 -71 5896 795 4 MP
DP
41 71 -82 0 41 -71 6298 822 4 MP
DP
41 71 -82 0 41 -71 6701 768 4 MP
DP
41 71 -82 0 41 -71 7103 782 4 MP
DP
41 71 -82 0 41 -71 7505 782 4 MP
DP
41 71 -82 0 41 -71 7908 795 4 MP
DP
DO
gr

gs 4287 322 3622 1917 rc
DD
c10
403 79 402 -119 402 80 403 -40 402 146 402 -421 403 183 402 145 
402 -172 4287 1268 10 MP stroke
gr

c10
DD
gs 4195 911 3806 606 rc
SO
4262 1243 mt 4312 1293 L
4312 1243 mt 4262 1293 L
4664 1071 mt 4714 1121 L
4714 1071 mt 4664 1121 L
5066 1216 mt 5116 1266 L
5116 1216 mt 5066 1266 L
5469 1399 mt 5519 1449 L
5519 1399 mt 5469 1449 L
5871  978 mt 5921 1028 L
5921  978 mt 5871 1028 L
6273 1124 mt 6323 1174 L
6323 1124 mt 6273 1174 L
6676 1084 mt 6726 1134 L
6726 1084 mt 6676 1134 L
7078 1164 mt 7128 1214 L
7128 1164 mt 7078 1214 L
7480 1045 mt 7530 1095 L
7530 1045 mt 7480 1095 L
7883 1124 mt 7933 1174 L
7933 1124 mt 7883 1174 L
DD
gr

gs 4287 322 3622 1917 rc
DA
c11
403 187 402 -40 402 -94 403 67 402 107 402 -67 403 -120 402 214 
402 -174 4287 963 10 MP stroke
gr

c11
DA
gs 4195 697 3806 439 rc
SO
4251  963 mt 4323  963 L
4287  927 mt 4287  999 L
4653  789 mt 4725  789 L
4689  753 mt 4689  825 L
5055 1003 mt 5127 1003 L
5091  967 mt 5091 1039 L
5458  883 mt 5530  883 L
5494  847 mt 5494  919 L
5860  816 mt 5932  816 L
5896  780 mt 5896  852 L
6262  923 mt 6334  923 L
6298  887 mt 6298  959 L
6665  990 mt 6737  990 L
6701  954 mt 6701 1026 L
7067  896 mt 7139  896 L
7103  860 mt 7103  932 L
7469  856 mt 7541  856 L
7505  820 mt 7505  892 L
7872 1043 mt 7944 1043 L
7908 1007 mt 7908 1079 L
4262  938 mt 4312  988 L
4312  938 mt 4262  988 L
4664  764 mt 4714  814 L
4714  764 mt 4664  814 L
5066  978 mt 5116 1028 L
5116  978 mt 5066 1028 L
5469  858 mt 5519  908 L
5519  858 mt 5469  908 L
5871  791 mt 5921  841 L
5921  791 mt 5871  841 L
6273  898 mt 6323  948 L
6323  898 mt 6273  948 L
6676  965 mt 6726 1015 L
6726  965 mt 6676 1015 L
7078  871 mt 7128  921 L
7128  871 mt 7078  921 L
7480  831 mt 7530  881 L
7530  831 mt 7480  881 L
7883 1018 mt 7933 1068 L
7933 1018 mt 7883 1068 L
DA
gr

gs 4287 322 3622 1917 rc
SO
c12
403 -327 402 314 402 226 403 -1101 402 849 402 0 403 239 402 -253 
402 66 4287 1123 10 MP stroke
gr

c12
SO
gs 4195 831 3806 1286 rc
0 j
0 -58 -58 0 0 58 58 0 4258 1094 5 MP
DP
0 -58 -58 0 0 58 58 0 4660 1160 5 MP
DP
0 -58 -58 0 0 58 58 0 5062 907 5 MP
DP
0 -58 -58 0 0 58 58 0 5465 1146 5 MP
DP
0 -58 -58 0 0 58 58 0 5867 1146 5 MP
DP
0 -58 -58 0 0 58 58 0 6269 1995 5 MP
DP
0 -58 -58 0 0 58 58 0 6672 894 5 MP
DP
0 -58 -58 0 0 58 58 0 7074 1120 5 MP
DP
0 -58 -58 0 0 58 58 0 7476 1434 5 MP
DP
0 -58 -58 0 0 58 58 0 7879 1107 5 MP
DP
gr

gs 4287 322 3622 1917 rc
DO
c13
403 13 402 -120 402 174 403 -67 402 -241 402 281 403 14 402 0 
402 0 4287 775 10 MP stroke
gr

c13
DO
gs 4195 670 3806 493 rc
SO
0 j
36 47 -36 47 -36 -47 36 -47 4287 822 5 MP
DP
36 47 -36 47 -36 -47 36 -47 4689 822 5 MP
DP
36 47 -36 47 -36 -47 36 -47 5091 822 5 MP
DP
36 47 -36 47 -36 -47 36 -47 5494 836 5 MP
DP
36 47 -36 47 -36 -47 36 -47 5896 1117 5 MP
DP
36 47 -36 47 -36 -47 36 -47 6298 876 5 MP
DP
36 47 -36 47 -36 -47 36 -47 6701 809 5 MP
DP
36 47 -36 47 -36 -47 36 -47 7103 983 5 MP
DP
36 47 -36 47 -36 -47 36 -47 7505 863 5 MP
DP
36 47 -36 47 -36 -47 36 -47 7908 876 5 MP
DP
DO
gr

gs 4287 322 3622 1917 rc
DD
c14
403 13 402 -54 402 81 403 -108 402 95 402 -41 403 27 402 -27 
402 27 4287 735 10 MP stroke
gr

c14
DD
gs 4195 616 3806 293 rc
SO
24 W
4287 735 PD
24 W
4689 762 PD
24 W
5091 735 PD
24 W
5494 762 PD
24 W
5896 721 PD
24 W
6298 816 PD
24 W
6701 708 PD
24 W
7103 789 PD
24 W
7505 735 PD
24 W
7908 748 PD
DD
gr

gs 4287 322 3622 1917 rc
DA
c15
403 0 402 -81 402 54 403 -148 402 121 402 27 403 0 402 -40 
402 67 4287 735 10 MP stroke
gr

c15
DA
gs 4195 643 3806 360 rc
SO
0 j
-41 71 -41 -71 82 0 4246 759 4 MP
DP
-41 71 -41 -71 82 0 4648 826 4 MP
DP
-41 71 -41 -71 82 0 5050 786 4 MP
DP
-41 71 -41 -71 82 0 5453 786 4 MP
DP
-41 71 -41 -71 82 0 5855 813 4 MP
DP
-41 71 -41 -71 82 0 6257 934 4 MP
DP
-41 71 -41 -71 82 0 6660 786 4 MP
DP
-41 71 -41 -71 82 0 7062 840 4 MP
DP
-41 71 -41 -71 82 0 7464 759 4 MP
DP
-41 71 -41 -71 82 0 7867 759 4 MP
DP
DA
gr

gs 4287 322 3622 1917 rc
SO
c16
403 -40 402 40 402 -40 403 54 402 -14 402 27 403 -27 402 -27 
402 0 4287 762 10 MP stroke
gr

c16
SO
gs 4195 616 3806 252 rc
0 j
-71 41 0 -82 71 41 4240 762 4 MP
DP
-71 41 0 -82 71 41 4642 762 4 MP
DP
-71 41 0 -82 71 41 5044 735 4 MP
DP
-71 41 0 -82 71 41 5447 708 4 MP
DP
-71 41 0 -82 71 41 5849 735 4 MP
DP
-71 41 0 -82 71 41 6251 721 4 MP
DP
-71 41 0 -82 71 41 6654 775 4 MP
DP
-71 41 0 -82 71 41 7056 735 4 MP
DP
-71 41 0 -82 71 41 7458 775 4 MP
DP
-71 41 0 -82 71 41 7861 735 4 MP
DP
gr

gs 4287 322 3622 1917 rc
DO
c17
403 0 402 -67 402 108 403 13 402 -13 402 -14 403 -40 402 -14 
402 81 4287 735 10 MP stroke
gr

c17
DO
gs 4195 643 3806 306 rc
SO
0 j
0 82 -71 -41 71 -41 4263 776 4 MP
DP
0 82 -71 -41 71 -41 4665 857 4 MP
DP
0 82 -71 -41 71 -41 5067 843 4 MP
DP
0 82 -71 -41 71 -41 5470 803 4 MP
DP
0 82 -71 -41 71 -41 5872 789 4 MP
DP
0 82 -71 -41 71 -41 6274 776 4 MP
DP
0 82 -71 -41 71 -41 6677 789 4 MP
DP
0 82 -71 -41 71 -41 7079 897 4 MP
DP
0 82 -71 -41 71 -41 7481 830 4 MP
DP
0 82 -71 -41 71 -41 7884 830 4 MP
DP
DO
gr

gs 4287 322 3622 1917 rc
SO
c18
403 -40 402 27 402 -41 403 54 402 -13 402 -27 403 27 402 13 
402 -13 4287 721 10 MP stroke
gr

c18
SO
gs 4195 616 3806 239 rc
0 j
-21 -16 8 -25 -22 15 -21 -15 8 25 -21 16 26 0 8 24 
9 -24 26 0 4252 709 11 MP
DP
-21 -16 8 -25 -22 15 -21 -15 8 25 -21 16 26 0 8 24 
9 -24 26 0 4654 696 11 MP
DP
-21 -16 8 -25 -22 15 -21 -15 8 25 -21 16 26 0 8 24 
9 -24 26 0 5056 709 11 MP
DP
-21 -16 8 -25 -22 15 -21 -15 8 25 -21 16 26 0 8 24 
9 -24 26 0 5459 736 11 MP
DP
-21 -16 8 -25 -22 15 -21 -15 8 25 -21 16 26 0 8 24 
9 -24 26 0 5861 709 11 MP
DP
-21 -16 8 -25 -22 15 -21 -15 8 25 -21 16 26 0 8 24 
9 -24 26 0 6263 696 11 MP
DP
-21 -16 8 -25 -22 15 -21 -15 8 25 -21 16 26 0 8 24 
9 -24 26 0 6666 750 11 MP
DP
-21 -16 8 -25 -22 15 -21 -15 8 25 -21 16 26 0 8 24 
9 -24 26 0 7068 709 11 MP
DP
-21 -16 8 -25 -22 15 -21 -15 8 25 -21 16 26 0 8 24 
9 -24 26 0 7470 736 11 MP
DP
-21 -16 8 -25 -22 15 -21 -15 8 25 -21 16 26 0 8 24 
9 -24 26 0 7873 696 11 MP
DP
gr

gs 4287 322 3622 1917 rc
DO
c19
403 81 402 -13 402 0 403 0 402 0 402 27 403 -14 402 -27 
402 41 4287 721 10 MP stroke
gr

c19
DO
gs 4195 629 3806 280 rc
SO
0 j
-13 -18 13 -18 -21 0 -10 -18 -10 18 -21 0 13 18 -13 18 
21 0 10 18 10 -18 21 0 4256 703 13 MP
DP
-13 -18 13 -18 -21 0 -10 -18 -10 18 -21 0 13 18 -13 18 
21 0 10 18 10 -18 21 0 4658 744 13 MP
DP
-13 -18 13 -18 -21 0 -10 -18 -10 18 -21 0 13 18 -13 18 
21 0 10 18 10 -18 21 0 5060 717 13 MP
DP
-13 -18 13 -18 -21 0 -10 -18 -10 18 -21 0 13 18 -13 18 
21 0 10 18 10 -18 21 0 5463 703 13 MP
DP
-13 -18 13 -18 -21 0 -10 -18 -10 18 -21 0 13 18 -13 18 
21 0 10 18 10 -18 21 0 5865 730 13 MP
DP
-13 -18 13 -18 -21 0 -10 -18 -10 18 -21 0 13 18 -13 18 
21 0 10 18 10 -18 21 0 6267 730 13 MP
DP
-13 -18 13 -18 -21 0 -10 -18 -10 18 -21 0 13 18 -13 18 
21 0 10 18 10 -18 21 0 6670 730 13 MP
DP
-13 -18 13 -18 -21 0 -10 -18 -10 18 -21 0 13 18 -13 18 
21 0 10 18 10 -18 21 0 7072 730 13 MP
DP
-13 -18 13 -18 -21 0 -10 -18 -10 18 -21 0 13 18 -13 18 
21 0 10 18 10 -18 21 0 7474 717 13 MP
DP
-13 -18 13 -18 -21 0 -10 -18 -10 18 -21 0 13 18 -13 18 
21 0 10 18 10 -18 21 0 7877 798 13 MP
DP
DO
gr

gs 4287 322 3622 1917 rc
SO
6 w
gr

6 w
SO
1 sg
0 1915 3611 0 0 -1915 307 4647 4 MP
PP
-3611 0 0 1915 3611 0 0 -1915 307 4647 5 MP stroke
4 w
DO
0 sg
 307 4647 mt  307 2732 L
 307 2732 mt  307 2732 L
 708 4647 mt  708 2732 L
 708 2732 mt  708 2732 L
1109 4647 mt 1109 2732 L
1109 2732 mt 1109 2732 L
1510 4647 mt 1510 2732 L
1510 2732 mt 1510 2732 L
1911 4647 mt 1911 2732 L
1911 2732 mt 1911 2732 L
2313 4647 mt 2313 2732 L
2313 2732 mt 2313 2732 L
2714 4647 mt 2714 2732 L
2714 2732 mt 2714 2732 L
3115 4647 mt 3115 2732 L
3115 2732 mt 3115 2732 L
3516 4647 mt 3516 2732 L
3516 2732 mt 3516 2732 L
3918 4647 mt 3918 2732 L
3918 2732 mt 3918 2732 L
 307 4647 mt 3918 4647 L
3918 4647 mt 3918 4647 L
 307 4373 mt 3918 4373 L
3918 4373 mt 3918 4373 L
 307 4099 mt 3918 4099 L
3918 4099 mt 3918 4099 L
 307 3826 mt 3918 3826 L
3918 3826 mt 3918 3826 L
 307 3552 mt 3918 3552 L
3918 3552 mt 3918 3552 L
 307 3279 mt 3918 3279 L
3918 3279 mt 3918 3279 L
 307 3005 mt 3918 3005 L
3918 3005 mt 3918 3005 L
 307 2732 mt 3918 2732 L
3918 2732 mt 3918 2732 L
SO
6 w
 307 2732 mt 3918 2732 L
 307 4647 mt 3918 4647 L
3918 4647 mt 3918 2732 L
 307 4647 mt  307 2732 L
 307 4647 mt 3918 4647 L
 307 4647 mt  307 2732 L
 307 4647 mt  307 4610 L
 307 2732 mt  307 2768 L
%%IncludeResource: font Helvetica
/Helvetica /WindowsLatin1Encoding 120 FMSR

 241 4792 mt 
(10) s
 708 4647 mt  708 4610 L
 708 2732 mt  708 2768 L
 642 4792 mt 
(20) s
1109 4647 mt 1109 4610 L
1109 2732 mt 1109 2768 L
1043 4792 mt 
(30) s
1510 4647 mt 1510 4610 L
1510 2732 mt 1510 2768 L
1444 4792 mt 
(40) s
1911 4647 mt 1911 4610 L
1911 2732 mt 1911 2768 L
1845 4792 mt 
(50) s
2313 4647 mt 2313 4610 L
2313 2732 mt 2313 2768 L
2247 4792 mt 
(60) s
2714 4647 mt 2714 4610 L
2714 2732 mt 2714 2768 L
2648 4792 mt 
(70) s
3115 4647 mt 3115 4610 L
3115 2732 mt 3115 2768 L
3049 4792 mt 
(80) s
3516 4647 mt 3516 4610 L
3516 2732 mt 3516 2768 L
3450 4792 mt 
(90) s
3918 4647 mt 3918 4610 L
3918 2732 mt 3918 2768 L
3818 4792 mt 
(100) s
 307 4647 mt  343 4647 L
3918 4647 mt 3881 4647 L
 206 4691 mt 
(0) s
 307 4373 mt  343 4373 L
3918 4373 mt 3881 4373 L
 206 4417 mt 
(5) s
 307 4099 mt  343 4099 L
3918 4099 mt 3881 4099 L
 139 4143 mt 
(10) s
 307 3826 mt  343 3826 L
3918 3826 mt 3881 3826 L
 139 3870 mt 
(15) s
 307 3552 mt  343 3552 L
3918 3552 mt 3881 3552 L
 139 3596 mt 
(20) s
 307 3279 mt  343 3279 L
3918 3279 mt 3881 3279 L
 139 3323 mt 
(25) s
 307 3005 mt  343 3005 L
3918 3005 mt 3881 3005 L
 139 3049 mt 
(30) s
 307 2732 mt  343 2732 L
3918 2732 mt 3881 2732 L
 139 2776 mt 
(35) s
 307 2732 mt 3918 2732 L
 307 4647 mt 3918 4647 L
3918 4647 mt 3918 2732 L
 307 4647 mt  307 2732 L
gs 307 2732 3612 1916 rc
18 w
c8
402 0 401 -15 401 0 401 8 402 -19 401 -5 401 20 401 -7 
401 -4 307 3939 10 MP stroke
gr

18 w
c8
gs 215 3825 3796 216 rc
  36   36  307 3939 FO
  36   36  708 3935 FO
  36   36 1109 3928 FO
  36   36 1510 3948 FO
  36   36 1911 3943 FO
  36   36 2313 3924 FO
  36   36 2714 3932 FO
  36   36 3115 3932 FO
  36   36 3516 3917 FO
  36   36 3918 3917 FO
gr

gs 307 2732 3612 1916 rc
gr

0 sg
%%IncludeResource: font Helvetica-Bold
/Helvetica-Bold /WindowsLatin1Encoding 120 FMSR

1530 2583 mt 
(Solution Quality \(D) s
%%IncludeResource: font Helvetica-Bold
/Helvetica-Bold /WindowsLatin1Encoding 96 FMSR

2610 2643 mt 
(s) s
%%IncludeResource: font Helvetica-Bold
/Helvetica-Bold /WindowsLatin1Encoding 120 FMSR

2663 2583 mt 
(\)) s
gs 307 2732 3612 1916 rc
DO
c9
402 11 401 -15 401 4 401 4 402 3 401 9 401 -23 401 -19 
401 50 307 2806 10 MP stroke
gr

c9
DO
gs 215 2714 3796 235 rc
SO
0 j
41 71 -82 0 41 -71 307 2853 4 MP
DP
41 71 -82 0 41 -71 708 2903 4 MP
DP
41 71 -82 0 41 -71 1109 2884 4 MP
DP
41 71 -82 0 41 -71 1510 2861 4 MP
DP
41 71 -82 0 41 -71 1911 2870 4 MP
DP
41 71 -82 0 41 -71 2313 2873 4 MP
DP
41 71 -82 0 41 -71 2714 2877 4 MP
DP
41 71 -82 0 41 -71 3115 2881 4 MP
DP
41 71 -82 0 41 -71 3516 2866 4 MP
DP
41 71 -82 0 41 -71 3918 2877 4 MP
DP
DO
gr

gs 307 2732 3612 1916 rc
DD
c10
402 7 401 -5 401 0 401 0 402 -2 401 -2 401 2 401 5 
401 -7 307 4548 10 MP stroke
gr

c10
DD
gs 215 4447 3796 194 rc
SO
 282 4523 mt  332 4573 L
 332 4523 mt  282 4573 L
 683 4516 mt  733 4566 L
 733 4516 mt  683 4566 L
1084 4521 mt 1134 4571 L
1134 4521 mt 1084 4571 L
1485 4523 mt 1535 4573 L
1535 4523 mt 1485 4573 L
1886 4521 mt 1936 4571 L
1936 4521 mt 1886 4571 L
2288 4519 mt 2338 4569 L
2338 4519 mt 2288 4569 L
2689 4519 mt 2739 4569 L
2739 4519 mt 2689 4569 L
3090 4519 mt 3140 4569 L
3140 4519 mt 3090 4569 L
3491 4514 mt 3541 4564 L
3541 4514 mt 3491 4564 L
3893 4521 mt 3943 4571 L
3943 4521 mt 3893 4571 L
DD
gr

gs 307 2732 3612 1916 rc
DA
c11
402 -7 401 -5 401 -6 401 9 402 -11 401 13 401 4 401 -7 
401 0 307 4336 10 MP stroke
gr

c11
DA
gs 215 4234 3796 205 rc
SO
 271 4336 mt  343 4336 L
 307 4300 mt  307 4372 L
 672 4336 mt  744 4336 L
 708 4300 mt  708 4372 L
1073 4329 mt 1145 4329 L
1109 4293 mt 1109 4365 L
1474 4333 mt 1546 4333 L
1510 4297 mt 1510 4369 L
1875 4346 mt 1947 4346 L
1911 4310 mt 1911 4382 L
2277 4335 mt 2349 4335 L
2313 4299 mt 2313 4371 L
2678 4344 mt 2750 4344 L
2714 4308 mt 2714 4380 L
3079 4338 mt 3151 4338 L
3115 4302 mt 3115 4374 L
3480 4333 mt 3552 4333 L
3516 4297 mt 3516 4369 L
3882 4326 mt 3954 4326 L
3918 4290 mt 3918 4362 L
 282 4311 mt  332 4361 L
 332 4311 mt  282 4361 L
 683 4311 mt  733 4361 L
 733 4311 mt  683 4361 L
1084 4304 mt 1134 4354 L
1134 4304 mt 1084 4354 L
1485 4308 mt 1535 4358 L
1535 4308 mt 1485 4358 L
1886 4321 mt 1936 4371 L
1936 4321 mt 1886 4371 L
2288 4310 mt 2338 4360 L
2338 4310 mt 2288 4360 L
2689 4319 mt 2739 4369 L
2739 4319 mt 2689 4369 L
3090 4313 mt 3140 4363 L
3140 4313 mt 3090 4363 L
3491 4308 mt 3541 4358 L
3541 4308 mt 3491 4358 L
3893 4301 mt 3943 4351 L
3943 4301 mt 3893 4351 L
DA
gr

gs 307 2732 3612 1916 rc
SO
c12
402 -7 401 6 401 -2 401 2 402 -4 401 5 401 -3 401 5 
401 -9 307 4601 10 MP stroke
gr

c12
SO
gs 215 4500 3796 194 rc
0 j
0 -58 -58 0 0 58 58 0 278 4572 5 MP
DP
0 -58 -58 0 0 58 58 0 679 4563 5 MP
DP
0 -58 -58 0 0 58 58 0 1080 4568 5 MP
DP
0 -58 -58 0 0 58 58 0 1481 4565 5 MP
DP
0 -58 -58 0 0 58 58 0 1882 4570 5 MP
DP
0 -58 -58 0 0 58 58 0 2284 4566 5 MP
DP
0 -58 -58 0 0 58 58 0 2685 4568 5 MP
DP
0 -58 -58 0 0 58 58 0 3086 4566 5 MP
DP
0 -58 -58 0 0 58 58 0 3487 4572 5 MP
DP
0 -58 -58 0 0 58 58 0 3889 4565 5 MP
DP
gr

gs 307 2732 3612 1916 rc
DO
c13
402 5 401 -5 401 11 401 -13 402 -4 401 13 401 -11 401 22 
401 -18 307 4079 10 MP stroke
gr

c13
DO
gs 215 3969 3796 209 rc
SO
0 j
36 47 -36 47 -36 -47 36 -47 307 4126 5 MP
DP
36 47 -36 47 -36 -47 36 -47 708 4108 5 MP
DP
36 47 -36 47 -36 -47 36 -47 1109 4130 5 MP
DP
36 47 -36 47 -36 -47 36 -47 1510 4119 5 MP
DP
36 47 -36 47 -36 -47 36 -47 1911 4132 5 MP
DP
36 47 -36 47 -36 -47 36 -47 2313 4128 5 MP
DP
36 47 -36 47 -36 -47 36 -47 2714 4115 5 MP
DP
36 47 -36 47 -36 -47 36 -47 3115 4126 5 MP
DP
36 47 -36 47 -36 -47 36 -47 3516 4121 5 MP
DP
36 47 -36 47 -36 -47 36 -47 3918 4126 5 MP
DP
DO
gr

gs 307 2732 3612 1916 rc
DD
c14
402 -2 401 -16 401 32 401 10 402 -28 401 60 401 -43 401 7 
401 -11 307 3337 10 MP stroke
gr

c14
DD
gs 215 3198 3796 259 rc
SO
24 W
307 3337 PD
24 W
708 3326 PD
24 W
1109 3333 PD
24 W
1510 3290 PD
24 W
1911 3350 PD
24 W
2313 3322 PD
24 W
2714 3332 PD
24 W
3115 3364 PD
24 W
3516 3348 PD
24 W
3918 3346 PD
DD
gr

gs 307 2732 3612 1916 rc
DA
c15
402 24 401 -13 401 -2 401 -6 402 -16 401 22 401 9 401 -16 
401 12 307 4180 10 MP stroke
gr

c15
DA
gs 215 4078 3796 222 rc
SO
0 j
-41 71 -41 -71 82 0 266 4204 4 MP
DP
-41 71 -41 -71 82 0 667 4216 4 MP
DP
-41 71 -41 -71 82 0 1068 4200 4 MP
DP
-41 71 -41 -71 82 0 1469 4209 4 MP
DP
-41 71 -41 -71 82 0 1870 4231 4 MP
DP
-41 71 -41 -71 82 0 2272 4215 4 MP
DP
-41 71 -41 -71 82 0 2673 4209 4 MP
DP
-41 71 -41 -71 82 0 3074 4207 4 MP
DP
-41 71 -41 -71 82 0 3475 4194 4 MP
DP
-41 71 -41 -71 82 0 3877 4218 4 MP
DP
DA
gr

gs 307 2732 3612 1916 rc
SO
c16
402 51 401 -2 401 -36 401 11 402 -13 401 -11 401 15 401 21 
401 -21 307 3508 10 MP stroke
gr

c16
SO
gs 215 3380 3796 236 rc
0 j
-71 41 0 -82 71 41 260 3508 4 MP
DP
-71 41 0 -82 71 41 661 3487 4 MP
DP
-71 41 0 -82 71 41 1062 3508 4 MP
DP
-71 41 0 -82 71 41 1463 3523 4 MP
DP
-71 41 0 -82 71 41 1864 3512 4 MP
DP
-71 41 0 -82 71 41 2266 3499 4 MP
DP
-71 41 0 -82 71 41 2667 3510 4 MP
DP
-71 41 0 -82 71 41 3068 3474 4 MP
DP
-71 41 0 -82 71 41 3469 3472 4 MP
DP
-71 41 0 -82 71 41 3871 3523 4 MP
DP
gr

gs 307 2732 3612 1916 rc
DO
c17
402 -10 401 15 401 -7 401 -4 402 -2 401 24 401 -5 401 -6 
401 2 307 4309 10 MP stroke
gr

c17
DO
gs 215 4208 3796 211 rc
SO
0 j
0 82 -71 -41 71 -41 283 4350 4 MP
DP
0 82 -71 -41 71 -41 684 4352 4 MP
DP
0 82 -71 -41 71 -41 1085 4346 4 MP
DP
0 82 -71 -41 71 -41 1486 4341 4 MP
DP
0 82 -71 -41 71 -41 1887 4365 4 MP
DP
0 82 -71 -41 71 -41 2289 4363 4 MP
DP
0 82 -71 -41 71 -41 2690 4359 4 MP
DP
0 82 -71 -41 71 -41 3091 4352 4 MP
DP
0 82 -71 -41 71 -41 3492 4367 4 MP
DP
0 82 -71 -41 71 -41 3894 4357 4 MP
DP
DO
gr

gs 307 2732 3612 1916 rc
SO
c18
402 22 401 24 401 -19 401 -14 402 3 401 30 401 -31 401 12 
401 -23 307 3789 10 MP stroke
gr

c18
SO
gs 215 3655 3796 231 rc
0 j
-21 -16 8 -25 -22 15 -21 -15 8 25 -21 16 26 0 8 24 
9 -24 26 0 272 3777 11 MP
DP
-21 -16 8 -25 -22 15 -21 -15 8 25 -21 16 26 0 8 24 
9 -24 26 0 673 3754 11 MP
DP
-21 -16 8 -25 -22 15 -21 -15 8 25 -21 16 26 0 8 24 
9 -24 26 0 1074 3766 11 MP
DP
-21 -16 8 -25 -22 15 -21 -15 8 25 -21 16 26 0 8 24 
9 -24 26 0 1475 3735 11 MP
DP
-21 -16 8 -25 -22 15 -21 -15 8 25 -21 16 26 0 8 24 
9 -24 26 0 1876 3765 11 MP
DP
-21 -16 8 -25 -22 15 -21 -15 8 25 -21 16 26 0 8 24 
9 -24 26 0 2278 3768 11 MP
DP
-21 -16 8 -25 -22 15 -21 -15 8 25 -21 16 26 0 8 24 
9 -24 26 0 2679 3754 11 MP
DP
-21 -16 8 -25 -22 15 -21 -15 8 25 -21 16 26 0 8 24 
9 -24 26 0 3080 3735 11 MP
DP
-21 -16 8 -25 -22 15 -21 -15 8 25 -21 16 26 0 8 24 
9 -24 26 0 3481 3759 11 MP
DP
-21 -16 8 -25 -22 15 -21 -15 8 25 -21 16 26 0 8 24 
9 -24 26 0 3883 3781 11 MP
DP
gr

gs 307 2732 3612 1916 rc
DO
c19
402 35 401 -37 401 15 401 11 402 2 401 12 401 -9 401 -13 
401 10 307 3933 10 MP stroke
gr

c19
DO
gs 215 3829 3796 225 rc
SO
0 j
-13 -18 13 -18 -21 0 -10 -18 -10 18 -21 0 13 18 -13 18 
21 0 10 18 10 -18 21 0 276 3915 13 MP
DP
-13 -18 13 -18 -21 0 -10 -18 -10 18 -21 0 13 18 -13 18 
21 0 10 18 10 -18 21 0 677 3925 13 MP
DP
-13 -18 13 -18 -21 0 -10 -18 -10 18 -21 0 13 18 -13 18 
21 0 10 18 10 -18 21 0 1078 3912 13 MP
DP
-13 -18 13 -18 -21 0 -10 -18 -10 18 -21 0 13 18 -13 18 
21 0 10 18 10 -18 21 0 1479 3903 13 MP
DP
-13 -18 13 -18 -21 0 -10 -18 -10 18 -21 0 13 18 -13 18 
21 0 10 18 10 -18 21 0 1880 3915 13 MP
DP
-13 -18 13 -18 -21 0 -10 -18 -10 18 -21 0 13 18 -13 18 
21 0 10 18 10 -18 21 0 2282 3917 13 MP
DP
-13 -18 13 -18 -21 0 -10 -18 -10 18 -21 0 13 18 -13 18 
21 0 10 18 10 -18 21 0 2683 3928 13 MP
DP
-13 -18 13 -18 -21 0 -10 -18 -10 18 -21 0 13 18 -13 18 
21 0 10 18 10 -18 21 0 3084 3943 13 MP
DP
-13 -18 13 -18 -21 0 -10 -18 -10 18 -21 0 13 18 -13 18 
21 0 10 18 10 -18 21 0 3485 3906 13 MP
DP
-13 -18 13 -18 -21 0 -10 -18 -10 18 -21 0 13 18 -13 18 
21 0 10 18 10 -18 21 0 3887 3941 13 MP
DP
DO
gr

gs 307 2732 3612 1916 rc
SO
6 w
gr

6 w
SO
1 sg
0 1916 3666 0 0 -1916 4278 4666 4 MP
PP
-3666 0 0 1916 3666 0 0 -1916 4278 4666 5 MP stroke
4 w
DO
0 sg
4278 4666 mt 4278 2750 L
4278 2750 mt 4278 2750 L
4685 4666 mt 4685 2750 L
4685 2750 mt 4685 2750 L
5092 4666 mt 5092 2750 L
5092 2750 mt 5092 2750 L
5500 4666 mt 5500 2750 L
5500 2750 mt 5500 2750 L
5907 4666 mt 5907 2750 L
5907 2750 mt 5907 2750 L
6314 4666 mt 6314 2750 L
6314 2750 mt 6314 2750 L
6722 4666 mt 6722 2750 L
6722 2750 mt 6722 2750 L
7129 4666 mt 7129 2750 L
7129 2750 mt 7129 2750 L
7536 4666 mt 7536 2750 L
7536 2750 mt 7536 2750 L
7944 4666 mt 7944 2750 L
7944 2750 mt 7944 2750 L
4278 4666 mt 7944 4666 L
7944 4666 mt 7944 4666 L
4278 4282 mt 7944 4282 L
7944 4282 mt 7944 4282 L
4278 3899 mt 7944 3899 L
7944 3899 mt 7944 3899 L
4278 3516 mt 7944 3516 L
7944 3516 mt 7944 3516 L
4278 3133 mt 7944 3133 L
7944 3133 mt 7944 3133 L
4278 2750 mt 7944 2750 L
7944 2750 mt 7944 2750 L
SO
6 w
4278 2750 mt 7944 2750 L
4278 4666 mt 7944 4666 L
7944 4666 mt 7944 2750 L
4278 4666 mt 4278 2750 L
4278 4666 mt 7944 4666 L
4278 4666 mt 4278 2750 L
4278 4666 mt 4278 4629 L
4278 2750 mt 4278 2786 L
%%IncludeResource: font Helvetica
/Helvetica /WindowsLatin1Encoding 120 FMSR

4212 4811 mt 
(10) s
4685 4666 mt 4685 4629 L
4685 2750 mt 4685 2786 L
4619 4811 mt 
(20) s
5092 4666 mt 5092 4629 L
5092 2750 mt 5092 2786 L
5026 4811 mt 
(30) s
5500 4666 mt 5500 4629 L
5500 2750 mt 5500 2786 L
5434 4811 mt 
(40) s
5907 4666 mt 5907 4629 L
5907 2750 mt 5907 2786 L
5841 4811 mt 
(50) s
6314 4666 mt 6314 4629 L
6314 2750 mt 6314 2786 L
6248 4811 mt 
(60) s
6722 4666 mt 6722 4629 L
6722 2750 mt 6722 2786 L
6656 4811 mt 
(70) s
7129 4666 mt 7129 4629 L
7129 2750 mt 7129 2786 L
7063 4811 mt 
(80) s
7536 4666 mt 7536 4629 L
7536 2750 mt 7536 2786 L
7470 4811 mt 
(90) s
7944 4666 mt 7944 4629 L
7944 2750 mt 7944 2786 L
7844 4811 mt 
(100) s
4278 4666 mt 4314 4666 L
7944 4666 mt 7907 4666 L
4177 4710 mt 
(0) s
4278 4282 mt 4314 4282 L
7944 4282 mt 7907 4282 L
4077 4326 mt 
(0.2) s
4278 3899 mt 4314 3899 L
7944 3899 mt 7907 3899 L
4077 3943 mt 
(0.4) s
4278 3516 mt 4314 3516 L
7944 3516 mt 7907 3516 L
4077 3560 mt 
(0.6) s
4278 3133 mt 4314 3133 L
7944 3133 mt 7907 3133 L
4077 3177 mt 
(0.8) s
4278 2750 mt 4314 2750 L
7944 2750 mt 7907 2750 L
4177 2794 mt 
(1) s
4278 2696 mt 
(x 10) s
%%IncludeResource: font Helvetica
/Helvetica /WindowsLatin1Encoding 80 FMSR

4504 2622 mt 
(-10) s
4278 2750 mt 7944 2750 L
4278 4666 mt 7944 4666 L
7944 4666 mt 7944 2750 L
4278 4666 mt 4278 2750 L
gs 4278 2750 3667 1917 rc
18 w
c8
408 -1 407 -3 407 -2 408 6 407 -5 407 5 408 -1 407 3 
407 -3 4278 4651 10 MP stroke
gr

18 w
c8
gs 4186 4556 3851 193 rc
  36   36 4278 4651 FO
  36   36 4685 4648 FO
  36   36 5092 4651 FO
  36   36 5500 4650 FO
  36   36 5907 4655 FO
  36   36 6314 4650 FO
  36   36 6722 4656 FO
  36   36 7129 4654 FO
  36   36 7536 4651 FO
  36   36 7944 4650 FO
gr

gs 4278 2750 3667 1917 rc
gr

0 sg
%%IncludeResource: font Helvetica-Bold
/Helvetica-Bold /WindowsLatin1Encoding 120 FMSR

5438 2655 mt 
(Wilcoxon rank sum test) s
gs 4278 2750 3667 1917 rc
DO
c9
408 -1 407 0 407 0 408 0 407 0 407 1 408 -1 407 -1 
407 1 4278 4645 10 MP stroke
gr

c9
DO
gs 4186 4552 3851 187 rc
SO
0 j
41 71 -82 0 41 -71 4278 4692 4 MP
DP
41 71 -82 0 41 -71 4685 4693 4 MP
DP
41 71 -82 0 41 -71 5092 4692 4 MP
DP
41 71 -82 0 41 -71 5500 4691 4 MP
DP
41 71 -82 0 41 -71 5907 4692 4 MP
DP
41 71 -82 0 41 -71 6314 4692 4 MP
DP
41 71 -82 0 41 -71 6722 4692 4 MP
DP
41 71 -82 0 41 -71 7129 4692 4 MP
DP
41 71 -82 0 41 -71 7536 4692 4 MP
DP
41 71 -82 0 41 -71 7944 4691 4 MP
DP
DO
gr

gs 4278 2750 3667 1917 rc
DD
c10
408 -2 407 1 407 0 408 0 407 1 407 0 408 0 407 -1 
407 1 4278 4663 10 MP stroke
gr

c10
DD
gs 4186 4571 3851 187 rc
SO
4253 4638 mt 4303 4688 L
4303 4638 mt 4253 4688 L
4660 4639 mt 4710 4689 L
4710 4639 mt 4660 4689 L
5067 4638 mt 5117 4688 L
5117 4638 mt 5067 4688 L
5475 4638 mt 5525 4688 L
5525 4638 mt 5475 4688 L
5882 4638 mt 5932 4688 L
5932 4638 mt 5882 4688 L
6289 4639 mt 6339 4689 L
6339 4639 mt 6289 4689 L
6697 4639 mt 6747 4689 L
6747 4639 mt 6697 4689 L
7104 4639 mt 7154 4689 L
7154 4639 mt 7104 4689 L
7511 4640 mt 7561 4690 L
7561 4640 mt 7511 4690 L
7919 4638 mt 7969 4688 L
7969 4638 mt 7919 4688 L
DD
gr

gs 4278 2750 3667 1917 rc
DA
c11
408 4 407 2 407 0 408 3 407 -4 407 -1 408 -6 407 6 
407 -1 4278 4658 10 MP stroke
gr

c11
DA
gs 4186 4560 3851 196 rc
SO
4242 4658 mt 4314 4658 L
4278 4622 mt 4278 4694 L
4649 4657 mt 4721 4657 L
4685 4621 mt 4685 4693 L
5056 4663 mt 5128 4663 L
5092 4627 mt 5092 4699 L
5464 4657 mt 5536 4657 L
5500 4621 mt 5500 4693 L
5871 4656 mt 5943 4656 L
5907 4620 mt 5907 4692 L
6278 4652 mt 6350 4652 L
6314 4616 mt 6314 4688 L
6686 4655 mt 6758 4655 L
6722 4619 mt 6722 4691 L
7093 4655 mt 7165 4655 L
7129 4619 mt 7129 4691 L
7500 4657 mt 7572 4657 L
7536 4621 mt 7536 4693 L
7908 4661 mt 7980 4661 L
7944 4625 mt 7944 4697 L
4253 4633 mt 4303 4683 L
4303 4633 mt 4253 4683 L
4660 4632 mt 4710 4682 L
4710 4632 mt 4660 4682 L
5067 4638 mt 5117 4688 L
5117 4638 mt 5067 4688 L
5475 4632 mt 5525 4682 L
5525 4632 mt 5475 4682 L
5882 4631 mt 5932 4681 L
5932 4631 mt 5882 4681 L
6289 4627 mt 6339 4677 L
6339 4627 mt 6289 4677 L
6697 4630 mt 6747 4680 L
6747 4630 mt 6697 4680 L
7104 4630 mt 7154 4680 L
7154 4630 mt 7104 4680 L
7511 4632 mt 7561 4682 L
7561 4632 mt 7511 4682 L
7919 4636 mt 7969 4686 L
7969 4636 mt 7919 4686 L
DA
gr

gs 4278 2750 3667 1917 rc
SO
c12
408 1702 407 -1708 407 485 408 -485 407 364 407 -375 408 73 407 -72 
407 1718 4278 2944 10 MP stroke
gr

c12
SO
gs 4186 2852 3851 1904 rc
0 j
0 -58 -58 0 0 58 58 0 4249 2915 5 MP
DP
0 -58 -58 0 0 58 58 0 4656 4633 5 MP
DP
0 -58 -58 0 0 58 58 0 5063 4561 5 MP
DP
0 -58 -58 0 0 58 58 0 5471 4634 5 MP
DP
0 -58 -58 0 0 58 58 0 5878 4259 5 MP
DP
0 -58 -58 0 0 58 58 0 6285 4623 5 MP
DP
0 -58 -58 0 0 58 58 0 6693 4138 5 MP
DP
0 -58 -58 0 0 58 58 0 7100 4623 5 MP
DP
0 -58 -58 0 0 58 58 0 7507 2915 5 MP
DP
0 -58 -58 0 0 58 58 0 7915 4617 5 MP
DP
gr

gs 4278 2750 3667 1917 rc
DO
c13
408 3 407 -1 407 -3 408 0 407 2 407 -2 408 3 407 -2 
407 3 4278 4650 10 MP stroke
gr

c13
DO
gs 4186 4558 3851 189 rc
SO
0 j
36 47 -36 47 -36 -47 36 -47 4278 4697 5 MP
DP
36 47 -36 47 -36 -47 36 -47 4685 4700 5 MP
DP
36 47 -36 47 -36 -47 36 -47 5092 4698 5 MP
DP
36 47 -36 47 -36 -47 36 -47 5500 4701 5 MP
DP
36 47 -36 47 -36 -47 36 -47 5907 4699 5 MP
DP
36 47 -36 47 -36 -47 36 -47 6314 4701 5 MP
DP
36 47 -36 47 -36 -47 36 -47 6722 4701 5 MP
DP
36 47 -36 47 -36 -47 36 -47 7129 4698 5 MP
DP
36 47 -36 47 -36 -47 36 -47 7536 4697 5 MP
DP
36 47 -36 47 -36 -47 36 -47 7944 4700 5 MP
DP
DO
gr

gs 4278 2750 3667 1917 rc
DD
c14
408 1 407 0 407 -4 408 3 407 0 407 0 408 2 407 -1 
407 0 4278 4645 10 MP stroke
gr

c14
DD
gs 4186 4552 3851 190 rc
SO
24 W
4278 4645 PD
24 W
4685 4645 PD
24 W
5092 4644 PD
24 W
5500 4646 PD
24 W
5907 4646 PD
24 W
6314 4646 PD
24 W
6722 4649 PD
24 W
7129 4645 PD
24 W
7536 4645 PD
24 W
7944 4646 PD
DD
gr

gs 4278 2750 3667 1917 rc
DA
c15
408 0 407 0 407 -6 408 5 407 -6 407 7 408 -2 407 4 
407 -3 4278 4651 10 MP stroke
gr

c15
DA
gs 4186 4556 3851 194 rc
SO
0 j
-41 71 -41 -71 82 0 4237 4675 4 MP
DP
-41 71 -41 -71 82 0 4644 4672 4 MP
DP
-41 71 -41 -71 82 0 5051 4676 4 MP
DP
-41 71 -41 -71 82 0 5459 4674 4 MP
DP
-41 71 -41 -71 82 0 5866 4681 4 MP
DP
-41 71 -41 -71 82 0 6273 4675 4 MP
DP
-41 71 -41 -71 82 0 6681 4680 4 MP
DP
-41 71 -41 -71 82 0 7088 4674 4 MP
DP
-41 71 -41 -71 82 0 7495 4674 4 MP
DP
-41 71 -41 -71 82 0 7903 4674 4 MP
DP
DA
gr

gs 4278 2750 3667 1917 rc
SO
c16
408 -1 407 1 407 -1 408 -3 407 4 407 -1 408 -1 407 1 
407 0 4278 4646 10 MP stroke
gr

c16
SO
gs 4186 4553 3851 189 rc
0 j
-71 41 0 -82 71 41 4231 4646 4 MP
DP
-71 41 0 -82 71 41 4638 4646 4 MP
DP
-71 41 0 -82 71 41 5045 4647 4 MP
DP
-71 41 0 -82 71 41 5453 4646 4 MP
DP
-71 41 0 -82 71 41 5860 4645 4 MP
DP
-71 41 0 -82 71 41 6267 4649 4 MP
DP
-71 41 0 -82 71 41 6675 4646 4 MP
DP
-71 41 0 -82 71 41 7082 4645 4 MP
DP
-71 41 0 -82 71 41 7489 4646 4 MP
DP
-71 41 0 -82 71 41 7897 4645 4 MP
DP
gr

gs 4278 2750 3667 1917 rc
DO
c17
408 8 407 -1 407 0 408 0 407 -2 407 0 408 -4 407 4 
407 -3 4278 4655 10 MP stroke
gr

c17
DO
gs 4186 4557 3851 193 rc
SO
0 j
0 82 -71 -41 71 -41 4254 4696 4 MP
DP
0 82 -71 -41 71 -41 4661 4693 4 MP
DP
0 82 -71 -41 71 -41 5068 4697 4 MP
DP
0 82 -71 -41 71 -41 5476 4693 4 MP
DP
0 82 -71 -41 71 -41 5883 4693 4 MP
DP
0 82 -71 -41 71 -41 6290 4691 4 MP
DP
0 82 -71 -41 71 -41 6698 4691 4 MP
DP
0 82 -71 -41 71 -41 7105 4691 4 MP
DP
0 82 -71 -41 71 -41 7512 4690 4 MP
DP
0 82 -71 -41 71 -41 7920 4698 4 MP
DP
DO
gr

gs 4278 2750 3667 1917 rc
SO
c18
408 -3 407 5 407 -2 408 1 407 1 407 -2 408 2 407 0 
407 0 4278 4645 10 MP stroke
gr

c18
SO
gs 4186 4553 3851 190 rc
0 j
-21 -16 8 -25 -22 15 -21 -15 8 25 -21 16 26 0 8 24 
9 -24 26 0 4243 4633 11 MP
DP
-21 -16 8 -25 -22 15 -21 -15 8 25 -21 16 26 0 8 24 
9 -24 26 0 4650 4633 11 MP
DP
-21 -16 8 -25 -22 15 -21 -15 8 25 -21 16 26 0 8 24 
9 -24 26 0 5057 4633 11 MP
DP
-21 -16 8 -25 -22 15 -21 -15 8 25 -21 16 26 0 8 24 
9 -24 26 0 5465 4635 11 MP
DP
-21 -16 8 -25 -22 15 -21 -15 8 25 -21 16 26 0 8 24 
9 -24 26 0 5872 4633 11 MP
DP
-21 -16 8 -25 -22 15 -21 -15 8 25 -21 16 26 0 8 24 
9 -24 26 0 6279 4634 11 MP
DP
-21 -16 8 -25 -22 15 -21 -15 8 25 -21 16 26 0 8 24 
9 -24 26 0 6687 4635 11 MP
DP
-21 -16 8 -25 -22 15 -21 -15 8 25 -21 16 26 0 8 24 
9 -24 26 0 7094 4633 11 MP
DP
-21 -16 8 -25 -22 15 -21 -15 8 25 -21 16 26 0 8 24 
9 -24 26 0 7501 4638 11 MP
DP
-21 -16 8 -25 -22 15 -21 -15 8 25 -21 16 26 0 8 24 
9 -24 26 0 7909 4635 11 MP
DP
gr

gs 4278 2750 3667 1917 rc
DO
c19
408 0 407 -2 407 -1 408 2 407 0 407 -1 408 0 407 -1 
407 3 4278 4645 10 MP stroke
gr

c19
DO
gs 4186 4553 3851 188 rc
SO
0 j
-13 -18 13 -18 -21 0 -10 -18 -10 18 -21 0 13 18 -13 18 
21 0 10 18 10 -18 21 0 4247 4627 13 MP
DP
-13 -18 13 -18 -21 0 -10 -18 -10 18 -21 0 13 18 -13 18 
21 0 10 18 10 -18 21 0 4654 4630 13 MP
DP
-13 -18 13 -18 -21 0 -10 -18 -10 18 -21 0 13 18 -13 18 
21 0 10 18 10 -18 21 0 5061 4629 13 MP
DP
-13 -18 13 -18 -21 0 -10 -18 -10 18 -21 0 13 18 -13 18 
21 0 10 18 10 -18 21 0 5469 4629 13 MP
DP
-13 -18 13 -18 -21 0 -10 -18 -10 18 -21 0 13 18 -13 18 
21 0 10 18 10 -18 21 0 5876 4628 13 MP
DP
-13 -18 13 -18 -21 0 -10 -18 -10 18 -21 0 13 18 -13 18 
21 0 10 18 10 -18 21 0 6283 4628 13 MP
DP
-13 -18 13 -18 -21 0 -10 -18 -10 18 -21 0 13 18 -13 18 
21 0 10 18 10 -18 21 0 6691 4630 13 MP
DP
-13 -18 13 -18 -21 0 -10 -18 -10 18 -21 0 13 18 -13 18 
21 0 10 18 10 -18 21 0 7098 4629 13 MP
DP
-13 -18 13 -18 -21 0 -10 -18 -10 18 -21 0 13 18 -13 18 
21 0 10 18 10 -18 21 0 7505 4627 13 MP
DP
-13 -18 13 -18 -21 0 -10 -18 -10 18 -21 0 13 18 -13 18 
21 0 10 18 10 -18 21 0 7913 4627 13 MP
DP
DO
gr

gs 4278 2750 3667 1917 rc
gr

0 sg
%%IncludeResource: font Helvetica
/Helvetica /WindowsLatin1Encoding 120 FMSR

4261 4709 mt 
( ) s
7928 2792 mt 
( ) s
SO
6 w
1 sg
0 2058 936 0 0 -2058 8110 3703 4 MP
PP
-936 0 0 2058 936 0 0 -2058 8110 3703 5 MP stroke
4 w
DO
SO
6 w
0 sg
8110 1645 mt 9046 1645 L
8110 3703 mt 9046 3703 L
9046 3703 mt 9046 1645 L
8110 3703 mt 8110 1645 L
8110 3703 mt 9046 3703 L
8110 3703 mt 8110 1645 L
8110 1645 mt 9046 1645 L
8110 3703 mt 9046 3703 L
9046 3703 mt 9046 1645 L
8110 3703 mt 8110 1645 L
8579 1792 mt 
(scpnrh4) s
gs 8110 1645 937 2059 rc
18 w
c8
360 0 8182 1750 2 MP stroke
gs 8270 1658 185 185 rc
  36   36 8362 1750 FO
gr

gr

18 w
c8
0 sg
8579 1960 mt 
(scpnrg3) s
gs 8110 1645 937 2059 rc
DO
c9
360 0 8182 1917 2 MP stroke
SO
gs 8270 1825 185 185 rc
0 j
41 71 -82 0 41 -71 8362 1964 4 MP
DP
gr

gr

c9
0 sg
8579 2128 mt 
(scpnrf2) s
gs 8110 1645 937 2059 rc
DD
c10
360 0 8182 2086 2 MP stroke
SO
gs 8270 1994 185 185 rc
8337 2061 mt 8387 2111 L
8387 2061 mt 8337 2111 L
gr

gr

c10
0 sg
8579 2296 mt 
(scpnre1) s
gs 8110 1645 937 2059 rc
DA
c11
360 0 8182 2254 2 MP stroke
SO
gs 8270 2162 185 185 rc
8326 2254 mt 8398 2254 L
8362 2218 mt 8362 2290 L
8337 2229 mt 8387 2279 L
8387 2229 mt 8337 2279 L
gr

gr

c11
0 sg
8579 2464 mt 
(scpe1) s
gs 8110 1645 937 2059 rc
c12
360 0 8182 2422 2 MP stroke
gs 8270 2330 185 185 rc
0 j
0 -58 -58 0 0 58 58 0 8333 2393 5 MP
DP
gr

gr

c12
0 sg
8579 2632 mt 
(scpd2) s
gs 8110 1645 937 2059 rc
DO
c13
360 0 8182 2590 2 MP stroke
SO
gs 8270 2498 185 185 rc
0 j
36 47 -36 47 -36 -47 36 -47 8362 2637 5 MP
DP
gr

gr

c13
0 sg
8579 2801 mt 
(scpc3) s
gs 8110 1645 937 2059 rc
DD
c14
360 0 8182 2757 2 MP stroke
SO
gs 8270 2665 185 185 rc
24 W
8362 2757 PD
gr

gr

c14
0 sg
8579 2969 mt 
(scpb4) s
gs 8110 1645 937 2059 rc
DA
c15
360 0 8182 2925 2 MP stroke
SO
gs 8270 2833 185 185 rc
0 j
-41 71 -41 -71 82 0 8321 2949 4 MP
DP
gr

gr

c15
0 sg
8579 3137 mt 
(scpa5) s
gs 8110 1645 937 2059 rc
c16
360 0 8182 3093 2 MP stroke
gs 8270 3001 185 185 rc
0 j
-71 41 0 -82 71 41 8315 3093 4 MP
DP
gr

gr

c16
0 sg
8579 3305 mt 
(scp63) s
gs 8110 1645 937 2059 rc
DO
c17
360 0 8182 3261 2 MP stroke
SO
gs 8270 3169 185 185 rc
0 j
0 82 -71 -41 71 -41 8338 3302 4 MP
DP
gr

gr

c17
0 sg
8579 3473 mt 
(scp52) s
gs 8110 1645 937 2059 rc
c18
360 0 8182 3429 2 MP stroke
gs 8270 3337 185 185 rc
0 j
-21 -16 8 -25 -22 15 -21 -15 8 25 -21 16 26 0 8 24 
9 -24 26 0 8327 3417 11 MP
DP
gr

gr

c18
0 sg
8579 3641 mt 
(scp41) s
gs 8110 1645 937 2059 rc
DO
c19
360 0 8182 3597 2 MP stroke
SO
gs 8270 3505 185 185 rc
0 j
-13 -18 13 -18 -21 0 -10 -18 -10 18 -21 0 13 18 -13 18 
21 0 10 18 10 -18 21 0 8331 3579 13 MP
DP
gr

6 w
gr

6 w
c19
0 sg
%%IncludeResource: font Helvetica-Bold
/Helvetica-Bold /WindowsLatin1Encoding 120 FMSR

1627 5034 mt 
(Columns Added) s
5682 4991 mt 
(Columns Added) s

end %%Color Dict

eplot
%%EndObject

epage
end

showpage

%%Trailer
%%EOF
