%!PS-Adobe-3.0 EPSF-3.0
%%Creator: MATLAB, The MathWorks, Inc. Version 8.2.0.701 (R2013b). Operating System: Microsoft Windows 8.
%%Title: D:\journal\12plots\Rem.eps
%%CreationDate: 09/05/2015  19:18:01
%%DocumentNeededFonts: Helvetica
%%+ Helvetica-Bold
%%DocumentProcessColors: Cyan Magenta Yellow Black
%%LanguageLevel: 2
%%Pages: 1
%%BoundingBox:  -138   192   733   649
%%EndComments

%%BeginProlog
% MathWorks dictionary
/MathWorks 160 dict begin
% definition operators
/bdef {bind def} bind def
/ldef {load def} bind def
/xdef {exch def} bdef
/xstore {exch store} bdef
% operator abbreviations
/c  /clip ldef
/cc /concat ldef
/cp /closepath ldef
/gr /grestore ldef
/gs /gsave ldef
/mt /moveto ldef
/np /newpath ldef
/cm /currentmatrix ldef
/sm /setmatrix ldef
/rm /rmoveto ldef
/rl /rlineto ldef
/s {show newpath} bdef
/sc {setcmykcolor} bdef
/sr /setrgbcolor ldef
/sg /setgray ldef
/w /setlinewidth ldef
/j /setlinejoin ldef
/cap /setlinecap ldef
/rc {rectclip} bdef
/rf {rectfill} bdef
% page state control
/pgsv () def
/bpage {/pgsv save def} bdef
/epage {pgsv restore} bdef
/bplot /gsave ldef
/eplot {stroke grestore} bdef
% orientation switch
/portraitMode 0 def /landscapeMode 1 def /rotateMode 2 def
% coordinate system mappings
/dpi2point 0 def
% font control
/FontSize 0 def
/FMS {/FontSize xstore findfont [FontSize 0 0 FontSize neg 0 0]
  makefont setfont} bdef
/ISOLatin1Encoding where {pop /WindowsLatin1Encoding 256 array bdef
ISOLatin1Encoding WindowsLatin1Encoding copy pop
/.notdef/.notdef/quotesinglbase/florin/quotedblbase/ellipsis/dagger
/daggerdbl/circumflex/perthousand/Scaron/guilsinglleft/OE/.notdef/.notdef
/.notdef/.notdef/quoteleft/quoteright/quotedblleft/quotedblright/bullet
/endash/emdash/tilde/trademark/scaron/guilsinglright/oe/.notdef/.notdef
/Ydieresis WindowsLatin1Encoding 128 32 getinterval astore pop}
{/WindowsLatin1Encoding StandardEncoding bdef} ifelse
/reencode {exch dup where {pop load} {pop StandardEncoding} ifelse
  exch dup 3 1 roll findfont dup length dict begin
  { 1 index /FID ne {def}{pop pop} ifelse } forall
  /Encoding exch def currentdict end definefont pop} bdef
/isroman {findfont /CharStrings get /Agrave known} bdef
/FMSR {3 1 roll 1 index dup isroman {reencode} {pop pop} ifelse
  exch FMS} bdef
/csm {1 dpi2point div -1 dpi2point div scale neg translate
 dup landscapeMode eq {pop -90 rotate}
  {rotateMode eq {90 rotate} if} ifelse} bdef
% line types: solid, dotted, dashed, dotdash
/SO { [] 0 setdash } bdef
/DO { [.5 dpi2point mul 4 dpi2point mul] 0 setdash } bdef
/DA { [6 dpi2point mul] 0 setdash } bdef
/DD { [.5 dpi2point mul 4 dpi2point mul 6 dpi2point mul 4
  dpi2point mul] 0 setdash } bdef
% macros for lines and objects
/L {lineto stroke} bdef
/MP {3 1 roll moveto 1 sub {rlineto} repeat} bdef
/AP {{rlineto} repeat} bdef
/PDlw -1 def
/W {/PDlw currentlinewidth def setlinewidth} def
/PP {closepath eofill} bdef
/DP {closepath stroke} bdef
/MR {4 -2 roll moveto dup  0 exch rlineto exch 0 rlineto
  neg 0 exch rlineto closepath} bdef
/FR {MR stroke} bdef
/PR {MR fill} bdef
/L1i {{currentfile picstr readhexstring pop} image} bdef
/tMatrix matrix def
/MakeOval {newpath tMatrix currentmatrix pop translate scale
0 0 1 0 360 arc tMatrix setmatrix} bdef
/FO {MakeOval stroke} bdef
/PO {MakeOval fill} bdef
/PD {currentlinewidth 2 div 0 360 arc fill
   PDlw -1 eq not {PDlw w /PDlw -1 def} if} def
/FA {newpath tMatrix currentmatrix pop translate scale
  0 0 1 5 -2 roll arc tMatrix setmatrix stroke} bdef
/PA {newpath tMatrix currentmatrix pop	translate 0 0 moveto scale
  0 0 1 5 -2 roll arc closepath tMatrix setmatrix fill} bdef
/FAn {newpath tMatrix currentmatrix pop translate scale
  0 0 1 5 -2 roll arcn tMatrix setmatrix stroke} bdef
/PAn {newpath tMatrix currentmatrix pop translate 0 0 moveto scale
  0 0 1 5 -2 roll arcn closepath tMatrix setmatrix fill} bdef
/vradius 0 def /hradius 0 def /lry 0 def
/lrx 0 def /uly 0 def /ulx 0 def /rad 0 def
/MRR {/vradius xdef /hradius xdef /lry xdef /lrx xdef /uly xdef
  /ulx xdef newpath tMatrix currentmatrix pop ulx hradius add uly
  vradius add translate hradius vradius scale 0 0 1 180 270 arc 
  tMatrix setmatrix lrx hradius sub uly vradius add translate
  hradius vradius scale 0 0 1 270 360 arc tMatrix setmatrix
  lrx hradius sub lry vradius sub translate hradius vradius scale
  0 0 1 0 90 arc tMatrix setmatrix ulx hradius add lry vradius sub
  translate hradius vradius scale 0 0 1 90 180 arc tMatrix setmatrix
  closepath} bdef
/FRR {MRR stroke } bdef
/PRR {MRR fill } bdef
/MlrRR {/lry xdef /lrx xdef /uly xdef /ulx xdef /rad lry uly sub 2 div def
  newpath tMatrix currentmatrix pop ulx rad add uly rad add translate
  rad rad scale 0 0 1 90 270 arc tMatrix setmatrix lrx rad sub lry rad
  sub translate rad rad scale 0 0 1 270 90 arc tMatrix setmatrix
  closepath} bdef
/FlrRR {MlrRR stroke } bdef
/PlrRR {MlrRR fill } bdef
/MtbRR {/lry xdef /lrx xdef /uly xdef /ulx xdef /rad lrx ulx sub 2 div def
  newpath tMatrix currentmatrix pop ulx rad add uly rad add translate
  rad rad scale 0 0 1 180 360 arc tMatrix setmatrix lrx rad sub lry rad
  sub translate rad rad scale 0 0 1 0 180 arc tMatrix setmatrix
  closepath} bdef
/FtbRR {MtbRR stroke } bdef
/PtbRR {MtbRR fill } bdef
/stri 6 array def /dtri 6 array def
/smat 6 array def /dmat 6 array def
/tmat1 6 array def /tmat2 6 array def /dif 3 array def
/asub {/ind2 exch def /ind1 exch def dup dup
  ind1 get exch ind2 get sub exch } bdef
/tri_to_matrix {
  2 0 asub 3 1 asub 4 0 asub 5 1 asub
  dup 0 get exch 1 get 7 -1 roll astore } bdef
/compute_transform {
  dmat dtri tri_to_matrix tmat1 invertmatrix 
  smat stri tri_to_matrix tmat2 concatmatrix } bdef
/ds {stri astore pop} bdef
/dt {dtri astore pop} bdef
/db {2 copy /cols xdef /rows xdef mul dup 3 mul string
  currentfile 
  3 index 0 eq {/ASCIIHexDecode filter}
  {/ASCII85Decode filter 3 index 2 eq {/RunLengthDecode filter} if }
  ifelse exch readstring pop
  dup 0 3 index getinterval /rbmap xdef
  dup 2 index dup getinterval /gbmap xdef
  1 index dup 2 mul exch getinterval /bbmap xdef pop pop}bdef
/it {gs np dtri aload pop moveto lineto lineto cp c
  cols rows 8 compute_transform 
  rbmap gbmap bbmap true 3 colorimage gr}bdef
/il {newpath moveto lineto stroke}bdef
currentdict end def
%%EndProlog

%%BeginSetup
MathWorks begin

0 cap

end
%%EndSetup

%%Page: 1 1
%%BeginPageSetup
%%PageBoundingBox:  -138   192   733   649
MathWorks begin
bpage
%%EndPageSetup

%%BeginObject: obj1
bplot

/dpi2point 12 def
portraitMode -1656 7788 csm

    0     0 10457  5474 rc
95 dict begin %Colortable dictionary
/c0 { 0.000000 0.000000 0.000000 sr} bdef
/c1 { 1.000000 1.000000 1.000000 sr} bdef
/c2 { 0.900000 0.000000 0.000000 sr} bdef
/c3 { 0.000000 0.820000 0.000000 sr} bdef
/c4 { 0.000000 0.000000 0.800000 sr} bdef
/c5 { 0.910000 0.820000 0.320000 sr} bdef
/c6 { 1.000000 0.260000 0.820000 sr} bdef
/c7 { 0.000000 0.820000 0.820000 sr} bdef
c0
1 j
1 sg
   0    0 10458 5475 rf
6 w
0 1916 3773 0 0 -1916 316 2265 4 MP
PP
-3773 0 0 1916 3773 0 0 -1916 316 2265 5 MP stroke
4 w
DO
0 sg
 316 2265 mt  316  349 L
 316  349 mt  316  349 L
 787 2265 mt  787  349 L
 787  349 mt  787  349 L
1259 2265 mt 1259  349 L
1259  349 mt 1259  349 L
1730 2265 mt 1730  349 L
1730  349 mt 1730  349 L
2202 2265 mt 2202  349 L
2202  349 mt 2202  349 L
2674 2265 mt 2674  349 L
2674  349 mt 2674  349 L
3145 2265 mt 3145  349 L
3145  349 mt 3145  349 L
3617 2265 mt 3617  349 L
3617  349 mt 3617  349 L
4089 2265 mt 4089  349 L
4089  349 mt 4089  349 L
 316 2265 mt 4089 2265 L
4089 2265 mt 4089 2265 L
 316 1991 mt 4089 1991 L
4089 1991 mt 4089 1991 L
 316 1717 mt 4089 1717 L
4089 1717 mt 4089 1717 L
 316 1443 mt 4089 1443 L
4089 1443 mt 4089 1443 L
 316 1170 mt 4089 1170 L
4089 1170 mt 4089 1170 L
 316  896 mt 4089  896 L
4089  896 mt 4089  896 L
 316  622 mt 4089  622 L
4089  622 mt 4089  622 L
 316  349 mt 4089  349 L
4089  349 mt 4089  349 L
SO
6 w
 316  349 mt 4089  349 L
 316 2265 mt 4089 2265 L
4089 2265 mt 4089  349 L
 316 2265 mt  316  349 L
 316 2265 mt 4089 2265 L
 316 2265 mt  316  349 L
 316 2265 mt  316 2227 L
 316  349 mt  316  386 L
%%IncludeResource: font Helvetica
/Helvetica /WindowsLatin1Encoding 120 FMSR

 250 2410 mt 
(10) s
 787 2265 mt  787 2227 L
 787  349 mt  787  386 L
 721 2410 mt 
(20) s
1259 2265 mt 1259 2227 L
1259  349 mt 1259  386 L
1193 2410 mt 
(30) s
1730 2265 mt 1730 2227 L
1730  349 mt 1730  386 L
1664 2410 mt 
(40) s
2202 2265 mt 2202 2227 L
2202  349 mt 2202  386 L
2136 2410 mt 
(50) s
2674 2265 mt 2674 2227 L
2674  349 mt 2674  386 L
2608 2410 mt 
(60) s
3145 2265 mt 3145 2227 L
3145  349 mt 3145  386 L
3079 2410 mt 
(70) s
3617 2265 mt 3617 2227 L
3617  349 mt 3617  386 L
3551 2410 mt 
(80) s
4089 2265 mt 4089 2227 L
4089  349 mt 4089  386 L
4023 2410 mt 
(90) s
 316 2265 mt  353 2265 L
4089 2265 mt 4051 2265 L
 215 2309 mt 
(0) s
 316 1991 mt  353 1991 L
4089 1991 mt 4051 1991 L
 148 2035 mt 
(50) s
 316 1717 mt  353 1717 L
4089 1717 mt 4051 1717 L
  81 1761 mt 
(100) s
 316 1443 mt  353 1443 L
4089 1443 mt 4051 1443 L
  81 1487 mt 
(150) s
 316 1170 mt  353 1170 L
4089 1170 mt 4051 1170 L
  81 1214 mt 
(200) s
 316  896 mt  353  896 L
4089  896 mt 4051  896 L
  81  940 mt 
(250) s
 316  622 mt  353  622 L
4089  622 mt 4051  622 L
  81  666 mt 
(300) s
 316  349 mt  353  349 L
4089  349 mt 4051  349 L
  81  393 mt 
(350) s
 316  349 mt 4089  349 L
 316 2265 mt 4089 2265 L
4089 2265 mt 4089  349 L
 316 2265 mt  316  349 L
gs 316 349 3774 1917 rc
18 w
/c8 { 0.000000 0.000000 1.000000 sr} bdef
c8
472 66 472 28 471 13 472 92 472 0 471 -66 472 101 471 -39 
316 1664 9 MP stroke
gr

18 w
c8
gs 224 1533 3958 419 rc
  36   36  316 1664 FO
  36   36  787 1625 FO
  36   36 1259 1726 FO
  36   36 1730 1660 FO
  36   36 2202 1660 FO
  36   36 2674 1752 FO
  36   36 3145 1765 FO
  36   36 3617 1793 FO
  36   36 4089 1859 FO
gr

gs 316 349 3774 1917 rc
gr

0 sg
%%IncludeResource: font Helvetica-Bold
/Helvetica-Bold /WindowsLatin1Encoding 120 FMSR

1265  200 mt 
(Time to reach feasible region \(D) s
%%IncludeResource: font Helvetica-Bold
/Helvetica-Bold /WindowsLatin1Encoding 96 FMSR

3081  260 mt 
(f) s
%%IncludeResource: font Helvetica-Bold
/Helvetica-Bold /WindowsLatin1Encoding 120 FMSR

3112  200 mt 
(\)) s
gs 316 349 3774 1917 rc
DO
/c9 { 1.000000 0.000000 0.000000 sr} bdef
c9
472 118 472 153 471 109 472 34 472 65 471 23 472 4 471 117 
316 617 9 MP stroke
gr

c9
DO
gs 224 525 3958 808 rc
SO
0 j
41 71 -82 0 41 -71 316 664 4 MP
DP
41 71 -82 0 41 -71 787 781 4 MP
DP
41 71 -82 0 41 -71 1259 785 4 MP
DP
41 71 -82 0 41 -71 1730 808 4 MP
DP
41 71 -82 0 41 -71 2202 873 4 MP
DP
41 71 -82 0 41 -71 2674 907 4 MP
DP
41 71 -82 0 41 -71 3145 1016 4 MP
DP
41 71 -82 0 41 -71 3617 1169 4 MP
DP
41 71 -82 0 41 -71 4089 1287 4 MP
DP
DO
gr

gs 316 349 3774 1917 rc
DD
/c10 { 0.000000 1.000000 0.000000 sr} bdef
c10
472 -2 472 8 471 3 472 11 472 6 471 -18 472 14 471 1 
316 2144 9 MP stroke
gr

c10
DD
gs 224 2049 3958 213 rc
SO
 291 2119 mt  341 2169 L
 341 2119 mt  291 2169 L
 762 2120 mt  812 2170 L
 812 2120 mt  762 2170 L
1234 2134 mt 1284 2184 L
1284 2134 mt 1234 2184 L
1705 2116 mt 1755 2166 L
1755 2116 mt 1705 2166 L
2177 2122 mt 2227 2172 L
2227 2122 mt 2177 2172 L
2649 2133 mt 2699 2183 L
2699 2133 mt 2649 2183 L
3120 2136 mt 3170 2186 L
3170 2136 mt 3120 2186 L
3592 2144 mt 3642 2194 L
3642 2144 mt 3592 2194 L
4064 2142 mt 4114 2192 L
4114 2142 mt 4064 2192 L
DD
gr

gs 316 349 3774 1917 rc
DA
/c11 { 0.000000 0.000000 0.172414 sr} bdef
c11
472 -5 472 34 471 -11 472 -13 472 7 471 19 472 7 471 -10 
316 2021 9 MP stroke
gr

c11
DA
gs 224 1919 3958 228 rc
SO
 280 2021 mt  352 2021 L
 316 1985 mt  316 2057 L
 751 2011 mt  823 2011 L
 787 1975 mt  787 2047 L
1223 2018 mt 1295 2018 L
1259 1982 mt 1259 2054 L
1694 2037 mt 1766 2037 L
1730 2001 mt 1730 2073 L
2166 2044 mt 2238 2044 L
2202 2008 mt 2202 2080 L
2638 2031 mt 2710 2031 L
2674 1995 mt 2674 2067 L
3109 2020 mt 3181 2020 L
3145 1984 mt 3145 2056 L
3581 2054 mt 3653 2054 L
3617 2018 mt 3617 2090 L
4053 2049 mt 4125 2049 L
4089 2013 mt 4089 2085 L
 291 1996 mt  341 2046 L
 341 1996 mt  291 2046 L
 762 1986 mt  812 2036 L
 812 1986 mt  762 2036 L
1234 1993 mt 1284 2043 L
1284 1993 mt 1234 2043 L
1705 2012 mt 1755 2062 L
1755 2012 mt 1705 2062 L
2177 2019 mt 2227 2069 L
2227 2019 mt 2177 2069 L
2649 2006 mt 2699 2056 L
2699 2006 mt 2649 2056 L
3120 1995 mt 3170 2045 L
3170 1995 mt 3120 2045 L
3592 2029 mt 3642 2079 L
3642 2029 mt 3592 2079 L
4064 2024 mt 4114 2074 L
4114 2024 mt 4064 2074 L
DA
gr

gs 316 349 3774 1917 rc
SO
/c12 { 1.000000 0.103448 0.724138 sr} bdef
c12
472 5 472 5 471 -8 472 1 472 -1 471 -1 472 7 471 5 
316 2178 9 MP stroke
gr

c12
SO
gs 224 2086 3958 198 rc
0 j
0 -58 -58 0 0 58 58 0 287 2149 5 MP
DP
0 -58 -58 0 0 58 58 0 758 2154 5 MP
DP
0 -58 -58 0 0 58 58 0 1230 2161 5 MP
DP
0 -58 -58 0 0 58 58 0 1701 2160 5 MP
DP
0 -58 -58 0 0 58 58 0 2173 2159 5 MP
DP
0 -58 -58 0 0 58 58 0 2645 2160 5 MP
DP
0 -58 -58 0 0 58 58 0 3116 2152 5 MP
DP
0 -58 -58 0 0 58 58 0 3588 2157 5 MP
DP
0 -58 -58 0 0 58 58 0 4060 2162 5 MP
DP
gr

gs 316 349 3774 1917 rc
DO
/c13 { 1.000000 0.827586 0.000000 sr} bdef
c13
472 45 472 29 471 32 472 80 472 -2 471 -38 472 30 471 10 
316 1747 9 MP stroke
gr

c13
DO
gs 224 1655 3958 371 rc
SO
0 j
36 47 -36 47 -36 -47 36 -47 316 1794 5 MP
DP
36 47 -36 47 -36 -47 36 -47 787 1804 5 MP
DP
36 47 -36 47 -36 -47 36 -47 1259 1834 5 MP
DP
36 47 -36 47 -36 -47 36 -47 1730 1796 5 MP
DP
36 47 -36 47 -36 -47 36 -47 2202 1794 5 MP
DP
36 47 -36 47 -36 -47 36 -47 2674 1874 5 MP
DP
36 47 -36 47 -36 -47 36 -47 3145 1906 5 MP
DP
36 47 -36 47 -36 -47 36 -47 3617 1935 5 MP
DP
36 47 -36 47 -36 -47 36 -47 4089 1980 5 MP
DP
DO
gr

gs 316 349 3774 1917 rc
DD
/c14 { 0.000000 0.344828 0.000000 sr} bdef
c14
472 221 472 29 471 106 472 105 472 10 471 -22 472 72 471 -61 
316 911 9 MP stroke
gr

c14
DD
gs 224 758 3958 706 rc
SO
24 W
316 911 PD
24 W
787 850 PD
24 W
1259 922 PD
24 W
1730 900 PD
24 W
2202 910 PD
24 W
2674 1015 PD
24 W
3145 1121 PD
24 W
3617 1150 PD
24 W
4089 1371 PD
DD
gr

gs 316 349 3774 1917 rc
DA
/c15 { 0.517241 0.517241 1.000000 sr} bdef
c15
472 15 472 17 471 53 472 -8 472 -47 471 76 472 -38 471 33 
316 1735 9 MP stroke
gr

c15
DA
gs 224 1638 3958 291 rc
SO
0 j
-41 71 -41 -71 82 0 275 1759 4 MP
DP
-41 71 -41 -71 82 0 746 1792 4 MP
DP
-41 71 -41 -71 82 0 1218 1754 4 MP
DP
-41 71 -41 -71 82 0 1689 1830 4 MP
DP
-41 71 -41 -71 82 0 2161 1783 4 MP
DP
-41 71 -41 -71 82 0 2633 1775 4 MP
DP
-41 71 -41 -71 82 0 3104 1828 4 MP
DP
-41 71 -41 -71 82 0 3576 1845 4 MP
DP
-41 71 -41 -71 82 0 4048 1860 4 MP
DP
DA
gr

gs 316 349 3774 1917 rc
SO
/c16 { 0.620690 0.310345 0.275862 sr} bdef
c16
472 -126 472 46 471 -23 472 81 472 179 471 -62 472 -50 471 -33 
316 912 9 MP stroke
gr

c16
SO
gs 224 675 3958 468 rc
0 j
-71 41 0 -82 71 41 269 912 4 MP
DP
-71 41 0 -82 71 41 740 879 4 MP
DP
-71 41 0 -82 71 41 1212 829 4 MP
DP
-71 41 0 -82 71 41 1683 767 4 MP
DP
-71 41 0 -82 71 41 2155 946 4 MP
DP
-71 41 0 -82 71 41 2627 1027 4 MP
DP
-71 41 0 -82 71 41 3098 1004 4 MP
DP
-71 41 0 -82 71 41 3570 1050 4 MP
DP
-71 41 0 -82 71 41 4042 924 4 MP
DP
gr

gs 316 349 3774 1917 rc
DO
/c17 { 0.000000 1.000000 0.758621 sr} bdef
c17
472 89 472 18 471 18 472 53 472 12 471 33 472 -29 471 45 
316 1753 9 MP stroke
gr

c17
DO
gs 224 1661 3958 424 rc
SO
0 j
0 82 -71 -41 71 -41 292 1794 4 MP
DP
0 82 -71 -41 71 -41 763 1839 4 MP
DP
0 82 -71 -41 71 -41 1235 1810 4 MP
DP
0 82 -71 -41 71 -41 1706 1843 4 MP
DP
0 82 -71 -41 71 -41 2178 1855 4 MP
DP
0 82 -71 -41 71 -41 2650 1908 4 MP
DP
0 82 -71 -41 71 -41 3121 1926 4 MP
DP
0 82 -71 -41 71 -41 3593 1944 4 MP
DP
0 82 -71 -41 71 -41 4065 2033 4 MP
DP
DO
gr

gs 316 349 3774 1917 rc
SO
/c18 { 0.000000 0.517241 0.586207 sr} bdef
c18
472 246 472 -12 471 -15 472 57 472 189 471 -16 472 52 471 112 
316 859 9 MP stroke
gr

c18
SO
gs 224 767 3958 798 rc
0 j
-21 -16 8 -25 -22 15 -21 -15 8 25 -21 16 26 0 8 24 
9 -24 26 0 281 847 11 MP
DP
-21 -16 8 -25 -22 15 -21 -15 8 25 -21 16 26 0 8 24 
9 -24 26 0 752 959 11 MP
DP
-21 -16 8 -25 -22 15 -21 -15 8 25 -21 16 26 0 8 24 
9 -24 26 0 1224 1011 11 MP
DP
-21 -16 8 -25 -22 15 -21 -15 8 25 -21 16 26 0 8 24 
9 -24 26 0 1695 995 11 MP
DP
-21 -16 8 -25 -22 15 -21 -15 8 25 -21 16 26 0 8 24 
9 -24 26 0 2167 1184 11 MP
DP
-21 -16 8 -25 -22 15 -21 -15 8 25 -21 16 26 0 8 24 
9 -24 26 0 2639 1241 11 MP
DP
-21 -16 8 -25 -22 15 -21 -15 8 25 -21 16 26 0 8 24 
9 -24 26 0 3110 1226 11 MP
DP
-21 -16 8 -25 -22 15 -21 -15 8 25 -21 16 26 0 8 24 
9 -24 26 0 3582 1214 11 MP
DP
-21 -16 8 -25 -22 15 -21 -15 8 25 -21 16 26 0 8 24 
9 -24 26 0 4054 1460 11 MP
DP
gr

gs 316 349 3774 1917 rc
DO
/c19 { 0.000000 0.000000 0.482759 sr} bdef
c19
472 123 472 356 471 107 472 -18 472 6 471 11 472 0 471 111 
316 773 9 MP stroke
gr

c19
DO
gs 224 681 3958 881 rc
SO
0 j
-13 -18 13 -18 -21 0 -10 -18 -10 18 -21 0 13 18 -13 18 
21 0 10 18 10 -18 21 0 285 755 13 MP
DP
-13 -18 13 -18 -21 0 -10 -18 -10 18 -21 0 13 18 -13 18 
21 0 10 18 10 -18 21 0 756 866 13 MP
DP
-13 -18 13 -18 -21 0 -10 -18 -10 18 -21 0 13 18 -13 18 
21 0 10 18 10 -18 21 0 1228 866 13 MP
DP
-13 -18 13 -18 -21 0 -10 -18 -10 18 -21 0 13 18 -13 18 
21 0 10 18 10 -18 21 0 1699 877 13 MP
DP
-13 -18 13 -18 -21 0 -10 -18 -10 18 -21 0 13 18 -13 18 
21 0 10 18 10 -18 21 0 2171 883 13 MP
DP
-13 -18 13 -18 -21 0 -10 -18 -10 18 -21 0 13 18 -13 18 
21 0 10 18 10 -18 21 0 2643 865 13 MP
DP
-13 -18 13 -18 -21 0 -10 -18 -10 18 -21 0 13 18 -13 18 
21 0 10 18 10 -18 21 0 3114 972 13 MP
DP
-13 -18 13 -18 -21 0 -10 -18 -10 18 -21 0 13 18 -13 18 
21 0 10 18 10 -18 21 0 3586 1328 13 MP
DP
-13 -18 13 -18 -21 0 -10 -18 -10 18 -21 0 13 18 -13 18 
21 0 10 18 10 -18 21 0 4058 1451 13 MP
DP
DO
gr

gs 316 349 3774 1917 rc
SO
6 w
gr

6 w
SO
1 sg
0 1916 3648 0 0 -1916 4710 2283 4 MP
PP
-3648 0 0 1916 3648 0 0 -1916 4710 2283 5 MP stroke
4 w
DO
0 sg
4710 2283 mt 4710  367 L
4710  367 mt 4710  367 L
5166 2283 mt 5166  367 L
5166  367 mt 5166  367 L
5622 2283 mt 5622  367 L
5622  367 mt 5622  367 L
6078 2283 mt 6078  367 L
6078  367 mt 6078  367 L
6534 2283 mt 6534  367 L
6534  367 mt 6534  367 L
6990 2283 mt 6990  367 L
6990  367 mt 6990  367 L
7446 2283 mt 7446  367 L
7446  367 mt 7446  367 L
7902 2283 mt 7902  367 L
7902  367 mt 7902  367 L
8358 2283 mt 8358  367 L
8358  367 mt 8358  367 L
4710 2283 mt 8358 2283 L
8358 2283 mt 8358 2283 L
4710 1804 mt 8358 1804 L
8358 1804 mt 8358 1804 L
4710 1325 mt 8358 1325 L
8358 1325 mt 8358 1325 L
4710  845 mt 8358  845 L
8358  845 mt 8358  845 L
4710  367 mt 8358  367 L
8358  367 mt 8358  367 L
SO
6 w
4710  367 mt 8358  367 L
4710 2283 mt 8358 2283 L
8358 2283 mt 8358  367 L
4710 2283 mt 4710  367 L
4710 2283 mt 8358 2283 L
4710 2283 mt 4710  367 L
4710 2283 mt 4710 2246 L
4710  367 mt 4710  403 L
%%IncludeResource: font Helvetica
/Helvetica /WindowsLatin1Encoding 120 FMSR

4644 2428 mt 
(10) s
5166 2283 mt 5166 2246 L
5166  367 mt 5166  403 L
5100 2428 mt 
(20) s
5622 2283 mt 5622 2246 L
5622  367 mt 5622  403 L
5556 2428 mt 
(30) s
6078 2283 mt 6078 2246 L
6078  367 mt 6078  403 L
6012 2428 mt 
(40) s
6534 2283 mt 6534 2246 L
6534  367 mt 6534  403 L
6468 2428 mt 
(50) s
6990 2283 mt 6990 2246 L
6990  367 mt 6990  403 L
6924 2428 mt 
(60) s
7446 2283 mt 7446 2246 L
7446  367 mt 7446  403 L
7380 2428 mt 
(70) s
7902 2283 mt 7902 2246 L
7902  367 mt 7902  403 L
7836 2428 mt 
(80) s
8358 2283 mt 8358 2246 L
8358  367 mt 8358  403 L
8292 2428 mt 
(90) s
4710 2283 mt 4746 2283 L
8358 2283 mt 8321 2283 L
4442 2327 mt 
(1.14) s
4710 1804 mt 4746 1804 L
8358 1804 mt 8321 1804 L
4442 1848 mt 
(1.16) s
4710 1325 mt 4746 1325 L
8358 1325 mt 8321 1325 L
4442 1369 mt 
(1.18) s
4710  845 mt 4746  845 L
8358  845 mt 8321  845 L
4509  889 mt 
(1.2) s
4710  367 mt 4746  367 L
8358  367 mt 8321  367 L
4442  411 mt 
(1.22) s
4710  313 mt 
(x 10) s
%%IncludeResource: font Helvetica
/Helvetica /WindowsLatin1Encoding 80 FMSR

4936  239 mt 
(-12) s
4710  367 mt 8358  367 L
4710 2283 mt 8358 2283 L
8358 2283 mt 8358  367 L
4710 2283 mt 4710  367 L
gs 4710 367 3649 1917 rc
18 w
c8
456 -282 456 211 456 -258 456 282 456 -188 456 141 456 -24 456 71 
4710 658 9 MP stroke
gr

18 w
c8
gs 4618 519 3833 514 rc
  36   36 4710  658 FO
  36   36 5166  729 FO
  36   36 5622  705 FO
  36   36 6078  846 FO
  36   36 6534  658 FO
  36   36 6990  940 FO
  36   36 7446  682 FO
  36   36 7902  893 FO
  36   36 8358  611 FO
gr

gs 4710 367 3649 1917 rc
gr

0 sg
%%IncludeResource: font Helvetica-Bold
/Helvetica-Bold /WindowsLatin1Encoding 120 FMSR

5861  272 mt 
(Wilcoxon rank sum test) s
gs 4710 367 3649 1917 rc
DO
c9
456 119 456 -71 456 -71 456 94 456 48 456 -95 456 24 456 0 
4710 634 9 MP stroke
gr

c9
DO
gs 4618 471 3833 327 rc
SO
0 j
41 71 -82 0 41 -71 4710 681 4 MP
DP
41 71 -82 0 41 -71 5166 681 4 MP
DP
41 71 -82 0 41 -71 5622 705 4 MP
DP
41 71 -82 0 41 -71 6078 610 4 MP
DP
41 71 -82 0 41 -71 6534 658 4 MP
DP
41 71 -82 0 41 -71 6990 752 4 MP
DP
41 71 -82 0 41 -71 7446 681 4 MP
DP
41 71 -82 0 41 -71 7902 610 4 MP
DP
41 71 -82 0 41 -71 8358 729 4 MP
DP
DO
gr

gs 4710 367 3649 1917 rc
DD
c10
456 -502 456 364 456 115 456 46 456 301 456 -758 456 457 456 185 
4710 1243 9 MP stroke
gr

c10
DD
gs 4618 1035 3833 1011 rc
SO
4685 1218 mt 4735 1268 L
4735 1218 mt 4685 1268 L
5141 1403 mt 5191 1453 L
5191 1403 mt 5141 1453 L
5597 1860 mt 5647 1910 L
5647 1860 mt 5597 1910 L
6053 1102 mt 6103 1152 L
6103 1102 mt 6053 1152 L
6509 1403 mt 6559 1453 L
6559 1403 mt 6509 1453 L
6965 1449 mt 7015 1499 L
7015 1449 mt 6965 1499 L
7421 1564 mt 7471 1614 L
7471 1564 mt 7421 1614 L
7877 1928 mt 7927 1978 L
7927 1928 mt 7877 1978 L
8333 1426 mt 8383 1476 L
8383 1426 mt 8333 1476 L
DD
gr

gs 4710 367 3649 1917 rc
DA
c11
456 93 456 234 456 141 456 -141 456 -164 456 211 456 -188 456 -209 
4710 1243 9 MP stroke
gr

c11
DA
gs 4618 660 3833 676 rc
SO
4674 1243 mt 4746 1243 L
4710 1207 mt 4710 1279 L
5130 1034 mt 5202 1034 L
5166  998 mt 5166 1070 L
5586  846 mt 5658  846 L
5622  810 mt 5622  882 L
6042 1057 mt 6114 1057 L
6078 1021 mt 6078 1093 L
6498  893 mt 6570  893 L
6534  857 mt 6534  929 L
6954  752 mt 7026  752 L
6990  716 mt 6990  788 L
7410  893 mt 7482  893 L
7446  857 mt 7446  929 L
7866 1127 mt 7938 1127 L
7902 1091 mt 7902 1163 L
8322 1220 mt 8394 1220 L
8358 1184 mt 8358 1256 L
4685 1218 mt 4735 1268 L
4735 1218 mt 4685 1268 L
5141 1009 mt 5191 1059 L
5191 1009 mt 5141 1059 L
5597  821 mt 5647  871 L
5647  821 mt 5597  871 L
6053 1032 mt 6103 1082 L
6103 1032 mt 6053 1082 L
6509  868 mt 6559  918 L
6559  868 mt 6509  918 L
6965  727 mt 7015  777 L
7015  727 mt 6965  777 L
7421  868 mt 7471  918 L
7471  868 mt 7421  918 L
7877 1102 mt 7927 1152 L
7927 1102 mt 7877 1152 L
8333 1195 mt 8383 1245 L
8383 1195 mt 8333 1245 L
DA
gr

gs 4710 367 3649 1917 rc
SO
c12
456 -278 456 46 456 -184 456 46 456 626 456 -695 456 207 456 162 
4710 1243 9 MP stroke
gr

c12
SO
gs 4618 825 3833 880 rc
0 j
0 -58 -58 0 0 58 58 0 4681 1214 5 MP
DP
0 -58 -58 0 0 58 58 0 5137 1376 5 MP
DP
0 -58 -58 0 0 58 58 0 5593 1583 5 MP
DP
0 -58 -58 0 0 58 58 0 6049 888 5 MP
DP
0 -58 -58 0 0 58 58 0 6505 1514 5 MP
DP
0 -58 -58 0 0 58 58 0 6961 1560 5 MP
DP
0 -58 -58 0 0 58 58 0 7417 1376 5 MP
DP
0 -58 -58 0 0 58 58 0 7873 1422 5 MP
DP
0 -58 -58 0 0 58 58 0 8329 1144 5 MP
DP
gr

gs 4710 367 3649 1917 rc
DO
c13
456 -211 456 141 456 0 456 141 456 -94 456 -118 456 94 456 94 
4710 682 9 MP stroke
gr

c13
DO
gs 4618 566 3833 467 rc
SO
0 j
36 47 -36 47 -36 -47 36 -47 4710 729 5 MP
DP
36 47 -36 47 -36 -47 36 -47 5166 823 5 MP
DP
36 47 -36 47 -36 -47 36 -47 5622 917 5 MP
DP
36 47 -36 47 -36 -47 36 -47 6078 799 5 MP
DP
36 47 -36 47 -36 -47 36 -47 6534 705 5 MP
DP
36 47 -36 47 -36 -47 36 -47 6990 846 5 MP
DP
36 47 -36 47 -36 -47 36 -47 7446 846 5 MP
DP
36 47 -36 47 -36 -47 36 -47 7902 987 5 MP
DP
36 47 -36 47 -36 -47 36 -47 8358 776 5 MP
DP
DO
gr

gs 4710 367 3649 1917 rc
DD
c14
456 24 456 -24 456 24 456 0 456 24 456 -71 456 -24 456 47 
4710 611 9 MP stroke
gr

c14
DD
gs 4618 471 3833 280 rc
SO
24 W
4710 611 PD
24 W
5166 658 PD
24 W
5622 634 PD
24 W
6078 563 PD
24 W
6534 587 PD
24 W
6990 587 PD
24 W
7446 611 PD
24 W
7902 587 PD
24 W
8358 611 PD
DD
gr

gs 4710 367 3649 1917 rc
DA
c15
456 -235 456 282 456 0 456 -71 456 71 456 0 456 -71 456 47 
4710 682 9 MP stroke
gr

c15
DA
gs 4618 566 3833 467 rc
SO
0 j
-41 71 -41 -71 82 0 4669 706 4 MP
DP
-41 71 -41 -71 82 0 5125 753 4 MP
DP
-41 71 -41 -71 82 0 5581 682 4 MP
DP
-41 71 -41 -71 82 0 6037 682 4 MP
DP
-41 71 -41 -71 82 0 6493 753 4 MP
DP
-41 71 -41 -71 82 0 6949 682 4 MP
DP
-41 71 -41 -71 82 0 7405 682 4 MP
DP
-41 71 -41 -71 82 0 7861 964 4 MP
DP
-41 71 -41 -71 82 0 8317 729 4 MP
DP
DA
gr

gs 4710 367 3649 1917 rc
SO
c16
456 -47 456 -71 456 118 456 24 456 -24 456 -24 456 -23 456 47 
4710 587 9 MP stroke
gr

c16
SO
gs 4618 471 3833 327 rc
0 j
-71 41 0 -82 71 41 4663 587 4 MP
DP
-71 41 0 -82 71 41 5119 634 4 MP
DP
-71 41 0 -82 71 41 5575 611 4 MP
DP
-71 41 0 -82 71 41 6031 587 4 MP
DP
-71 41 0 -82 71 41 6487 563 4 MP
DP
-71 41 0 -82 71 41 6943 587 4 MP
DP
-71 41 0 -82 71 41 7399 705 4 MP
DP
-71 41 0 -82 71 41 7855 634 4 MP
DP
-71 41 0 -82 71 41 8311 587 4 MP
DP
gr

gs 4710 367 3649 1917 rc
DO
c17
456 -24 456 -70 456 -71 456 94 456 118 456 -235 456 188 456 -165 
4710 823 9 MP stroke
gr

c17
DO
gs 4618 519 3833 420 rc
SO
0 j
0 82 -71 -41 71 -41 4686 864 4 MP
DP
0 82 -71 -41 71 -41 5142 699 4 MP
DP
0 82 -71 -41 71 -41 5598 887 4 MP
DP
0 82 -71 -41 71 -41 6054 652 4 MP
DP
0 82 -71 -41 71 -41 6510 770 4 MP
DP
0 82 -71 -41 71 -41 6966 864 4 MP
DP
0 82 -71 -41 71 -41 7422 793 4 MP
DP
0 82 -71 -41 71 -41 7878 723 4 MP
DP
0 82 -71 -41 71 -41 8334 699 4 MP
DP
DO
gr

gs 4710 367 3649 1917 rc
SO
c18
456 47 456 -71 456 24 456 23 456 -47 456 47 456 0 456 -71 
4710 682 9 MP stroke
gr

c18
SO
gs 4618 495 3833 280 rc
0 j
-21 -16 8 -25 -22 15 -21 -15 8 25 -21 16 26 0 8 24 
9 -24 26 0 4675 670 11 MP
DP
-21 -16 8 -25 -22 15 -21 -15 8 25 -21 16 26 0 8 24 
9 -24 26 0 5131 599 11 MP
DP
-21 -16 8 -25 -22 15 -21 -15 8 25 -21 16 26 0 8 24 
9 -24 26 0 5587 599 11 MP
DP
-21 -16 8 -25 -22 15 -21 -15 8 25 -21 16 26 0 8 24 
9 -24 26 0 6043 646 11 MP
DP
-21 -16 8 -25 -22 15 -21 -15 8 25 -21 16 26 0 8 24 
9 -24 26 0 6499 599 11 MP
DP
-21 -16 8 -25 -22 15 -21 -15 8 25 -21 16 26 0 8 24 
9 -24 26 0 6955 622 11 MP
DP
-21 -16 8 -25 -22 15 -21 -15 8 25 -21 16 26 0 8 24 
9 -24 26 0 7411 646 11 MP
DP
-21 -16 8 -25 -22 15 -21 -15 8 25 -21 16 26 0 8 24 
9 -24 26 0 7867 575 11 MP
DP
-21 -16 8 -25 -22 15 -21 -15 8 25 -21 16 26 0 8 24 
9 -24 26 0 8323 622 11 MP
DP
gr

gs 4710 367 3649 1917 rc
DO
c19
456 -24 456 48 456 -48 456 -23 456 -71 456 47 456 71 456 0 
4710 587 9 MP stroke
gr

c19
DO
gs 4618 471 3833 327 rc
SO
0 j
-13 -18 13 -18 -21 0 -10 -18 -10 18 -21 0 13 18 -13 18 
21 0 10 18 10 -18 21 0 4679 569 13 MP
DP
-13 -18 13 -18 -21 0 -10 -18 -10 18 -21 0 13 18 -13 18 
21 0 10 18 10 -18 21 0 5135 569 13 MP
DP
-13 -18 13 -18 -21 0 -10 -18 -10 18 -21 0 13 18 -13 18 
21 0 10 18 10 -18 21 0 5591 640 13 MP
DP
-13 -18 13 -18 -21 0 -10 -18 -10 18 -21 0 13 18 -13 18 
21 0 10 18 10 -18 21 0 6047 687 13 MP
DP
-13 -18 13 -18 -21 0 -10 -18 -10 18 -21 0 13 18 -13 18 
21 0 10 18 10 -18 21 0 6503 616 13 MP
DP
-13 -18 13 -18 -21 0 -10 -18 -10 18 -21 0 13 18 -13 18 
21 0 10 18 10 -18 21 0 6959 593 13 MP
DP
-13 -18 13 -18 -21 0 -10 -18 -10 18 -21 0 13 18 -13 18 
21 0 10 18 10 -18 21 0 7415 545 13 MP
DP
-13 -18 13 -18 -21 0 -10 -18 -10 18 -21 0 13 18 -13 18 
21 0 10 18 10 -18 21 0 7871 593 13 MP
DP
-13 -18 13 -18 -21 0 -10 -18 -10 18 -21 0 13 18 -13 18 
21 0 10 18 10 -18 21 0 8327 569 13 MP
DP
DO
gr

gs 4710 367 3649 1917 rc
SO
6 w
gr

6 w
SO
1 sg
0 1915 3791 0 0 -1915 316 4611 4 MP
PP
-3791 0 0 1915 3791 0 0 -1915 316 4611 5 MP stroke
4 w
DO
0 sg
 316 4611 mt  316 2696 L
 316 2696 mt  316 2696 L
 789 4611 mt  789 2696 L
 789 2696 mt  789 2696 L
1263 4611 mt 1263 2696 L
1263 2696 mt 1263 2696 L
1737 4611 mt 1737 2696 L
1737 2696 mt 1737 2696 L
2211 4611 mt 2211 2696 L
2211 2696 mt 2211 2696 L
2685 4611 mt 2685 2696 L
2685 2696 mt 2685 2696 L
3159 4611 mt 3159 2696 L
3159 2696 mt 3159 2696 L
3633 4611 mt 3633 2696 L
3633 2696 mt 3633 2696 L
4107 4611 mt 4107 2696 L
4107 2696 mt 4107 2696 L
 316 4611 mt 4107 4611 L
4107 4611 mt 4107 4611 L
 316 4291 mt 4107 4291 L
4107 4291 mt 4107 4291 L
 316 3972 mt 4107 3972 L
4107 3972 mt 4107 3972 L
 316 3653 mt 4107 3653 L
4107 3653 mt 4107 3653 L
 316 3334 mt 4107 3334 L
4107 3334 mt 4107 3334 L
 316 3015 mt 4107 3015 L
4107 3015 mt 4107 3015 L
 316 2696 mt 4107 2696 L
4107 2696 mt 4107 2696 L
SO
6 w
 316 2696 mt 4107 2696 L
 316 4611 mt 4107 4611 L
4107 4611 mt 4107 2696 L
 316 4611 mt  316 2696 L
 316 4611 mt 4107 4611 L
 316 4611 mt  316 2696 L
 316 4611 mt  316 4573 L
 316 2696 mt  316 2733 L
%%IncludeResource: font Helvetica
/Helvetica /WindowsLatin1Encoding 120 FMSR

 250 4756 mt 
(10) s
 789 4611 mt  789 4573 L
 789 2696 mt  789 2733 L
 723 4756 mt 
(20) s
1263 4611 mt 1263 4573 L
1263 2696 mt 1263 2733 L
1197 4756 mt 
(30) s
1737 4611 mt 1737 4573 L
1737 2696 mt 1737 2733 L
1671 4756 mt 
(40) s
2211 4611 mt 2211 4573 L
2211 2696 mt 2211 2733 L
2145 4756 mt 
(50) s
2685 4611 mt 2685 4573 L
2685 2696 mt 2685 2733 L
2619 4756 mt 
(60) s
3159 4611 mt 3159 4573 L
3159 2696 mt 3159 2733 L
3093 4756 mt 
(70) s
3633 4611 mt 3633 4573 L
3633 2696 mt 3633 2733 L
3567 4756 mt 
(80) s
4107 4611 mt 4107 4573 L
4107 2696 mt 4107 2733 L
4041 4756 mt 
(90) s
 316 4611 mt  353 4611 L
4107 4611 mt 4069 4611 L
  78 4655 mt 
(-40) s
 316 4291 mt  353 4291 L
4107 4291 mt 4069 4291 L
  78 4335 mt 
(-30) s
 316 3972 mt  353 3972 L
4107 3972 mt 4069 3972 L
  78 4016 mt 
(-20) s
 316 3653 mt  353 3653 L
4107 3653 mt 4069 3653 L
  78 3697 mt 
(-10) s
 316 3334 mt  353 3334 L
4107 3334 mt 4069 3334 L
 215 3378 mt 
(0) s
 316 3015 mt  353 3015 L
4107 3015 mt 4069 3015 L
 148 3059 mt 
(10) s
 316 2696 mt  353 2696 L
4107 2696 mt 4069 2696 L
 148 2740 mt 
(20) s
 316 2696 mt 4107 2696 L
 316 4611 mt 4107 4611 L
4107 4611 mt 4107 2696 L
 316 4611 mt  316 2696 L
gs 316 2696 3792 1916 rc
18 w
c8
474 177 474 125 474 110 474 85 474 78 474 59 474 68 473 42 
316 3087 9 MP stroke
gr

18 w
c8
gs 224 2995 3976 929 rc
  36   36  316 3087 FO
  36   36  789 3129 FO
  36   36 1263 3197 FO
  36   36 1737 3256 FO
  36   36 2211 3334 FO
  36   36 2685 3419 FO
  36   36 3159 3529 FO
  36   36 3633 3654 FO
  36   36 4107 3831 FO
gr

gs 316 2696 3792 1916 rc
gr

0 sg
%%IncludeResource: font Helvetica-Bold
/Helvetica-Bold /WindowsLatin1Encoding 120 FMSR

1629 2547 mt 
(Solution Quality \(D) s
%%IncludeResource: font Helvetica-Bold
/Helvetica-Bold /WindowsLatin1Encoding 96 FMSR

2709 2607 mt 
(s) s
%%IncludeResource: font Helvetica-Bold
/Helvetica-Bold /WindowsLatin1Encoding 120 FMSR

2762 2547 mt 
(\)) s
gs 316 2696 3792 1916 rc
DO
c9
474 350 474 280 474 219 474 172 474 176 474 132 474 149 473 129 
316 2732 9 MP stroke
gr

c9
DO
gs 224 2640 3976 1792 rc
SO
0 j
41 71 -82 0 41 -71 316 2779 4 MP
DP
41 71 -82 0 41 -71 789 2908 4 MP
DP
41 71 -82 0 41 -71 1263 3057 4 MP
DP
41 71 -82 0 41 -71 1737 3189 4 MP
DP
41 71 -82 0 41 -71 2211 3365 4 MP
DP
41 71 -82 0 41 -71 2685 3537 4 MP
DP
41 71 -82 0 41 -71 3159 3756 4 MP
DP
41 71 -82 0 41 -71 3633 4036 4 MP
DP
41 71 -82 0 41 -71 4107 4386 4 MP
DP
DO
gr

gs 316 2696 3792 1916 rc
DD
c10
474 16 474 22 474 11 474 17 474 5 474 16 474 11 473 9 
316 3302 9 MP stroke
gr

c10
DD
gs 224 3210 3976 292 rc
SO
 291 3277 mt  341 3327 L
 341 3277 mt  291 3327 L
 764 3286 mt  814 3336 L
 814 3286 mt  764 3336 L
1238 3297 mt 1288 3347 L
1288 3297 mt 1238 3347 L
1712 3313 mt 1762 3363 L
1762 3313 mt 1712 3363 L
2186 3318 mt 2236 3368 L
2236 3318 mt 2186 3368 L
2660 3335 mt 2710 3385 L
2710 3335 mt 2660 3385 L
3134 3346 mt 3184 3396 L
3184 3346 mt 3134 3396 L
3608 3368 mt 3658 3418 L
3658 3368 mt 3608 3418 L
4082 3384 mt 4132 3434 L
4132 3384 mt 4082 3434 L
DD
gr

gs 316 2696 3792 1916 rc
DA
c11
474 41 474 34 474 34 474 21 474 28 474 22 474 17 473 15 
316 3243 9 MP stroke
gr

c11
DA
gs 224 3151 3976 397 rc
SO
 280 3243 mt  352 3243 L
 316 3207 mt  316 3279 L
 753 3258 mt  825 3258 L
 789 3222 mt  789 3294 L
1227 3275 mt 1299 3275 L
1263 3239 mt 1263 3311 L
1701 3297 mt 1773 3297 L
1737 3261 mt 1737 3333 L
2175 3325 mt 2247 3325 L
2211 3289 mt 2211 3361 L
2649 3346 mt 2721 3346 L
2685 3310 mt 2685 3382 L
3123 3380 mt 3195 3380 L
3159 3344 mt 3159 3416 L
3597 3414 mt 3669 3414 L
3633 3378 mt 3633 3450 L
4071 3455 mt 4143 3455 L
4107 3419 mt 4107 3491 L
 291 3218 mt  341 3268 L
 341 3218 mt  291 3268 L
 764 3233 mt  814 3283 L
 814 3233 mt  764 3283 L
1238 3250 mt 1288 3300 L
1288 3250 mt 1238 3300 L
1712 3272 mt 1762 3322 L
1762 3272 mt 1712 3322 L
2186 3300 mt 2236 3350 L
2236 3300 mt 2186 3350 L
2660 3321 mt 2710 3371 L
2710 3321 mt 2660 3371 L
3134 3355 mt 3184 3405 L
3184 3355 mt 3134 3405 L
3608 3389 mt 3658 3439 L
3658 3389 mt 3608 3439 L
4082 3430 mt 4132 3480 L
4132 3430 mt 4082 3480 L
DA
gr

gs 316 2696 3792 1916 rc
SO
c12
474 0 474 -1 474 1 474 0 474 -1 474 0 474 0 473 2 
316 3332 9 MP stroke
gr

c12
SO
gs 224 3240 3976 187 rc
0 j
0 -58 -58 0 0 58 58 0 287 3303 5 MP
DP
0 -58 -58 0 0 58 58 0 760 3305 5 MP
DP
0 -58 -58 0 0 58 58 0 1234 3305 5 MP
DP
0 -58 -58 0 0 58 58 0 1708 3305 5 MP
DP
0 -58 -58 0 0 58 58 0 2182 3304 5 MP
DP
0 -58 -58 0 0 58 58 0 2656 3304 5 MP
DP
0 -58 -58 0 0 58 58 0 3130 3305 5 MP
DP
0 -58 -58 0 0 58 58 0 3604 3304 5 MP
DP
0 -58 -58 0 0 58 58 0 4078 3304 5 MP
DP
gr

gs 316 2696 3792 1916 rc
DO
c13
474 117 474 76 474 75 474 55 474 54 474 54 474 53 473 33 
316 3175 9 MP stroke
gr

c13
DO
gs 224 3083 3976 702 rc
SO
0 j
36 47 -36 47 -36 -47 36 -47 316 3222 5 MP
DP
36 47 -36 47 -36 -47 36 -47 789 3255 5 MP
DP
36 47 -36 47 -36 -47 36 -47 1263 3308 5 MP
DP
36 47 -36 47 -36 -47 36 -47 1737 3362 5 MP
DP
36 47 -36 47 -36 -47 36 -47 2211 3416 5 MP
DP
36 47 -36 47 -36 -47 36 -47 2685 3471 5 MP
DP
36 47 -36 47 -36 -47 36 -47 3159 3546 5 MP
DP
36 47 -36 47 -36 -47 36 -47 3633 3622 5 MP
DP
36 47 -36 47 -36 -47 36 -47 4107 3739 5 MP
DP
DO
gr

gs 316 2696 3792 1916 rc
DD
c14
474 202 474 172 474 140 474 123 474 112 474 87 474 130 473 82 
316 2935 9 MP stroke
gr

c14
DD
gs 224 2843 3976 1233 rc
SO
24 W
316 2935 PD
24 W
789 3017 PD
24 W
1263 3147 PD
24 W
1737 3234 PD
24 W
2211 3346 PD
24 W
2685 3469 PD
24 W
3159 3609 PD
24 W
3633 3781 PD
24 W
4107 3983 PD
DD
gr

gs 316 2696 3792 1916 rc
DA
c15
474 32 474 32 474 37 474 39 474 31 474 19 474 33 473 25 
316 3186 9 MP stroke
gr

c15
DA
gs 224 3094 3976 433 rc
SO
0 j
-41 71 -41 -71 82 0 275 3210 4 MP
DP
-41 71 -41 -71 82 0 748 3235 4 MP
DP
-41 71 -41 -71 82 0 1222 3268 4 MP
DP
-41 71 -41 -71 82 0 1696 3287 4 MP
DP
-41 71 -41 -71 82 0 2170 3318 4 MP
DP
-41 71 -41 -71 82 0 2644 3357 4 MP
DP
-41 71 -41 -71 82 0 3118 3394 4 MP
DP
-41 71 -41 -71 82 0 3592 3426 4 MP
DP
-41 71 -41 -71 82 0 4066 3458 4 MP
DP
DA
gr

gs 316 2696 3792 1916 rc
SO
c16
474 64 474 63 474 81 474 48 474 58 474 57 474 50 473 47 
316 2990 9 MP stroke
gr

c16
SO
gs 224 2898 3976 653 rc
0 j
-71 41 0 -82 71 41 269 2990 4 MP
DP
-71 41 0 -82 71 41 742 3037 4 MP
DP
-71 41 0 -82 71 41 1216 3087 4 MP
DP
-71 41 0 -82 71 41 1690 3144 4 MP
DP
-71 41 0 -82 71 41 2164 3202 4 MP
DP
-71 41 0 -82 71 41 2638 3250 4 MP
DP
-71 41 0 -82 71 41 3112 3331 4 MP
DP
-71 41 0 -82 71 41 3586 3394 4 MP
DP
-71 41 0 -82 71 41 4060 3458 4 MP
DP
gr

gs 316 2696 3792 1916 rc
DO
c17
474 16 474 43 474 42 474 28 474 45 474 33 474 37 473 39 
316 3225 9 MP stroke
gr

c17
DO
gs 224 3133 3976 468 rc
SO
0 j
0 82 -71 -41 71 -41 292 3266 4 MP
DP
0 82 -71 -41 71 -41 765 3305 4 MP
DP
0 82 -71 -41 71 -41 1239 3342 4 MP
DP
0 82 -71 -41 71 -41 1713 3375 4 MP
DP
0 82 -71 -41 71 -41 2187 3420 4 MP
DP
0 82 -71 -41 71 -41 2661 3448 4 MP
DP
0 82 -71 -41 71 -41 3135 3490 4 MP
DP
0 82 -71 -41 71 -41 3609 3533 4 MP
DP
0 82 -71 -41 71 -41 4083 3549 4 MP
DP
DO
gr

gs 316 2696 3792 1916 rc
SO
c18
474 107 474 107 474 110 474 56 474 91 474 70 474 81 473 64 
316 3104 9 MP stroke
gr

c18
SO
gs 224 3012 3976 871 rc
0 j
-21 -16 8 -25 -22 15 -21 -15 8 25 -21 16 26 0 8 24 
9 -24 26 0 281 3092 11 MP
DP
-21 -16 8 -25 -22 15 -21 -15 8 25 -21 16 26 0 8 24 
9 -24 26 0 754 3156 11 MP
DP
-21 -16 8 -25 -22 15 -21 -15 8 25 -21 16 26 0 8 24 
9 -24 26 0 1228 3237 11 MP
DP
-21 -16 8 -25 -22 15 -21 -15 8 25 -21 16 26 0 8 24 
9 -24 26 0 1702 3307 11 MP
DP
-21 -16 8 -25 -22 15 -21 -15 8 25 -21 16 26 0 8 24 
9 -24 26 0 2176 3398 11 MP
DP
-21 -16 8 -25 -22 15 -21 -15 8 25 -21 16 26 0 8 24 
9 -24 26 0 2650 3454 11 MP
DP
-21 -16 8 -25 -22 15 -21 -15 8 25 -21 16 26 0 8 24 
9 -24 26 0 3124 3564 11 MP
DP
-21 -16 8 -25 -22 15 -21 -15 8 25 -21 16 26 0 8 24 
9 -24 26 0 3598 3671 11 MP
DP
-21 -16 8 -25 -22 15 -21 -15 8 25 -21 16 26 0 8 24 
9 -24 26 0 4072 3778 11 MP
DP
gr

gs 316 2696 3792 1916 rc
DO
c19
474 110 474 63 474 60 474 85 474 57 474 50 474 74 473 78 
316 3131 9 MP stroke
gr

c19
DO
gs 224 3039 3976 762 rc
SO
0 j
-13 -18 13 -18 -21 0 -10 -18 -10 18 -21 0 13 18 -13 18 
21 0 10 18 10 -18 21 0 285 3113 13 MP
DP
-13 -18 13 -18 -21 0 -10 -18 -10 18 -21 0 13 18 -13 18 
21 0 10 18 10 -18 21 0 758 3191 13 MP
DP
-13 -18 13 -18 -21 0 -10 -18 -10 18 -21 0 13 18 -13 18 
21 0 10 18 10 -18 21 0 1232 3265 13 MP
DP
-13 -18 13 -18 -21 0 -10 -18 -10 18 -21 0 13 18 -13 18 
21 0 10 18 10 -18 21 0 1706 3315 13 MP
DP
-13 -18 13 -18 -21 0 -10 -18 -10 18 -21 0 13 18 -13 18 
21 0 10 18 10 -18 21 0 2180 3372 13 MP
DP
-13 -18 13 -18 -21 0 -10 -18 -10 18 -21 0 13 18 -13 18 
21 0 10 18 10 -18 21 0 2654 3457 13 MP
DP
-13 -18 13 -18 -21 0 -10 -18 -10 18 -21 0 13 18 -13 18 
21 0 10 18 10 -18 21 0 3128 3517 13 MP
DP
-13 -18 13 -18 -21 0 -10 -18 -10 18 -21 0 13 18 -13 18 
21 0 10 18 10 -18 21 0 3602 3580 13 MP
DP
-13 -18 13 -18 -21 0 -10 -18 -10 18 -21 0 13 18 -13 18 
21 0 10 18 10 -18 21 0 4076 3690 13 MP
DP
DO
gr

gs 316 2696 3792 1916 rc
SO
6 w
gr

6 w
SO
1 sg
0 1915 3648 0 0 -1915 4746 4620 4 MP
PP
-3648 0 0 1915 3648 0 0 -1915 4746 4620 5 MP stroke
4 w
DO
0 sg
4746 4620 mt 4746 2705 L
4746 2705 mt 4746 2705 L
5202 4620 mt 5202 2705 L
5202 2705 mt 5202 2705 L
5658 4620 mt 5658 2705 L
5658 2705 mt 5658 2705 L
6114 4620 mt 6114 2705 L
6114 2705 mt 6114 2705 L
6570 4620 mt 6570 2705 L
6570 2705 mt 6570 2705 L
7026 4620 mt 7026 2705 L
7026 2705 mt 7026 2705 L
7482 4620 mt 7482 2705 L
7482 2705 mt 7482 2705 L
7938 4620 mt 7938 2705 L
7938 2705 mt 7938 2705 L
8394 4620 mt 8394 2705 L
8394 2705 mt 8394 2705 L
4746 4620 mt 8394 4620 L
8394 4620 mt 8394 4620 L
4746 4237 mt 8394 4237 L
8394 4237 mt 8394 4237 L
4746 3854 mt 8394 3854 L
8394 3854 mt 8394 3854 L
4746 3471 mt 8394 3471 L
8394 3471 mt 8394 3471 L
4746 3088 mt 8394 3088 L
8394 3088 mt 8394 3088 L
4746 2705 mt 8394 2705 L
8394 2705 mt 8394 2705 L
SO
6 w
4746 2705 mt 8394 2705 L
4746 4620 mt 8394 4620 L
8394 4620 mt 8394 2705 L
4746 4620 mt 4746 2705 L
4746 4620 mt 8394 4620 L
4746 4620 mt 4746 2705 L
4746 4620 mt 4746 4583 L
4746 2705 mt 4746 2741 L
%%IncludeResource: font Helvetica
/Helvetica /WindowsLatin1Encoding 120 FMSR

4680 4765 mt 
(10) s
5202 4620 mt 5202 4583 L
5202 2705 mt 5202 2741 L
5136 4765 mt 
(20) s
5658 4620 mt 5658 4583 L
5658 2705 mt 5658 2741 L
5592 4765 mt 
(30) s
6114 4620 mt 6114 4583 L
6114 2705 mt 6114 2741 L
6048 4765 mt 
(40) s
6570 4620 mt 6570 4583 L
6570 2705 mt 6570 2741 L
6504 4765 mt 
(50) s
7026 4620 mt 7026 4583 L
7026 2705 mt 7026 2741 L
6960 4765 mt 
(60) s
7482 4620 mt 7482 4583 L
7482 2705 mt 7482 2741 L
7416 4765 mt 
(70) s
7938 4620 mt 7938 4583 L
7938 2705 mt 7938 2741 L
7872 4765 mt 
(80) s
8394 4620 mt 8394 4583 L
8394 2705 mt 8394 2741 L
8328 4765 mt 
(90) s
4746 4620 mt 4782 4620 L
8394 4620 mt 8357 4620 L
4645 4664 mt 
(0) s
4746 4237 mt 4782 4237 L
8394 4237 mt 8357 4237 L
4545 4281 mt 
(0.2) s
4746 3854 mt 4782 3854 L
8394 3854 mt 8357 3854 L
4545 3898 mt 
(0.4) s
4746 3471 mt 4782 3471 L
8394 3471 mt 8357 3471 L
4545 3515 mt 
(0.6) s
4746 3088 mt 4782 3088 L
8394 3088 mt 8357 3088 L
4545 3132 mt 
(0.8) s
4746 2705 mt 4782 2705 L
8394 2705 mt 8357 2705 L
4645 2749 mt 
(1) s
4746 2705 mt 8394 2705 L
4746 4620 mt 8394 4620 L
8394 4620 mt 8394 2705 L
4746 4620 mt 4746 2705 L
gs 4746 2705 3649 1916 rc
18 w
c8
456 0 456 0 456 0 456 1668 456 -1668 456 0 456 0 456 0 
4746 4619 9 MP stroke
gr

18 w
c8
gs 4654 2859 3833 1853 rc
  36   36 4746 4619 FO
  36   36 5202 4619 FO
  36   36 5658 4619 FO
  36   36 6114 4619 FO
  36   36 6570 2951 FO
  36   36 7026 4619 FO
  36   36 7482 4619 FO
  36   36 7938 4619 FO
  36   36 8394 4619 FO
gr

gs 4746 2705 3649 1916 rc
gr

0 sg
%%IncludeResource: font Helvetica-Bold
/Helvetica-Bold /WindowsLatin1Encoding 120 FMSR

5897 2610 mt 
(Wilcoxon rank sum test) s
gs 4746 2705 3649 1916 rc
DO
c9
456 0 456 0 456 0 456 63 456 -63 456 0 456 0 456 0 
4746 4619 9 MP stroke
gr

c9
DO
gs 4654 4464 3833 248 rc
SO
0 j
41 71 -82 0 41 -71 4746 4666 4 MP
DP
41 71 -82 0 41 -71 5202 4666 4 MP
DP
41 71 -82 0 41 -71 5658 4666 4 MP
DP
41 71 -82 0 41 -71 6114 4666 4 MP
DP
41 71 -82 0 41 -71 6570 4603 4 MP
DP
41 71 -82 0 41 -71 7026 4666 4 MP
DP
41 71 -82 0 41 -71 7482 4666 4 MP
DP
41 71 -82 0 41 -71 7938 4666 4 MP
DP
41 71 -82 0 41 -71 8394 4666 4 MP
DP
DO
gr

gs 4746 2705 3649 1916 rc
DD
c10
456 0 456 0 456 0 456 2 456 332 456 -334 456 0 456 0 
4746 4619 9 MP stroke
gr

c10
DD
gs 4654 4193 3833 519 rc
SO
4721 4594 mt 4771 4644 L
4771 4594 mt 4721 4644 L
5177 4594 mt 5227 4644 L
5227 4594 mt 5177 4644 L
5633 4594 mt 5683 4644 L
5683 4594 mt 5633 4644 L
6089 4260 mt 6139 4310 L
6139 4260 mt 6089 4310 L
6545 4592 mt 6595 4642 L
6595 4592 mt 6545 4642 L
7001 4594 mt 7051 4644 L
7051 4594 mt 7001 4644 L
7457 4594 mt 7507 4644 L
7507 4594 mt 7457 4644 L
7913 4594 mt 7963 4644 L
7963 4594 mt 7913 4644 L
8369 4594 mt 8419 4644 L
8419 4594 mt 8369 4644 L
DD
gr

gs 4746 2705 3649 1916 rc
DA
c11
456 0 456 0 456 0 456 21 456 -21 456 0 456 0 456 0 
4746 4619 9 MP stroke
gr

c11
DA
gs 4654 4506 3833 206 rc
SO
4710 4619 mt 4782 4619 L
4746 4583 mt 4746 4655 L
5166 4619 mt 5238 4619 L
5202 4583 mt 5202 4655 L
5622 4619 mt 5694 4619 L
5658 4583 mt 5658 4655 L
6078 4619 mt 6150 4619 L
6114 4583 mt 6114 4655 L
6534 4598 mt 6606 4598 L
6570 4562 mt 6570 4634 L
6990 4619 mt 7062 4619 L
7026 4583 mt 7026 4655 L
7446 4619 mt 7518 4619 L
7482 4583 mt 7482 4655 L
7902 4619 mt 7974 4619 L
7938 4583 mt 7938 4655 L
8358 4619 mt 8430 4619 L
8394 4583 mt 8394 4655 L
4721 4594 mt 4771 4644 L
4771 4594 mt 4721 4644 L
5177 4594 mt 5227 4644 L
5227 4594 mt 5177 4644 L
5633 4594 mt 5683 4644 L
5683 4594 mt 5633 4644 L
6089 4594 mt 6139 4644 L
6139 4594 mt 6089 4644 L
6545 4573 mt 6595 4623 L
6595 4573 mt 6545 4623 L
7001 4594 mt 7051 4644 L
7051 4594 mt 7001 4644 L
7457 4594 mt 7507 4644 L
7507 4594 mt 7457 4644 L
7913 4594 mt 7963 4644 L
7963 4594 mt 7913 4644 L
8369 4594 mt 8419 4644 L
8419 4594 mt 8369 4644 L
DA
gr

gs 4746 2705 3649 1916 rc
SO
c12
4746 4312 PD
gr

c12
SO
gs 4654 3888 3833 517 rc
0 j
0 -58 -58 0 0 58 58 0 4717 4283 5 MP
DP
gr

gs 4746 2705 3649 1916 rc
456 0 6570 3980 2 MP stroke
gr

gs 4654 3888 3833 517 rc
0 j
0 -58 -58 0 0 58 58 0 6541 3951 5 MP
DP
0 -58 -58 0 0 58 58 0 6997 3951 5 MP
DP
gr

gs 4746 2705 3649 1916 rc
456 0 7938 3980 2 MP stroke
gr

gs 4654 3888 3833 517 rc
0 j
0 -58 -58 0 0 58 58 0 7909 3951 5 MP
DP
0 -58 -58 0 0 58 58 0 8365 3951 5 MP
DP
gr

gs 4746 2705 3649 1916 rc
DO
c13
456 0 456 0 456 0 456 0 456 0 456 0 456 0 456 0 
4746 4619 9 MP stroke
gr

c13
DO
gs 4654 4527 3833 185 rc
SO
0 j
36 47 -36 47 -36 -47 36 -47 4746 4666 5 MP
DP
36 47 -36 47 -36 -47 36 -47 5202 4666 5 MP
DP
36 47 -36 47 -36 -47 36 -47 5658 4666 5 MP
DP
36 47 -36 47 -36 -47 36 -47 6114 4666 5 MP
DP
36 47 -36 47 -36 -47 36 -47 6570 4666 5 MP
DP
36 47 -36 47 -36 -47 36 -47 7026 4666 5 MP
DP
36 47 -36 47 -36 -47 36 -47 7482 4666 5 MP
DP
36 47 -36 47 -36 -47 36 -47 7938 4666 5 MP
DP
36 47 -36 47 -36 -47 36 -47 8394 4666 5 MP
DP
DO
gr

gs 4746 2705 3649 1916 rc
DD
c14
456 0 456 0 456 0 456 235 456 -235 456 0 456 0 456 0 
4746 4619 9 MP stroke
gr

c14
DD
gs 4654 4292 3833 420 rc
SO
24 W
4746 4619 PD
24 W
5202 4619 PD
24 W
5658 4619 PD
24 W
6114 4619 PD
24 W
6570 4384 PD
24 W
7026 4619 PD
24 W
7482 4619 PD
24 W
7938 4619 PD
24 W
8394 4619 PD
DD
gr

gs 4746 2705 3649 1916 rc
DA
c15
456 0 456 0 456 1318 456 -1318 456 0 456 0 456 0 456 0 
4746 4619 9 MP stroke
gr

c15
DA
gs 4654 3209 3833 1503 rc
SO
0 j
-41 71 -41 -71 82 0 4705 4643 4 MP
DP
-41 71 -41 -71 82 0 5161 4643 4 MP
DP
-41 71 -41 -71 82 0 5617 4643 4 MP
DP
-41 71 -41 -71 82 0 6073 4643 4 MP
DP
-41 71 -41 -71 82 0 6529 4643 4 MP
DP
-41 71 -41 -71 82 0 6985 3325 4 MP
DP
-41 71 -41 -71 82 0 7441 4643 4 MP
DP
-41 71 -41 -71 82 0 7897 4643 4 MP
DP
-41 71 -41 -71 82 0 8353 4643 4 MP
DP
DA
gr

gs 4746 2705 3649 1916 rc
SO
c16
456 0 456 783 456 -783 456 0 456 0 456 0 456 0 456 0 
4746 4619 9 MP stroke
gr

c16
SO
gs 4654 3744 3833 968 rc
0 j
-71 41 0 -82 71 41 4699 4619 4 MP
DP
-71 41 0 -82 71 41 5155 4619 4 MP
DP
-71 41 0 -82 71 41 5611 4619 4 MP
DP
-71 41 0 -82 71 41 6067 4619 4 MP
DP
-71 41 0 -82 71 41 6523 4619 4 MP
DP
-71 41 0 -82 71 41 6979 4619 4 MP
DP
-71 41 0 -82 71 41 7435 3836 4 MP
DP
-71 41 0 -82 71 41 7891 4619 4 MP
DP
-71 41 0 -82 71 41 8347 4619 4 MP
DP
gr

gs 4746 2705 3649 1916 rc
DO
c17
456 0 456 0 456 0 456 0 456 1376 456 -1376 456 0 456 0 
4746 4619 9 MP stroke
gr

c17
DO
gs 4654 3151 3833 1561 rc
SO
0 j
0 82 -71 -41 71 -41 4722 4660 4 MP
DP
0 82 -71 -41 71 -41 5178 4660 4 MP
DP
0 82 -71 -41 71 -41 5634 4660 4 MP
DP
0 82 -71 -41 71 -41 6090 3284 4 MP
DP
0 82 -71 -41 71 -41 6546 4660 4 MP
DP
0 82 -71 -41 71 -41 7002 4660 4 MP
DP
0 82 -71 -41 71 -41 7458 4660 4 MP
DP
0 82 -71 -41 71 -41 7914 4660 4 MP
DP
0 82 -71 -41 71 -41 8370 4660 4 MP
DP
DO
gr

gs 4746 2705 3649 1916 rc
SO
c18
456 0 456 0 456 0 456 0 456 154 456 -154 456 0 456 0 
4746 4619 9 MP stroke
gr

c18
SO
gs 4654 4373 3833 339 rc
0 j
-21 -16 8 -25 -22 15 -21 -15 8 25 -21 16 26 0 8 24 
9 -24 26 0 4711 4607 11 MP
DP
-21 -16 8 -25 -22 15 -21 -15 8 25 -21 16 26 0 8 24 
9 -24 26 0 5167 4607 11 MP
DP
-21 -16 8 -25 -22 15 -21 -15 8 25 -21 16 26 0 8 24 
9 -24 26 0 5623 4607 11 MP
DP
-21 -16 8 -25 -22 15 -21 -15 8 25 -21 16 26 0 8 24 
9 -24 26 0 6079 4453 11 MP
DP
-21 -16 8 -25 -22 15 -21 -15 8 25 -21 16 26 0 8 24 
9 -24 26 0 6535 4607 11 MP
DP
-21 -16 8 -25 -22 15 -21 -15 8 25 -21 16 26 0 8 24 
9 -24 26 0 6991 4607 11 MP
DP
-21 -16 8 -25 -22 15 -21 -15 8 25 -21 16 26 0 8 24 
9 -24 26 0 7447 4607 11 MP
DP
-21 -16 8 -25 -22 15 -21 -15 8 25 -21 16 26 0 8 24 
9 -24 26 0 7903 4607 11 MP
DP
-21 -16 8 -25 -22 15 -21 -15 8 25 -21 16 26 0 8 24 
9 -24 26 0 8359 4607 11 MP
DP
gr

gs 4746 2705 3649 1916 rc
DO
c19
456 0 456 0 456 0 456 0 456 1481 456 -1481 456 0 456 0 
4746 4619 9 MP stroke
gr

c19
DO
gs 4654 3046 3833 1666 rc
SO
0 j
-13 -18 13 -18 -21 0 -10 -18 -10 18 -21 0 13 18 -13 18 
21 0 10 18 10 -18 21 0 4715 4601 13 MP
DP
-13 -18 13 -18 -21 0 -10 -18 -10 18 -21 0 13 18 -13 18 
21 0 10 18 10 -18 21 0 5171 4601 13 MP
DP
-13 -18 13 -18 -21 0 -10 -18 -10 18 -21 0 13 18 -13 18 
21 0 10 18 10 -18 21 0 5627 4601 13 MP
DP
-13 -18 13 -18 -21 0 -10 -18 -10 18 -21 0 13 18 -13 18 
21 0 10 18 10 -18 21 0 6083 3120 13 MP
DP
-13 -18 13 -18 -21 0 -10 -18 -10 18 -21 0 13 18 -13 18 
21 0 10 18 10 -18 21 0 6539 4601 13 MP
DP
-13 -18 13 -18 -21 0 -10 -18 -10 18 -21 0 13 18 -13 18 
21 0 10 18 10 -18 21 0 6995 4601 13 MP
DP
-13 -18 13 -18 -21 0 -10 -18 -10 18 -21 0 13 18 -13 18 
21 0 10 18 10 -18 21 0 7451 4601 13 MP
DP
-13 -18 13 -18 -21 0 -10 -18 -10 18 -21 0 13 18 -13 18 
21 0 10 18 10 -18 21 0 7907 4601 13 MP
DP
-13 -18 13 -18 -21 0 -10 -18 -10 18 -21 0 13 18 -13 18 
21 0 10 18 10 -18 21 0 8363 4601 13 MP
DP
DO
gr

gs 4746 2705 3649 1916 rc
gr

0 sg
%%IncludeResource: font Helvetica
/Helvetica /WindowsLatin1Encoding 120 FMSR

4729 4663 mt 
( ) s
8378 2747 mt 
( ) s
SO
6 w
1 sg
0 2058 936 0 0 -2058 8591 3545 4 MP
PP
-936 0 0 2058 936 0 0 -2058 8591 3545 5 MP stroke
4 w
DO
SO
6 w
0 sg
8591 1487 mt 9527 1487 L
8591 3545 mt 9527 3545 L
9527 3545 mt 9527 1487 L
8591 3545 mt 8591 1487 L
8591 3545 mt 9527 3545 L
8591 3545 mt 8591 1487 L
8591 1487 mt 9527 1487 L
8591 3545 mt 9527 3545 L
9527 3545 mt 9527 1487 L
8591 3545 mt 8591 1487 L
9060 1634 mt 
(scpnrh4) s
gs 8591 1487 937 2059 rc
18 w
c8
360 0 8663 1592 2 MP stroke
gs 8751 1500 185 185 rc
  36   36 8843 1592 FO
gr

gr

18 w
c8
0 sg
9060 1802 mt 
(scpnrg3) s
gs 8591 1487 937 2059 rc
DO
c9
360 0 8663 1759 2 MP stroke
SO
gs 8751 1667 185 185 rc
0 j
41 71 -82 0 41 -71 8843 1806 4 MP
DP
gr

gr

c9
0 sg
9060 1970 mt 
(scpnrf2) s
gs 8591 1487 937 2059 rc
DD
c10
360 0 8663 1927 2 MP stroke
SO
gs 8751 1835 185 185 rc
8818 1902 mt 8868 1952 L
8868 1902 mt 8818 1952 L
gr

gr

c10
0 sg
9060 2138 mt 
(scpnre1) s
gs 8591 1487 937 2059 rc
DA
c11
360 0 8663 2096 2 MP stroke
SO
gs 8751 2004 185 185 rc
8807 2096 mt 8879 2096 L
8843 2060 mt 8843 2132 L
8818 2071 mt 8868 2121 L
8868 2071 mt 8818 2121 L
gr

gr

c11
0 sg
9060 2306 mt 
(scpe1) s
gs 8591 1487 937 2059 rc
c12
360 0 8663 2264 2 MP stroke
gs 8751 2172 185 185 rc
0 j
0 -58 -58 0 0 58 58 0 8814 2235 5 MP
DP
gr

gr

c12
0 sg
9060 2474 mt 
(scpd2) s
gs 8591 1487 937 2059 rc
DO
c13
360 0 8663 2432 2 MP stroke
SO
gs 8751 2340 185 185 rc
0 j
36 47 -36 47 -36 -47 36 -47 8843 2479 5 MP
DP
gr

gr

c13
0 sg
9060 2643 mt 
(scpc3) s
gs 8591 1487 937 2059 rc
DD
c14
360 0 8663 2599 2 MP stroke
SO
gs 8751 2507 185 185 rc
24 W
8843 2599 PD
gr

gr

c14
0 sg
9060 2811 mt 
(scpb4) s
gs 8591 1487 937 2059 rc
DA
c15
360 0 8663 2767 2 MP stroke
SO
gs 8751 2675 185 185 rc
0 j
-41 71 -41 -71 82 0 8802 2791 4 MP
DP
gr

gr

c15
0 sg
9060 2979 mt 
(scpa5) s
gs 8591 1487 937 2059 rc
c16
360 0 8663 2935 2 MP stroke
gs 8751 2843 185 185 rc
0 j
-71 41 0 -82 71 41 8796 2935 4 MP
DP
gr

gr

c16
0 sg
9060 3147 mt 
(scp63) s
gs 8591 1487 937 2059 rc
DO
c17
360 0 8663 3103 2 MP stroke
SO
gs 8751 3011 185 185 rc
0 j
0 82 -71 -41 71 -41 8819 3144 4 MP
DP
gr

gr

c17
0 sg
9060 3315 mt 
(scp52) s
gs 8591 1487 937 2059 rc
c18
360 0 8663 3271 2 MP stroke
gs 8751 3179 185 185 rc
0 j
-21 -16 8 -25 -22 15 -21 -15 8 25 -21 16 26 0 8 24 
9 -24 26 0 8808 3259 11 MP
DP
gr

gr

c18
0 sg
9060 3483 mt 
(scp41) s
gs 8591 1487 937 2059 rc
DO
c19
360 0 8663 3439 2 MP stroke
SO
gs 8751 3347 185 185 rc
0 j
-13 -18 13 -18 -21 0 -10 -18 -10 18 -21 0 13 18 -13 18 
21 0 10 18 10 -18 21 0 8812 3421 13 MP
DP
gr

6 w
gr

6 w
c19
0 sg
%%IncludeResource: font Helvetica-Bold
/Helvetica-Bold /WindowsLatin1Encoding 120 FMSR

1717 4998 mt 
(Elements Removed) s
6115 5009 mt 
(Elements Removed) s

end %%Color Dict

eplot
%%EndObject

epage
end

showpage

%%Trailer
%%EOF
