%!PS-Adobe-3.0 EPSF-3.0
%%Creator: MATLAB, The MathWorks, Inc. Version 8.2.0.701 (R2013b). Operating System: Microsoft Windows 8.
%%Title: D:\MICdatafiles\12plots\Remic.eps
%%CreationDate: 09/05/2015  19:42:58
%%DocumentNeededFonts: Helvetica
%%+ Helvetica-Bold
%%DocumentProcessColors: Cyan Magenta Yellow Black
%%LanguageLevel: 2
%%Pages: 1
%%BoundingBox:  -138   192   733   649
%%EndComments

%%BeginProlog
% MathWorks dictionary
/MathWorks 160 dict begin
% definition operators
/bdef {bind def} bind def
/ldef {load def} bind def
/xdef {exch def} bdef
/xstore {exch store} bdef
% operator abbreviations
/c  /clip ldef
/cc /concat ldef
/cp /closepath ldef
/gr /grestore ldef
/gs /gsave ldef
/mt /moveto ldef
/np /newpath ldef
/cm /currentmatrix ldef
/sm /setmatrix ldef
/rm /rmoveto ldef
/rl /rlineto ldef
/s {show newpath} bdef
/sc {setcmykcolor} bdef
/sr /setrgbcolor ldef
/sg /setgray ldef
/w /setlinewidth ldef
/j /setlinejoin ldef
/cap /setlinecap ldef
/rc {rectclip} bdef
/rf {rectfill} bdef
% page state control
/pgsv () def
/bpage {/pgsv save def} bdef
/epage {pgsv restore} bdef
/bplot /gsave ldef
/eplot {stroke grestore} bdef
% orientation switch
/portraitMode 0 def /landscapeMode 1 def /rotateMode 2 def
% coordinate system mappings
/dpi2point 0 def
% font control
/FontSize 0 def
/FMS {/FontSize xstore findfont [FontSize 0 0 FontSize neg 0 0]
  makefont setfont} bdef
/ISOLatin1Encoding where {pop /WindowsLatin1Encoding 256 array bdef
ISOLatin1Encoding WindowsLatin1Encoding copy pop
/.notdef/.notdef/quotesinglbase/florin/quotedblbase/ellipsis/dagger
/daggerdbl/circumflex/perthousand/Scaron/guilsinglleft/OE/.notdef/.notdef
/.notdef/.notdef/quoteleft/quoteright/quotedblleft/quotedblright/bullet
/endash/emdash/tilde/trademark/scaron/guilsinglright/oe/.notdef/.notdef
/Ydieresis WindowsLatin1Encoding 128 32 getinterval astore pop}
{/WindowsLatin1Encoding StandardEncoding bdef} ifelse
/reencode {exch dup where {pop load} {pop StandardEncoding} ifelse
  exch dup 3 1 roll findfont dup length dict begin
  { 1 index /FID ne {def}{pop pop} ifelse } forall
  /Encoding exch def currentdict end definefont pop} bdef
/isroman {findfont /CharStrings get /Agrave known} bdef
/FMSR {3 1 roll 1 index dup isroman {reencode} {pop pop} ifelse
  exch FMS} bdef
/csm {1 dpi2point div -1 dpi2point div scale neg translate
 dup landscapeMode eq {pop -90 rotate}
  {rotateMode eq {90 rotate} if} ifelse} bdef
% line types: solid, dotted, dashed, dotdash
/SO { [] 0 setdash } bdef
/DO { [.5 dpi2point mul 4 dpi2point mul] 0 setdash } bdef
/DA { [6 dpi2point mul] 0 setdash } bdef
/DD { [.5 dpi2point mul 4 dpi2point mul 6 dpi2point mul 4
  dpi2point mul] 0 setdash } bdef
% macros for lines and objects
/L {lineto stroke} bdef
/MP {3 1 roll moveto 1 sub {rlineto} repeat} bdef
/AP {{rlineto} repeat} bdef
/PDlw -1 def
/W {/PDlw currentlinewidth def setlinewidth} def
/PP {closepath eofill} bdef
/DP {closepath stroke} bdef
/MR {4 -2 roll moveto dup  0 exch rlineto exch 0 rlineto
  neg 0 exch rlineto closepath} bdef
/FR {MR stroke} bdef
/PR {MR fill} bdef
/L1i {{currentfile picstr readhexstring pop} image} bdef
/tMatrix matrix def
/MakeOval {newpath tMatrix currentmatrix pop translate scale
0 0 1 0 360 arc tMatrix setmatrix} bdef
/FO {MakeOval stroke} bdef
/PO {MakeOval fill} bdef
/PD {currentlinewidth 2 div 0 360 arc fill
   PDlw -1 eq not {PDlw w /PDlw -1 def} if} def
/FA {newpath tMatrix currentmatrix pop translate scale
  0 0 1 5 -2 roll arc tMatrix setmatrix stroke} bdef
/PA {newpath tMatrix currentmatrix pop	translate 0 0 moveto scale
  0 0 1 5 -2 roll arc closepath tMatrix setmatrix fill} bdef
/FAn {newpath tMatrix currentmatrix pop translate scale
  0 0 1 5 -2 roll arcn tMatrix setmatrix stroke} bdef
/PAn {newpath tMatrix currentmatrix pop translate 0 0 moveto scale
  0 0 1 5 -2 roll arcn closepath tMatrix setmatrix fill} bdef
/vradius 0 def /hradius 0 def /lry 0 def
/lrx 0 def /uly 0 def /ulx 0 def /rad 0 def
/MRR {/vradius xdef /hradius xdef /lry xdef /lrx xdef /uly xdef
  /ulx xdef newpath tMatrix currentmatrix pop ulx hradius add uly
  vradius add translate hradius vradius scale 0 0 1 180 270 arc 
  tMatrix setmatrix lrx hradius sub uly vradius add translate
  hradius vradius scale 0 0 1 270 360 arc tMatrix setmatrix
  lrx hradius sub lry vradius sub translate hradius vradius scale
  0 0 1 0 90 arc tMatrix setmatrix ulx hradius add lry vradius sub
  translate hradius vradius scale 0 0 1 90 180 arc tMatrix setmatrix
  closepath} bdef
/FRR {MRR stroke } bdef
/PRR {MRR fill } bdef
/MlrRR {/lry xdef /lrx xdef /uly xdef /ulx xdef /rad lry uly sub 2 div def
  newpath tMatrix currentmatrix pop ulx rad add uly rad add translate
  rad rad scale 0 0 1 90 270 arc tMatrix setmatrix lrx rad sub lry rad
  sub translate rad rad scale 0 0 1 270 90 arc tMatrix setmatrix
  closepath} bdef
/FlrRR {MlrRR stroke } bdef
/PlrRR {MlrRR fill } bdef
/MtbRR {/lry xdef /lrx xdef /uly xdef /ulx xdef /rad lrx ulx sub 2 div def
  newpath tMatrix currentmatrix pop ulx rad add uly rad add translate
  rad rad scale 0 0 1 180 360 arc tMatrix setmatrix lrx rad sub lry rad
  sub translate rad rad scale 0 0 1 0 180 arc tMatrix setmatrix
  closepath} bdef
/FtbRR {MtbRR stroke } bdef
/PtbRR {MtbRR fill } bdef
/stri 6 array def /dtri 6 array def
/smat 6 array def /dmat 6 array def
/tmat1 6 array def /tmat2 6 array def /dif 3 array def
/asub {/ind2 exch def /ind1 exch def dup dup
  ind1 get exch ind2 get sub exch } bdef
/tri_to_matrix {
  2 0 asub 3 1 asub 4 0 asub 5 1 asub
  dup 0 get exch 1 get 7 -1 roll astore } bdef
/compute_transform {
  dmat dtri tri_to_matrix tmat1 invertmatrix 
  smat stri tri_to_matrix tmat2 concatmatrix } bdef
/ds {stri astore pop} bdef
/dt {dtri astore pop} bdef
/db {2 copy /cols xdef /rows xdef mul dup 3 mul string
  currentfile 
  3 index 0 eq {/ASCIIHexDecode filter}
  {/ASCII85Decode filter 3 index 2 eq {/RunLengthDecode filter} if }
  ifelse exch readstring pop
  dup 0 3 index getinterval /rbmap xdef
  dup 2 index dup getinterval /gbmap xdef
  1 index dup 2 mul exch getinterval /bbmap xdef pop pop}bdef
/it {gs np dtri aload pop moveto lineto lineto cp c
  cols rows 8 compute_transform 
  rbmap gbmap bbmap true 3 colorimage gr}bdef
/il {newpath moveto lineto stroke}bdef
currentdict end def
%%EndProlog

%%BeginSetup
MathWorks begin

0 cap

end
%%EndSetup

%%Page: 1 1
%%BeginPageSetup
%%PageBoundingBox:  -138   192   733   649
MathWorks begin
bpage
%%EndPageSetup

%%BeginObject: obj1
bplot

/dpi2point 12 def
portraitMode -1656 7788 csm

    0     0 10457  5474 rc
95 dict begin %Colortable dictionary
/c0 { 0.000000 0.000000 0.000000 sr} bdef
/c1 { 1.000000 1.000000 1.000000 sr} bdef
/c2 { 0.900000 0.000000 0.000000 sr} bdef
/c3 { 0.000000 0.820000 0.000000 sr} bdef
/c4 { 0.000000 0.000000 0.800000 sr} bdef
/c5 { 0.910000 0.820000 0.320000 sr} bdef
/c6 { 1.000000 0.260000 0.820000 sr} bdef
/c7 { 0.000000 0.820000 0.820000 sr} bdef
c0
1 j
1 sg
   0    0 10458 5475 rf
6 w
0 1916 3775 0 0 -1916 288 2238 4 MP
PP
-3775 0 0 1916 3775 0 0 -1916 288 2238 5 MP stroke
4 w
DO
0 sg
 288 2238 mt  288  322 L
 288  322 mt  288  322 L
 759 2238 mt  759  322 L
 759  322 mt  759  322 L
1231 2238 mt 1231  322 L
1231  322 mt 1231  322 L
1703 2238 mt 1703  322 L
1703  322 mt 1703  322 L
2175 2238 mt 2175  322 L
2175  322 mt 2175  322 L
2647 2238 mt 2647  322 L
2647  322 mt 2647  322 L
3119 2238 mt 3119  322 L
3119  322 mt 3119  322 L
3591 2238 mt 3591  322 L
3591  322 mt 3591  322 L
4063 2238 mt 4063  322 L
4063  322 mt 4063  322 L
 288 2238 mt 4063 2238 L
4063 2238 mt 4063 2238 L
 288 1918 mt 4063 1918 L
4063 1918 mt 4063 1918 L
 288 1599 mt 4063 1599 L
4063 1599 mt 4063 1599 L
 288 1280 mt 4063 1280 L
4063 1280 mt 4063 1280 L
 288  960 mt 4063  960 L
4063  960 mt 4063  960 L
 288  641 mt 4063  641 L
4063  641 mt 4063  641 L
 288  322 mt 4063  322 L
4063  322 mt 4063  322 L
SO
6 w
 288  322 mt 4063  322 L
 288 2238 mt 4063 2238 L
4063 2238 mt 4063  322 L
 288 2238 mt  288  322 L
 288 2238 mt 4063 2238 L
 288 2238 mt  288  322 L
 288 2238 mt  288 2200 L
 288  322 mt  288  359 L
%%IncludeResource: font Helvetica
/Helvetica /WindowsLatin1Encoding 120 FMSR

 222 2383 mt 
(10) s
 759 2238 mt  759 2200 L
 759  322 mt  759  359 L
 693 2383 mt 
(20) s
1231 2238 mt 1231 2200 L
1231  322 mt 1231  359 L
1165 2383 mt 
(30) s
1703 2238 mt 1703 2200 L
1703  322 mt 1703  359 L
1637 2383 mt 
(40) s
2175 2238 mt 2175 2200 L
2175  322 mt 2175  359 L
2109 2383 mt 
(50) s
2647 2238 mt 2647 2200 L
2647  322 mt 2647  359 L
2581 2383 mt 
(60) s
3119 2238 mt 3119 2200 L
3119  322 mt 3119  359 L
3053 2383 mt 
(70) s
3591 2238 mt 3591 2200 L
3591  322 mt 3591  359 L
3525 2383 mt 
(80) s
4063 2238 mt 4063 2200 L
4063  322 mt 4063  359 L
3997 2383 mt 
(90) s
 288 2238 mt  325 2238 L
4063 2238 mt 4025 2238 L
  50 2282 mt 
(-40) s
 288 1918 mt  325 1918 L
4063 1918 mt 4025 1918 L
  50 1962 mt 
(-20) s
 288 1599 mt  325 1599 L
4063 1599 mt 4025 1599 L
 187 1643 mt 
(0) s
 288 1280 mt  325 1280 L
4063 1280 mt 4025 1280 L
 120 1324 mt 
(20) s
 288  960 mt  325  960 L
4063  960 mt 4025  960 L
 120 1004 mt 
(40) s
 288  641 mt  325  641 L
4063  641 mt 4025  641 L
 120  685 mt 
(60) s
 288  322 mt  325  322 L
4063  322 mt 4025  322 L
 120  366 mt 
(80) s
 288  322 mt 4063  322 L
 288 2238 mt 4063 2238 L
4063 2238 mt 4063  322 L
 288 2238 mt  288  322 L
gs 288 322 3776 1917 rc
18 w
/c8 { 0.000000 0.000000 1.000000 sr} bdef
c8
472 23 472 -101 472 323 472 -173 472 155 472 100 472 -163 471 157 
288 1069 9 MP stroke
gr

18 w
c8
gs 196 971 3960 590 rc
  36   36  288 1069 FO
  36   36  759 1226 FO
  36   36 1231 1063 FO
  36   36 1703 1163 FO
  36   36 2175 1318 FO
  36   36 2647 1145 FO
  36   36 3119 1468 FO
  36   36 3591 1367 FO
  36   36 4063 1390 FO
gr

gs 288 322 3776 1917 rc
gr

0 sg
%%IncludeResource: font Helvetica-Bold
/Helvetica-Bold /WindowsLatin1Encoding 120 FMSR

1238  173 mt 
(Time to reach feasible region \(D) s
%%IncludeResource: font Helvetica-Bold
/Helvetica-Bold /WindowsLatin1Encoding 96 FMSR

3054  233 mt 
(f) s
%%IncludeResource: font Helvetica-Bold
/Helvetica-Bold /WindowsLatin1Encoding 120 FMSR

3085  173 mt 
(\)) s
gs 288 322 3776 1917 rc
DO
/c9 { 1.000000 0.000000 0.000000 sr} bdef
c9
472 289 472 -146 472 92 472 266 472 26 472 417 472 199 471 -80 
288 511 9 MP stroke
gr

c9
DO
gs 196 339 3960 1328 rc
SO
0 j
41 71 -82 0 41 -71 288 558 4 MP
DP
41 71 -82 0 41 -71 759 478 4 MP
DP
41 71 -82 0 41 -71 1231 677 4 MP
DP
41 71 -82 0 41 -71 1703 1094 4 MP
DP
41 71 -82 0 41 -71 2175 1120 4 MP
DP
41 71 -82 0 41 -71 2647 1386 4 MP
DP
41 71 -82 0 41 -71 3119 1478 4 MP
DP
41 71 -82 0 41 -71 3591 1332 4 MP
DP
41 71 -82 0 41 -71 4063 1621 4 MP
DP
DO
gr

gs 288 322 3776 1917 rc
DD
/c10 { 0.000000 1.000000 0.000000 sr} bdef
c10
472 76 472 -22 472 -19 472 48 472 -6 472 42 472 -23 471 16 
288 1472 9 MP stroke
gr

c10
DD
gs 196 1373 3960 304 rc
SO
 263 1447 mt  313 1497 L
 313 1447 mt  263 1497 L
 734 1463 mt  784 1513 L
 784 1463 mt  734 1513 L
1206 1440 mt 1256 1490 L
1256 1440 mt 1206 1490 L
1678 1482 mt 1728 1532 L
1728 1482 mt 1678 1532 L
2150 1476 mt 2200 1526 L
2200 1476 mt 2150 1526 L
2622 1524 mt 2672 1574 L
2672 1524 mt 2622 1574 L
3094 1505 mt 3144 1555 L
3144 1505 mt 3094 1555 L
3566 1483 mt 3616 1533 L
3616 1483 mt 3566 1533 L
4038 1559 mt 4088 1609 L
4088 1559 mt 4038 1609 L
DD
gr

gs 288 322 3776 1917 rc
DA
/c11 { 0.000000 0.000000 0.172414 sr} bdef
c11
472 -12 472 68 472 28 472 79 472 -66 472 114 472 -157 471 166 
288 1329 9 MP stroke
gr

c11
DA
gs 196 1237 3960 417 rc
SO
 252 1329 mt  324 1329 L
 288 1293 mt  288 1365 L
 723 1495 mt  795 1495 L
 759 1459 mt  759 1531 L
1195 1338 mt 1267 1338 L
1231 1302 mt 1231 1374 L
1667 1452 mt 1739 1452 L
1703 1416 mt 1703 1488 L
2139 1386 mt 2211 1386 L
2175 1350 mt 2175 1422 L
2611 1465 mt 2683 1465 L
2647 1429 mt 2647 1501 L
3083 1493 mt 3155 1493 L
3119 1457 mt 3119 1529 L
3555 1561 mt 3627 1561 L
3591 1525 mt 3591 1597 L
4027 1549 mt 4099 1549 L
4063 1513 mt 4063 1585 L
 263 1304 mt  313 1354 L
 313 1304 mt  263 1354 L
 734 1470 mt  784 1520 L
 784 1470 mt  734 1520 L
1206 1313 mt 1256 1363 L
1256 1313 mt 1206 1363 L
1678 1427 mt 1728 1477 L
1728 1427 mt 1678 1477 L
2150 1361 mt 2200 1411 L
2200 1361 mt 2150 1411 L
2622 1440 mt 2672 1490 L
2672 1440 mt 2622 1490 L
3094 1468 mt 3144 1518 L
3144 1468 mt 3094 1518 L
3566 1536 mt 3616 1586 L
3616 1536 mt 3566 1586 L
4038 1524 mt 4088 1574 L
4088 1524 mt 4038 1574 L
DA
gr

gs 288 322 3776 1917 rc
SO
/c12 { 1.000000 0.103448 0.724138 sr} bdef
c12
472 5 472 55 472 -25 472 -32 472 27 472 43 472 1 471 -13 
288 1512 9 MP stroke
gr

c12
SO
gs 196 1407 3960 259 rc
0 j
0 -58 -58 0 0 58 58 0 259 1483 5 MP
DP
0 -58 -58 0 0 58 58 0 730 1470 5 MP
DP
0 -58 -58 0 0 58 58 0 1202 1471 5 MP
DP
0 -58 -58 0 0 58 58 0 1674 1514 5 MP
DP
0 -58 -58 0 0 58 58 0 2146 1541 5 MP
DP
0 -58 -58 0 0 58 58 0 2618 1509 5 MP
DP
0 -58 -58 0 0 58 58 0 3090 1484 5 MP
DP
0 -58 -58 0 0 58 58 0 3562 1539 5 MP
DP
0 -58 -58 0 0 58 58 0 4034 1544 5 MP
DP
gr

gs 288 322 3776 1917 rc
DO
/c13 { 1.000000 0.827586 0.000000 sr} bdef
c13
472 159 472 -126 472 162 472 -22 472 -20 472 69 472 5 471 328 
288 1110 9 MP stroke
gr

c13
DO
gs 196 1018 3960 740 rc
SO
0 j
36 47 -36 47 -36 -47 36 -47 288 1157 5 MP
DP
36 47 -36 47 -36 -47 36 -47 759 1485 5 MP
DP
36 47 -36 47 -36 -47 36 -47 1231 1490 5 MP
DP
36 47 -36 47 -36 -47 36 -47 1703 1559 5 MP
DP
36 47 -36 47 -36 -47 36 -47 2175 1539 5 MP
DP
36 47 -36 47 -36 -47 36 -47 2647 1517 5 MP
DP
36 47 -36 47 -36 -47 36 -47 3119 1679 5 MP
DP
36 47 -36 47 -36 -47 36 -47 3591 1553 5 MP
DP
36 47 -36 47 -36 -47 36 -47 4063 1712 5 MP
DP
DO
gr

gs 288 322 3776 1917 rc
DD
/c14 { 0.000000 0.344828 0.000000 sr} bdef
c14
472 486 472 -544 472 -457 472 363 472 -43 472 109 472 310 471 -137 
288 1183 9 MP stroke
gr

c14
DD
gs 196 692 3960 1186 rc
SO
24 W
288 1183 PD
24 W
759 1046 PD
24 W
1231 1356 PD
24 W
1703 1465 PD
24 W
2175 1422 PD
24 W
2647 1785 PD
24 W
3119 1328 PD
24 W
3591 784 PD
24 W
4063 1270 PD
DD
gr

gs 288 322 3776 1917 rc
DA
/c15 { 0.517241 0.517241 1.000000 sr} bdef
c15
472 -291 472 3 472 191 472 -57 472 184 472 7 472 45 471 -76 
288 1308 9 MP stroke
gr

c15
DA
gs 196 1140 3960 558 rc
SO
0 j
-41 71 -41 -71 82 0 247 1332 4 MP
DP
-41 71 -41 -71 82 0 718 1256 4 MP
DP
-41 71 -41 -71 82 0 1190 1301 4 MP
DP
-41 71 -41 -71 82 0 1662 1308 4 MP
DP
-41 71 -41 -71 82 0 2134 1492 4 MP
DP
-41 71 -41 -71 82 0 2606 1435 4 MP
DP
-41 71 -41 -71 82 0 3078 1626 4 MP
DP
-41 71 -41 -71 82 0 3550 1629 4 MP
DP
-41 71 -41 -71 82 0 4022 1338 4 MP
DP
DA
gr

gs 288 322 3776 1917 rc
SO
/c16 { 0.620690 0.310345 0.275862 sr} bdef
c16
472 746 472 -280 472 128 472 27 472 -332 472 308 472 -155 471 692 
288 746 9 MP stroke
gr

c16
SO
gs 196 654 3960 1319 rc
0 j
-71 41 0 -82 71 41 241 746 4 MP
DP
-71 41 0 -82 71 41 712 1438 4 MP
DP
-71 41 0 -82 71 41 1184 1283 4 MP
DP
-71 41 0 -82 71 41 1656 1591 4 MP
DP
-71 41 0 -82 71 41 2128 1259 4 MP
DP
-71 41 0 -82 71 41 2600 1286 4 MP
DP
-71 41 0 -82 71 41 3072 1414 4 MP
DP
-71 41 0 -82 71 41 3544 1134 4 MP
DP
-71 41 0 -82 71 41 4016 1880 4 MP
DP
gr

gs 288 322 3776 1917 rc
DO
/c17 { 0.000000 1.000000 0.758621 sr} bdef
c17
472 210 472 61 472 -58 472 128 472 87 472 -421 472 245 471 228 
288 1175 9 MP stroke
gr

c17
DO
gs 196 1083 3960 665 rc
SO
0 j
0 82 -71 -41 71 -41 264 1216 4 MP
DP
0 82 -71 -41 71 -41 735 1444 4 MP
DP
0 82 -71 -41 71 -41 1207 1689 4 MP
DP
0 82 -71 -41 71 -41 1679 1268 4 MP
DP
0 82 -71 -41 71 -41 2151 1355 4 MP
DP
0 82 -71 -41 71 -41 2623 1483 4 MP
DP
0 82 -71 -41 71 -41 3095 1425 4 MP
DP
0 82 -71 -41 71 -41 3567 1486 4 MP
DP
0 82 -71 -41 71 -41 4039 1696 4 MP
DP
DO
gr

gs 288 322 3776 1917 rc
SO
/c18 { 0.000000 0.517241 0.586207 sr} bdef
c18
472 354 472 -22 472 899 472 278 472 -1123 472 83 472 920 471 -310 
288 883 9 MP stroke
gr

c18
SO
gs 196 361 3960 1694 rc
0 j
-21 -16 8 -25 -22 15 -21 -15 8 25 -21 16 26 0 8 24 
9 -24 26 0 253 871 11 MP
DP
-21 -16 8 -25 -22 15 -21 -15 8 25 -21 16 26 0 8 24 
9 -24 26 0 724 561 11 MP
DP
-21 -16 8 -25 -22 15 -21 -15 8 25 -21 16 26 0 8 24 
9 -24 26 0 1196 1481 11 MP
DP
-21 -16 8 -25 -22 15 -21 -15 8 25 -21 16 26 0 8 24 
9 -24 26 0 1668 1564 11 MP
DP
-21 -16 8 -25 -22 15 -21 -15 8 25 -21 16 26 0 8 24 
9 -24 26 0 2140 441 11 MP
DP
-21 -16 8 -25 -22 15 -21 -15 8 25 -21 16 26 0 8 24 
9 -24 26 0 2612 719 11 MP
DP
-21 -16 8 -25 -22 15 -21 -15 8 25 -21 16 26 0 8 24 
9 -24 26 0 3084 1618 11 MP
DP
-21 -16 8 -25 -22 15 -21 -15 8 25 -21 16 26 0 8 24 
9 -24 26 0 3556 1596 11 MP
DP
-21 -16 8 -25 -22 15 -21 -15 8 25 -21 16 26 0 8 24 
9 -24 26 0 4028 1950 11 MP
DP
gr

gs 288 322 3776 1917 rc
DO
/c19 { 0.000000 0.000000 0.482759 sr} bdef
c19
472 332 472 51 472 566 472 -444 472 768 472 -1065 472 491 471 -127 
288 1341 9 MP stroke
gr

c19
DO
gs 196 548 3960 1458 rc
SO
0 j
-13 -18 13 -18 -21 0 -10 -18 -10 18 -21 0 13 18 -13 18 
21 0 10 18 10 -18 21 0 257 1323 13 MP
DP
-13 -18 13 -18 -21 0 -10 -18 -10 18 -21 0 13 18 -13 18 
21 0 10 18 10 -18 21 0 728 1196 13 MP
DP
-13 -18 13 -18 -21 0 -10 -18 -10 18 -21 0 13 18 -13 18 
21 0 10 18 10 -18 21 0 1200 1687 13 MP
DP
-13 -18 13 -18 -21 0 -10 -18 -10 18 -21 0 13 18 -13 18 
21 0 10 18 10 -18 21 0 1672 622 13 MP
DP
-13 -18 13 -18 -21 0 -10 -18 -10 18 -21 0 13 18 -13 18 
21 0 10 18 10 -18 21 0 2144 1390 13 MP
DP
-13 -18 13 -18 -21 0 -10 -18 -10 18 -21 0 13 18 -13 18 
21 0 10 18 10 -18 21 0 2616 946 13 MP
DP
-13 -18 13 -18 -21 0 -10 -18 -10 18 -21 0 13 18 -13 18 
21 0 10 18 10 -18 21 0 3088 1512 13 MP
DP
-13 -18 13 -18 -21 0 -10 -18 -10 18 -21 0 13 18 -13 18 
21 0 10 18 10 -18 21 0 3560 1563 13 MP
DP
-13 -18 13 -18 -21 0 -10 -18 -10 18 -21 0 13 18 -13 18 
21 0 10 18 10 -18 21 0 4032 1895 13 MP
DP
DO
gr

gs 288 322 3776 1917 rc
SO
6 w
gr

6 w
SO
1 sg
0 1916 3747 0 0 -1916 4431 2265 4 MP
PP
-3747 0 0 1916 3747 0 0 -1916 4431 2265 5 MP stroke
4 w
DO
0 sg
4431 2265 mt 4431  349 L
4431  349 mt 4431  349 L
4899 2265 mt 4899  349 L
4899  349 mt 4899  349 L
5367 2265 mt 5367  349 L
5367  349 mt 5367  349 L
5836 2265 mt 5836  349 L
5836  349 mt 5836  349 L
6304 2265 mt 6304  349 L
6304  349 mt 6304  349 L
6772 2265 mt 6772  349 L
6772  349 mt 6772  349 L
7241 2265 mt 7241  349 L
7241  349 mt 7241  349 L
7709 2265 mt 7709  349 L
7709  349 mt 7709  349 L
8178 2265 mt 8178  349 L
8178  349 mt 8178  349 L
4431 2265 mt 8178 2265 L
8178 2265 mt 8178 2265 L
4431 1881 mt 8178 1881 L
8178 1881 mt 8178 1881 L
4431 1498 mt 8178 1498 L
8178 1498 mt 8178 1498 L
4431 1115 mt 8178 1115 L
8178 1115 mt 8178 1115 L
4431  732 mt 8178  732 L
8178  732 mt 8178  732 L
4431  349 mt 8178  349 L
8178  349 mt 8178  349 L
SO
6 w
4431  349 mt 8178  349 L
4431 2265 mt 8178 2265 L
8178 2265 mt 8178  349 L
4431 2265 mt 4431  349 L
4431 2265 mt 8178 2265 L
4431 2265 mt 4431  349 L
4431 2265 mt 4431 2227 L
4431  349 mt 4431  386 L
%%IncludeResource: font Helvetica
/Helvetica /WindowsLatin1Encoding 120 FMSR

4365 2410 mt 
(10) s
4899 2265 mt 4899 2227 L
4899  349 mt 4899  386 L
4833 2410 mt 
(20) s
5367 2265 mt 5367 2227 L
5367  349 mt 5367  386 L
5301 2410 mt 
(30) s
5836 2265 mt 5836 2227 L
5836  349 mt 5836  386 L
5770 2410 mt 
(40) s
6304 2265 mt 6304 2227 L
6304  349 mt 6304  386 L
6238 2410 mt 
(50) s
6772 2265 mt 6772 2227 L
6772  349 mt 6772  386 L
6706 2410 mt 
(60) s
7241 2265 mt 7241 2227 L
7241  349 mt 7241  386 L
7175 2410 mt 
(70) s
7709 2265 mt 7709 2227 L
7709  349 mt 7709  386 L
7643 2410 mt 
(80) s
8178 2265 mt 8178 2227 L
8178  349 mt 8178  386 L
8112 2410 mt 
(90) s
4431 2265 mt 4468 2265 L
8178 2265 mt 8140 2265 L
4330 2309 mt 
(0) s
4431 1881 mt 4468 1881 L
8178 1881 mt 8140 1881 L
4230 1925 mt 
(0.2) s
4431 1498 mt 4468 1498 L
8178 1498 mt 8140 1498 L
4230 1542 mt 
(0.4) s
4431 1115 mt 4468 1115 L
8178 1115 mt 8140 1115 L
4230 1159 mt 
(0.6) s
4431  732 mt 4468  732 L
8178  732 mt 8140  732 L
4230  776 mt 
(0.8) s
4431  349 mt 4468  349 L
8178  349 mt 8140  349 L
4330  393 mt 
(1) s
4431  349 mt 8178  349 L
4431 2265 mt 8178 2265 L
8178 2265 mt 8178  349 L
4431 2265 mt 4431  349 L
gs 4431 349 3748 1917 rc
18 w
c8
469 88 468 290 469 -530 468 9 468 -5 469 -4 468 0 468 0 
4431 2264 9 MP stroke
gr

18 w
c8
gs 4339 1642 3932 715 rc
  36   36 4431 2264 FO
  36   36 4899 2264 FO
  36   36 5367 2264 FO
  36   36 5836 2260 FO
  36   36 6304 2255 FO
  36   36 6772 2264 FO
  36   36 7241 1734 FO
  36   36 7709 2024 FO
  36   36 8178 2112 FO
gr

gs 4431 349 3748 1917 rc
gr

0 sg
%%IncludeResource: font Helvetica-Bold
/Helvetica-Bold /WindowsLatin1Encoding 120 FMSR

5632  254 mt 
(Wilcoxon rank sum test) s
gs 4431 349 3748 1917 rc
DO
c9
469 -1460 468 376 469 -386 468 -256 468 -13 469 -86 468 1 468 -1 
4431 2264 9 MP stroke
gr

c9
DO
gs 4339 347 3932 2010 rc
SO
0 j
41 71 -82 0 41 -71 4431 2311 4 MP
DP
41 71 -82 0 41 -71 4899 2310 4 MP
DP
41 71 -82 0 41 -71 5367 2311 4 MP
DP
41 71 -82 0 41 -71 5836 2225 4 MP
DP
41 71 -82 0 41 -71 6304 2212 4 MP
DP
41 71 -82 0 41 -71 6772 1956 4 MP
DP
41 71 -82 0 41 -71 7241 1570 4 MP
DP
41 71 -82 0 41 -71 7709 1946 4 MP
DP
41 71 -82 0 41 -71 8178 486 4 MP
DP
DO
gs 4431 349 3748 1917 rc
DD
c10
469 -619 468 3 469 91 468 -96 468 0 469 0 468 0 468 0 
4431 2264 9 MP stroke
gr

c10
DD
gs 4339 1551 3932 806 rc
SO
4406 2239 mt 4456 2289 L
4456 2239 mt 4406 2289 L
4874 2239 mt 4924 2289 L
4924 2239 mt 4874 2289 L
5342 2239 mt 5392 2289 L
5392 2239 mt 5342 2289 L
5811 2239 mt 5861 2289 L
5861 2239 mt 5811 2289 L
6279 2239 mt 6329 2289 L
6329 2239 mt 6279 2289 L
6747 2143 mt 6797 2193 L
6797 2143 mt 6747 2193 L
7216 2234 mt 7266 2284 L
7266 2234 mt 7216 2284 L
7684 2237 mt 7734 2287 L
7734 2237 mt 7684 2287 L
8153 1618 mt 8203 1668 L
8203 1618 mt 8153 1668 L
DD
gr

gs 4431 349 3748 1917 rc
DA
c11
469 -158 468 -346 469 -58 468 0 468 17 469 -17 468 78 468 -78 
4431 2264 9 MP stroke
gr

c11
DA
gs 4339 1610 3932 747 rc
SO
4395 2264 mt 4467 2264 L
4431 2228 mt 4431 2300 L
4863 2186 mt 4935 2186 L
4899 2150 mt 4899 2222 L
5331 2264 mt 5403 2264 L
5367 2228 mt 5367 2300 L
5800 2247 mt 5872 2247 L
5836 2211 mt 5836 2283 L
6268 2264 mt 6340 2264 L
6304 2228 mt 6304 2300 L
6736 2264 mt 6808 2264 L
6772 2228 mt 6772 2300 L
7205 2206 mt 7277 2206 L
7241 2170 mt 7241 2242 L
7673 1860 mt 7745 1860 L
7709 1824 mt 7709 1896 L
8142 1702 mt 8214 1702 L
8178 1666 mt 8178 1738 L
4406 2239 mt 4456 2289 L
4456 2239 mt 4406 2289 L
4874 2161 mt 4924 2211 L
4924 2161 mt 4874 2211 L
5342 2239 mt 5392 2289 L
5392 2239 mt 5342 2289 L
5811 2222 mt 5861 2272 L
5861 2222 mt 5811 2272 L
6279 2239 mt 6329 2289 L
6329 2239 mt 6279 2289 L
6747 2239 mt 6797 2289 L
6797 2239 mt 6747 2289 L
7216 2181 mt 7266 2231 L
7266 2181 mt 7216 2231 L
7684 1835 mt 7734 1885 L
7734 1835 mt 7684 1885 L
8153 1677 mt 8203 1727 L
8203 1677 mt 8153 1727 L
DA
gr

gs 4431 349 3748 1917 rc
SO
c12
469 56 468 -1045 469 1 468 515 468 -324 469 -197 468 0 468 3 
4431 2261 9 MP stroke
gr

c12
SO
gs 4339 1122 3932 1235 rc
0 -58 -58 0 0 58 58 0 4402 2232 5 MP
DP
0 -58 -58 0 0 58 58 0 4870 2235 5 MP
DP
0 -58 -58 0 0 58 58 0 5338 2235 5 MP
DP
0 -58 -58 0 0 58 58 0 5807 2038 5 MP
DP
0 -58 -58 0 0 58 58 0 6275 1714 5 MP
DP
0 -58 -58 0 0 58 58 0 6743 2229 5 MP
DP
0 -58 -58 0 0 58 58 0 7212 2230 5 MP
DP
0 -58 -58 0 0 58 58 0 7680 1185 5 MP
DP
0 -58 -58 0 0 58 58 0 8149 1241 5 MP
DP
gr

gs 4431 349 3748 1917 rc
DO
c13
469 -1098 468 1175 469 -662 468 -604 468 -132 469 52 468 -88 468 -178 
4431 2264 9 MP stroke
gr

c13
DO
gs 4339 560 3932 1797 rc
SO
36 47 -36 47 -36 -47 36 -47 4431 2311 5 MP
DP
36 47 -36 47 -36 -47 36 -47 4899 2133 5 MP
DP
36 47 -36 47 -36 -47 36 -47 5367 2045 5 MP
DP
36 47 -36 47 -36 -47 36 -47 5836 2097 5 MP
DP
36 47 -36 47 -36 -47 36 -47 6304 1965 5 MP
DP
36 47 -36 47 -36 -47 36 -47 6772 1361 5 MP
DP
36 47 -36 47 -36 -47 36 -47 7241 699 5 MP
DP
36 47 -36 47 -36 -47 36 -47 7709 1874 5 MP
DP
36 47 -36 47 -36 -47 36 -47 8178 776 5 MP
DP
DO
gr

gs 4431 349 3748 1917 rc
DD
c14
469 -616 468 1036 469 86 468 -340 468 -233 469 324 468 -832 468 117 
4431 2099 9 MP stroke
gr

c14
DD
gs 4339 1043 3932 1307 rc
SO
24 W
4431 2099 PD
24 W
4899 2216 PD
24 W
5367 1384 PD
24 W
5836 1708 PD
24 W
6304 1475 PD
24 W
6772 1135 PD
24 W
7241 1221 PD
24 W
7709 2257 PD
24 W
8178 1641 PD
DD
gr

gs 4431 349 3748 1917 rc
DA
c15
469 1345 468 530 469 -1791 468 133 468 -223 469 10 468 -10 468 5 
4431 2258 9 MP stroke
gr

c15
DA
SO
-41 71 -41 -71 82 0 4390 2282 4 MP
DP
-41 71 -41 -71 82 0 4858 2287 4 MP
DP
-41 71 -41 -71 82 0 5326 2277 4 MP
DP
-41 71 -41 -71 82 0 5795 2287 4 MP
DP
-41 71 -41 -71 82 0 6263 2064 4 MP
DP
-41 71 -41 -71 82 0 6731 2197 4 MP
DP
-41 71 -41 -71 82 0 7200 406 4 MP
DP
-41 71 -41 -71 82 0 7668 936 4 MP
DP
-41 71 -41 -71 82 0 8137 2281 4 MP
DP
DA
gs 4431 349 3748 1917 rc
SO
c16
469 -481 468 818 469 -526 468 -60 468 748 469 -812 468 578 468 -924 
4431 2264 9 MP stroke
gr

c16
SO
-71 41 0 -82 71 41 4384 2264 4 MP
DP
-71 41 0 -82 71 41 4852 1340 4 MP
DP
-71 41 0 -82 71 41 5320 1918 4 MP
DP
-71 41 0 -82 71 41 5789 1106 4 MP
DP
-71 41 0 -82 71 41 6257 1854 4 MP
DP
-71 41 0 -82 71 41 6725 1794 4 MP
DP
-71 41 0 -82 71 41 7194 1268 4 MP
DP
-71 41 0 -82 71 41 7662 2086 4 MP
DP
-71 41 0 -82 71 41 8131 1605 4 MP
DP
gr

c16
SO
gs 4431 349 3748 1917 rc
DO
c17
469 -1138 468 10 469 -35 468 -114 468 9 469 1166 468 -1138 468 -48 
4431 2262 9 MP stroke
gr

c17
DO
gs 4339 882 3932 1473 rc
SO
0 j
0 82 -71 -41 71 -41 4407 2303 4 MP
DP
0 82 -71 -41 71 -41 4875 2255 4 MP
DP
0 82 -71 -41 71 -41 5343 1117 4 MP
DP
0 82 -71 -41 71 -41 5812 2283 4 MP
DP
0 82 -71 -41 71 -41 6280 2292 4 MP
DP
0 82 -71 -41 71 -41 6748 2178 4 MP
DP
0 82 -71 -41 71 -41 7217 2143 4 MP
DP
0 82 -71 -41 71 -41 7685 2153 4 MP
DP
0 82 -71 -41 71 -41 8154 1015 4 MP
DP
DO
gr

gs 4431 349 3748 1917 rc
SO
c18
469 1281 468 34 469 -1902 468 -1 468 1138 469 -509 468 -625 468 13 
4431 2246 9 MP stroke
gr

c18
SO
gs 4339 268 3932 2088 rc
0 j
-21 -16 8 -25 -22 15 -21 -15 8 25 -21 16 26 0 8 24 
9 -24 26 0 4396 2234 11 MP
DP
-21 -16 8 -25 -22 15 -21 -15 8 25 -21 16 26 0 8 24 
9 -24 26 0 4864 2247 11 MP
DP
-21 -16 8 -25 -22 15 -21 -15 8 25 -21 16 26 0 8 24 
9 -24 26 0 5332 1622 11 MP
DP
-21 -16 8 -25 -22 15 -21 -15 8 25 -21 16 26 0 8 24 
9 -24 26 0 5801 1113 11 MP
DP
-21 -16 8 -25 -22 15 -21 -15 8 25 -21 16 26 0 8 24 
9 -24 26 0 6269 2251 11 MP
DP
-21 -16 8 -25 -22 15 -21 -15 8 25 -21 16 26 0 8 24 
9 -24 26 0 6737 2250 11 MP
DP
-21 -16 8 -25 -22 15 -21 -15 8 25 -21 16 26 0 8 24 
9 -24 26 0 7206 348 11 MP
DP
-21 -16 8 -25 -22 15 -21 -15 8 25 -21 16 26 0 8 24 
9 -24 26 0 7674 382 11 MP
DP
-21 -16 8 -25 -22 15 -21 -15 8 25 -21 16 26 0 8 24 
9 -24 26 0 8143 1663 11 MP
DP
gs 4431 349 3748 1917 rc
DO
c19
469 413 468 -45 469 -1564 468 1732 468 -1772 469 1493 468 -839 468 87 
4431 1459 9 MP stroke
gr

c19
DO
gs 4339 336 3932 1957 rc
SO
-13 -18 13 -18 -21 0 -10 -18 -10 18 -21 0 13 18 -13 18 
21 0 10 18 10 -18 21 0 4400 1441 13 MP
DP
-13 -18 13 -18 -21 0 -10 -18 -10 18 -21 0 13 18 -13 18 
21 0 10 18 10 -18 21 0 4868 1528 13 MP
DP
-13 -18 13 -18 -21 0 -10 -18 -10 18 -21 0 13 18 -13 18 
21 0 10 18 10 -18 21 0 5336 689 13 MP
DP
-13 -18 13 -18 -21 0 -10 -18 -10 18 -21 0 13 18 -13 18 
21 0 10 18 10 -18 21 0 5805 2182 13 MP
DP
-13 -18 13 -18 -21 0 -10 -18 -10 18 -21 0 13 18 -13 18 
21 0 10 18 10 -18 21 0 6273 410 13 MP
DP
-13 -18 13 -18 -21 0 -10 -18 -10 18 -21 0 13 18 -13 18 
21 0 10 18 10 -18 21 0 6741 2142 13 MP
DP
-13 -18 13 -18 -21 0 -10 -18 -10 18 -21 0 13 18 -13 18 
21 0 10 18 10 -18 21 0 7210 578 13 MP
DP
-13 -18 13 -18 -21 0 -10 -18 -10 18 -21 0 13 18 -13 18 
21 0 10 18 10 -18 21 0 7678 533 13 MP
DP
-13 -18 13 -18 -21 0 -10 -18 -10 18 -21 0 13 18 -13 18 
21 0 10 18 10 -18 21 0 8147 946 13 MP
DP
DO
gs 4431 349 3748 1917 rc
SO
6 w
gr
gr
gr

6 w
c19
1 sg
0 1916 3755 0 0 -1916 325 4675 4 MP
PP
-3755 0 0 1916 3755 0 0 -1916 325 4675 5 MP stroke
4 w
DO
0 sg
 325 4675 mt  325 2759 L
 325 2759 mt  325 2759 L
 794 4675 mt  794 2759 L
 794 2759 mt  794 2759 L
1263 4675 mt 1263 2759 L
1263 2759 mt 1263 2759 L
1733 4675 mt 1733 2759 L
1733 2759 mt 1733 2759 L
2202 4675 mt 2202 2759 L
2202 2759 mt 2202 2759 L
2671 4675 mt 2671 2759 L
2671 2759 mt 2671 2759 L
3141 4675 mt 3141 2759 L
3141 2759 mt 3141 2759 L
3610 4675 mt 3610 2759 L
3610 2759 mt 3610 2759 L
4080 4675 mt 4080 2759 L
4080 2759 mt 4080 2759 L
 325 4675 mt 4080 4675 L
4080 4675 mt 4080 4675 L
 325 4291 mt 4080 4291 L
4080 4291 mt 4080 4291 L
 325 3908 mt 4080 3908 L
4080 3908 mt 4080 3908 L
 325 3525 mt 4080 3525 L
4080 3525 mt 4080 3525 L
 325 3142 mt 4080 3142 L
4080 3142 mt 4080 3142 L
 325 2759 mt 4080 2759 L
4080 2759 mt 4080 2759 L
SO
6 w
 325 2759 mt 4080 2759 L
 325 4675 mt 4080 4675 L
4080 4675 mt 4080 2759 L
 325 4675 mt  325 2759 L
 325 4675 mt 4080 4675 L
 325 4675 mt  325 2759 L
 325 4675 mt  325 4637 L
 325 2759 mt  325 2796 L
%%IncludeResource: font Helvetica
/Helvetica /WindowsLatin1Encoding 120 FMSR

 259 4820 mt 
(10) s
 794 4675 mt  794 4637 L
 794 2759 mt  794 2796 L
 728 4820 mt 
(20) s
1263 4675 mt 1263 4637 L
1263 2759 mt 1263 2796 L
1197 4820 mt 
(30) s
1733 4675 mt 1733 4637 L
1733 2759 mt 1733 2796 L
1667 4820 mt 
(40) s
2202 4675 mt 2202 4637 L
2202 2759 mt 2202 2796 L
2136 4820 mt 
(50) s
2671 4675 mt 2671 4637 L
2671 2759 mt 2671 2796 L
2605 4820 mt 
(60) s
3141 4675 mt 3141 4637 L
3141 2759 mt 3141 2796 L
3075 4820 mt 
(70) s
3610 4675 mt 3610 4637 L
3610 2759 mt 3610 2796 L
3544 4820 mt 
(80) s
4080 4675 mt 4080 4637 L
4080 2759 mt 4080 2796 L
4014 4820 mt 
(90) s
 325 4675 mt  362 4675 L
4080 4675 mt 4042 4675 L
  87 4719 mt 
(-10) s
 325 4291 mt  362 4291 L
4080 4291 mt 4042 4291 L
 154 4335 mt 
(-8) s
 325 3908 mt  362 3908 L
4080 3908 mt 4042 3908 L
 154 3952 mt 
(-6) s
 325 3525 mt  362 3525 L
4080 3525 mt 4042 3525 L
 154 3569 mt 
(-4) s
 325 3142 mt  362 3142 L
4080 3142 mt 4042 3142 L
 154 3186 mt 
(-2) s
 325 2759 mt  362 2759 L
4080 2759 mt 4042 2759 L
 224 2803 mt 
(0) s
 325 2759 mt 4080 2759 L
 325 4675 mt 4080 4675 L
4080 4675 mt 4080 2759 L
 325 4675 mt  325 2759 L
gs 325 2759 3756 1917 rc
18 w
c8
470 -38 469 -51 470 -70 469 -160 469 -153 470 -160 469 -224 469 -70 
325 3838 9 MP stroke
gr

18 w
c8
gs 233 2820 3940 1111 rc
  36   36  325 3838 FO
  36   36  794 3768 FO
  36   36 1263 3544 FO
  36   36 1733 3384 FO
  36   36 2202 3231 FO
  36   36 2671 3071 FO
  36   36 3141 3001 FO
  36   36 3610 2950 FO
  36   36 4080 2912 FO
gr

gs 325 2759 3756 1917 rc
gr

0 sg
%%IncludeResource: font Helvetica-Bold
/Helvetica-Bold /WindowsLatin1Encoding 120 FMSR

1620 2610 mt 
(Solution Quality \(D) s
%%IncludeResource: font Helvetica-Bold
/Helvetica-Bold /WindowsLatin1Encoding 96 FMSR

2700 2670 mt 
(s) s
%%IncludeResource: font Helvetica-Bold
/Helvetica-Bold /WindowsLatin1Encoding 120 FMSR

2753 2610 mt 
(\)) s
gs 325 2759 3756 1917 rc
DO
c9
470 -102 469 -428 470 -166 469 -96 469 -256 470 -332 469 -357 469 159 
325 4464 9 MP stroke
gr

c9
DO
gs 233 2794 3940 1922 rc
SO
0 j
41 71 -82 0 41 -71 325 4511 4 MP
DP
41 71 -82 0 41 -71 794 4670 4 MP
DP
41 71 -82 0 41 -71 1263 4313 4 MP
DP
41 71 -82 0 41 -71 1733 3981 4 MP
DP
41 71 -82 0 41 -71 2202 3725 4 MP
DP
41 71 -82 0 41 -71 2671 3629 4 MP
DP
41 71 -82 0 41 -71 3141 3463 4 MP
DP
41 71 -82 0 41 -71 3610 3035 4 MP
DP
41 71 -82 0 41 -71 4080 2933 4 MP
DP
DO
gr

gs 325 2759 3756 1917 rc
DD
c10
470 -57 469 12 470 -25 469 -77 469 -44 470 -26 469 -96 469 -25 
325 3135 9 MP stroke
gr

c10
DD
gs 233 2705 3940 523 rc
SO
 300 3110 mt  350 3160 L
 350 3110 mt  300 3160 L
 769 3085 mt  819 3135 L
 819 3085 mt  769 3135 L
1238 2989 mt 1288 3039 L
1288 2989 mt 1238 3039 L
1708 2963 mt 1758 3013 L
1758 2963 mt 1708 3013 L
2177 2919 mt 2227 2969 L
2227 2919 mt 2177 2969 L
2646 2842 mt 2696 2892 L
2696 2842 mt 2646 2892 L
3116 2817 mt 3166 2867 L
3166 2817 mt 3116 2867 L
3585 2829 mt 3635 2879 L
3635 2829 mt 3585 2879 L
4055 2772 mt 4105 2822 L
4105 2772 mt 4055 2822 L
DD
gr

gs 325 2759 3756 1917 rc
DA
c11
470 -44 469 -122 470 -25 469 -90 469 -70 470 -45 469 -140 469 -77 
325 3391 9 MP stroke
gr

c11
DA
gs 233 2686 3940 798 rc
SO
 289 3391 mt  361 3391 L
 325 3355 mt  325 3427 L
 758 3314 mt  830 3314 L
 794 3278 mt  794 3350 L
1227 3174 mt 1299 3174 L
1263 3138 mt 1263 3210 L
1697 3129 mt 1769 3129 L
1733 3093 mt 1733 3165 L
2166 3059 mt 2238 3059 L
2202 3023 mt 2202 3095 L
2635 2969 mt 2707 2969 L
2671 2933 mt 2671 3005 L
3105 2944 mt 3177 2944 L
3141 2908 mt 3141 2980 L
3574 2822 mt 3646 2822 L
3610 2786 mt 3610 2858 L
4044 2778 mt 4116 2778 L
4080 2742 mt 4080 2814 L
 300 3366 mt  350 3416 L
 350 3366 mt  300 3416 L
 769 3289 mt  819 3339 L
 819 3289 mt  769 3339 L
1238 3149 mt 1288 3199 L
1288 3149 mt 1238 3199 L
1708 3104 mt 1758 3154 L
1758 3104 mt 1708 3154 L
2177 3034 mt 2227 3084 L
2227 3034 mt 2177 3084 L
2646 2944 mt 2696 2994 L
2696 2944 mt 2646 2994 L
3116 2919 mt 3166 2969 L
3166 2919 mt 3116 2969 L
3585 2797 mt 3635 2847 L
3635 2797 mt 3585 2847 L
4055 2753 mt 4105 2803 L
4105 2753 mt 4055 2803 L
DA
gr

gs 325 2759 3756 1917 rc
SO
c12
470 -13 469 19 470 -19 469 -19 469 19 470 7 469 -19 469 25 
325 2765 9 MP stroke
gr

c12
SO
gs 233 2667 3940 223 rc
0 j
0 -58 -58 0 0 58 58 0 296 2736 5 MP
DP
0 -58 -58 0 0 58 58 0 765 2761 5 MP
DP
0 -58 -58 0 0 58 58 0 1234 2742 5 MP
DP
0 -58 -58 0 0 58 58 0 1704 2749 5 MP
DP
0 -58 -58 0 0 58 58 0 2173 2768 5 MP
DP
0 -58 -58 0 0 58 58 0 2642 2749 5 MP
DP
0 -58 -58 0 0 58 58 0 3112 2730 5 MP
DP
0 -58 -58 0 0 58 58 0 3581 2749 5 MP
DP
0 -58 -58 0 0 58 58 0 4051 2736 5 MP
DP
gr

gs 325 2759 3756 1917 rc
DO
c13
470 109 469 -300 470 -122 469 -51 469 -57 470 -166 469 -102 469 -198 
325 3812 9 MP stroke
gr

c13
DO
gs 233 2724 3940 1181 rc
SO
0 j
36 47 -36 47 -36 -47 36 -47 325 3859 5 MP
DP
36 47 -36 47 -36 -47 36 -47 794 3661 5 MP
DP
36 47 -36 47 -36 -47 36 -47 1263 3559 5 MP
DP
36 47 -36 47 -36 -47 36 -47 1733 3393 5 MP
DP
36 47 -36 47 -36 -47 36 -47 2202 3336 5 MP
DP
36 47 -36 47 -36 -47 36 -47 2671 3285 5 MP
DP
36 47 -36 47 -36 -47 36 -47 3141 3163 5 MP
DP
36 47 -36 47 -36 -47 36 -47 3610 2863 5 MP
DP
36 47 -36 47 -36 -47 36 -47 4080 2972 5 MP
DP
DO
gr

gs 325 2759 3756 1917 rc
DD
c14
470 -26 469 -319 470 -281 469 77 469 -313 470 -300 469 -154 469 147 
325 4349 9 MP stroke
gr

c14
DD
gs 233 3088 3940 1501 rc
SO
24 W
325 4349 PD
24 W
794 4496 PD
24 W
1263 4342 PD
24 W
1733 4042 PD
24 W
2202 3729 PD
24 W
2671 3806 PD
24 W
3141 3525 PD
24 W
3610 3206 PD
24 W
4080 3180 PD
DD
gr

gs 325 2759 3756 1917 rc
DA
c15
470 -141 469 -121 470 -70 469 -102 469 -71 470 -83 469 -191 469 -39 
325 3653 9 MP stroke
gr

c15
DA
gs 233 2743 3940 1003 rc
SO
0 j
-41 71 -41 -71 82 0 284 3677 4 MP
DP
-41 71 -41 -71 82 0 753 3638 4 MP
DP
-41 71 -41 -71 82 0 1222 3447 4 MP
DP
-41 71 -41 -71 82 0 1692 3364 4 MP
DP
-41 71 -41 -71 82 0 2161 3293 4 MP
DP
-41 71 -41 -71 82 0 2630 3191 4 MP
DP
-41 71 -41 -71 82 0 3100 3121 4 MP
DP
-41 71 -41 -71 82 0 3569 3000 4 MP
DP
-41 71 -41 -71 82 0 4039 2859 4 MP
DP
DA
gr

gs 325 2759 3756 1917 rc
SO
c16
470 -127 469 -192 470 -77 469 -408 469 -96 470 -102 469 -51 469 -160 
325 4189 9 MP stroke
gr

c16
SO
gs 233 2884 3940 1398 rc
0 j
-71 41 0 -82 71 41 278 4189 4 MP
DP
-71 41 0 -82 71 41 747 4029 4 MP
DP
-71 41 0 -82 71 41 1216 3978 4 MP
DP
-71 41 0 -82 71 41 1686 3876 4 MP
DP
-71 41 0 -82 71 41 2155 3780 4 MP
DP
-71 41 0 -82 71 41 2624 3372 4 MP
DP
-71 41 0 -82 71 41 3094 3295 4 MP
DP
-71 41 0 -82 71 41 3563 3103 4 MP
DP
-71 41 0 -82 71 41 4033 2976 4 MP
DP
gr

gs 325 2759 3756 1917 rc
DO
c17
470 -45 469 -185 470 38 469 -19 469 -172 470 -13 469 -7 469 -102 
325 3391 9 MP stroke
gr

c17
DO
gs 233 2794 3940 690 rc
SO
0 j
0 82 -71 -41 71 -41 301 3432 4 MP
DP
0 82 -71 -41 71 -41 770 3330 4 MP
DP
0 82 -71 -41 71 -41 1239 3323 4 MP
DP
0 82 -71 -41 71 -41 1709 3310 4 MP
DP
0 82 -71 -41 71 -41 2178 3138 4 MP
DP
0 82 -71 -41 71 -41 2647 3119 4 MP
DP
0 82 -71 -41 71 -41 3117 3157 4 MP
DP
0 82 -71 -41 71 -41 3586 2972 4 MP
DP
0 82 -71 -41 71 -41 4056 2927 4 MP
DP
DO
gr

gs 325 2759 3756 1917 rc
SO
c18
470 -109 469 -89 470 -83 469 -236 469 -122 470 -236 469 -25 469 -269 
325 4183 9 MP stroke
gr

c18
SO
gs 233 2922 3940 1354 rc
0 j
-21 -16 8 -25 -22 15 -21 -15 8 25 -21 16 26 0 8 24 
9 -24 26 0 290 4171 11 MP
DP
-21 -16 8 -25 -22 15 -21 -15 8 25 -21 16 26 0 8 24 
9 -24 26 0 759 3902 11 MP
DP
-21 -16 8 -25 -22 15 -21 -15 8 25 -21 16 26 0 8 24 
9 -24 26 0 1228 3877 11 MP
DP
-21 -16 8 -25 -22 15 -21 -15 8 25 -21 16 26 0 8 24 
9 -24 26 0 1698 3641 11 MP
DP
-21 -16 8 -25 -22 15 -21 -15 8 25 -21 16 26 0 8 24 
9 -24 26 0 2167 3519 11 MP
DP
-21 -16 8 -25 -22 15 -21 -15 8 25 -21 16 26 0 8 24 
9 -24 26 0 2636 3283 11 MP
DP
-21 -16 8 -25 -22 15 -21 -15 8 25 -21 16 26 0 8 24 
9 -24 26 0 3106 3200 11 MP
DP
-21 -16 8 -25 -22 15 -21 -15 8 25 -21 16 26 0 8 24 
9 -24 26 0 3575 3111 11 MP
DP
-21 -16 8 -25 -22 15 -21 -15 8 25 -21 16 26 0 8 24 
9 -24 26 0 4045 3002 11 MP
DP
gr

gs 325 2759 3756 1917 rc
DO
c19
470 -57 469 -351 470 57 469 -89 469 -307 470 -83 469 -6 469 -128 
325 3857 9 MP stroke
gr

c19
DO
gs 233 2801 3940 1149 rc
SO
0 j
-13 -18 13 -18 -21 0 -10 -18 -10 18 -21 0 13 18 -13 18 
21 0 10 18 10 -18 21 0 294 3839 13 MP
DP
-13 -18 13 -18 -21 0 -10 -18 -10 18 -21 0 13 18 -13 18 
21 0 10 18 10 -18 21 0 763 3711 13 MP
DP
-13 -18 13 -18 -21 0 -10 -18 -10 18 -21 0 13 18 -13 18 
21 0 10 18 10 -18 21 0 1232 3705 13 MP
DP
-13 -18 13 -18 -21 0 -10 -18 -10 18 -21 0 13 18 -13 18 
21 0 10 18 10 -18 21 0 1702 3622 13 MP
DP
-13 -18 13 -18 -21 0 -10 -18 -10 18 -21 0 13 18 -13 18 
21 0 10 18 10 -18 21 0 2171 3315 13 MP
DP
-13 -18 13 -18 -21 0 -10 -18 -10 18 -21 0 13 18 -13 18 
21 0 10 18 10 -18 21 0 2640 3226 13 MP
DP
-13 -18 13 -18 -21 0 -10 -18 -10 18 -21 0 13 18 -13 18 
21 0 10 18 10 -18 21 0 3110 3283 13 MP
DP
-13 -18 13 -18 -21 0 -10 -18 -10 18 -21 0 13 18 -13 18 
21 0 10 18 10 -18 21 0 3579 2932 13 MP
DP
-13 -18 13 -18 -21 0 -10 -18 -10 18 -21 0 13 18 -13 18 
21 0 10 18 10 -18 21 0 4049 2875 13 MP
DP
DO
gr

gs 325 2759 3756 1917 rc
SO
6 w
gr

6 w
SO
1 sg
0 1916 3729 0 0 -1916 4494 4693 4 MP
PP
-3729 0 0 1916 3729 0 0 -1916 4494 4693 5 MP stroke
4 w
DO
0 sg
4494 4693 mt 4494 2777 L
4494 2777 mt 4494 2777 L
4960 4693 mt 4960 2777 L
4960 2777 mt 4960 2777 L
5426 4693 mt 5426 2777 L
5426 2777 mt 5426 2777 L
5892 4693 mt 5892 2777 L
5892 2777 mt 5892 2777 L
6358 4693 mt 6358 2777 L
6358 2777 mt 6358 2777 L
6824 4693 mt 6824 2777 L
6824 2777 mt 6824 2777 L
7290 4693 mt 7290 2777 L
7290 2777 mt 7290 2777 L
7756 4693 mt 7756 2777 L
7756 2777 mt 7756 2777 L
8223 4693 mt 8223 2777 L
8223 2777 mt 8223 2777 L
4494 4693 mt 8223 4693 L
8223 4693 mt 8223 4693 L
4494 4309 mt 8223 4309 L
8223 4309 mt 8223 4309 L
4494 3926 mt 8223 3926 L
8223 3926 mt 8223 3926 L
4494 3543 mt 8223 3543 L
8223 3543 mt 8223 3543 L
4494 3160 mt 8223 3160 L
8223 3160 mt 8223 3160 L
4494 2777 mt 8223 2777 L
8223 2777 mt 8223 2777 L
SO
6 w
4494 2777 mt 8223 2777 L
4494 4693 mt 8223 4693 L
8223 4693 mt 8223 2777 L
4494 4693 mt 4494 2777 L
4494 4693 mt 8223 4693 L
4494 4693 mt 4494 2777 L
4494 4693 mt 4494 4655 L
4494 2777 mt 4494 2814 L
%%IncludeResource: font Helvetica
/Helvetica /WindowsLatin1Encoding 120 FMSR

4428 4838 mt 
(10) s
4960 4693 mt 4960 4655 L
4960 2777 mt 4960 2814 L
4894 4838 mt 
(20) s
5426 4693 mt 5426 4655 L
5426 2777 mt 5426 2814 L
5360 4838 mt 
(30) s
5892 4693 mt 5892 4655 L
5892 2777 mt 5892 2814 L
5826 4838 mt 
(40) s
6358 4693 mt 6358 4655 L
6358 2777 mt 6358 2814 L
6292 4838 mt 
(50) s
6824 4693 mt 6824 4655 L
6824 2777 mt 6824 2814 L
6758 4838 mt 
(60) s
7290 4693 mt 7290 4655 L
7290 2777 mt 7290 2814 L
7224 4838 mt 
(70) s
7756 4693 mt 7756 4655 L
7756 2777 mt 7756 2814 L
7690 4838 mt 
(80) s
8223 4693 mt 8223 4655 L
8223 2777 mt 8223 2814 L
8157 4838 mt 
(90) s
4494 4693 mt 4531 4693 L
8223 4693 mt 8185 4693 L
4393 4737 mt 
(0) s
4494 4309 mt 4531 4309 L
8223 4309 mt 8185 4309 L
4293 4353 mt 
(0.2) s
4494 3926 mt 4531 3926 L
8223 3926 mt 8185 3926 L
4293 3970 mt 
(0.4) s
4494 3543 mt 4531 3543 L
8223 3543 mt 8185 3543 L
4293 3587 mt 
(0.6) s
4494 3160 mt 4531 3160 L
8223 3160 mt 8185 3160 L
4293 3204 mt 
(0.8) s
4494 2777 mt 4531 2777 L
8223 2777 mt 8185 2777 L
4393 2821 mt 
(1) s
4494 2777 mt 8223 2777 L
4494 4693 mt 8223 4693 L
8223 4693 mt 8223 2777 L
4494 4693 mt 4494 2777 L
gs 4494 2777 3730 1917 rc
18 w
c8
467 -10 466 0 466 0 466 0 466 0 466 0 466 0 466 0 
4494 4692 9 MP stroke
gr

18 w
c8
gs 4402 4590 3914 195 rc
  36   36 4494 4692 FO
  36   36 4960 4692 FO
  36   36 5426 4692 FO
  36   36 5892 4692 FO
  36   36 6358 4692 FO
  36   36 6824 4692 FO
  36   36 7290 4692 FO
  36   36 7756 4692 FO
  36   36 8223 4682 FO
gr

gs 4494 2777 3730 1917 rc
gr

0 sg
%%IncludeResource: font Helvetica-Bold
/Helvetica-Bold /WindowsLatin1Encoding 120 FMSR

5686 2682 mt 
(Wilcoxon rank sum test) s
gs 4494 2777 3730 1917 rc
DO
c9
467 -330 466 -37 466 0 466 0 466 0 466 0 466 0 466 0 
4494 4692 9 MP stroke
gr

c9
DO
gs 4402 4233 3914 552 rc
SO
0 j
41 71 -82 0 41 -71 4494 4739 4 MP
DP
41 71 -82 0 41 -71 4960 4739 4 MP
DP
41 71 -82 0 41 -71 5426 4739 4 MP
DP
41 71 -82 0 41 -71 5892 4739 4 MP
DP
41 71 -82 0 41 -71 6358 4739 4 MP
DP
41 71 -82 0 41 -71 6824 4739 4 MP
DP
41 71 -82 0 41 -71 7290 4739 4 MP
DP
41 71 -82 0 41 -71 7756 4702 4 MP
DP
41 71 -82 0 41 -71 8223 4372 4 MP
DP
DO
gr

gs 4494 2777 3730 1917 rc
DD
c10
467 -92 466 2 466 -2 466 0 466 0 466 0 466 0 466 0 
4494 4692 9 MP stroke
gr

c10
DD
gs 4402 4508 3914 277 rc
SO
4469 4667 mt 4519 4717 L
4519 4667 mt 4469 4717 L
4935 4667 mt 4985 4717 L
4985 4667 mt 4935 4717 L
5401 4667 mt 5451 4717 L
5451 4667 mt 5401 4717 L
5867 4667 mt 5917 4717 L
5917 4667 mt 5867 4717 L
6333 4667 mt 6383 4717 L
6383 4667 mt 6333 4717 L
6799 4667 mt 6849 4717 L
6849 4667 mt 6799 4717 L
7265 4665 mt 7315 4715 L
7315 4665 mt 7265 4715 L
7731 4667 mt 7781 4717 L
7781 4667 mt 7731 4717 L
8198 4575 mt 8248 4625 L
8248 4575 mt 8198 4625 L
DD
gr

gs 4494 2777 3730 1917 rc
DA
c11
467 -1087 466 -101 466 0 466 0 466 0 466 0 466 0 466 0 
4494 4692 9 MP stroke
gr

c11
DA
gs 4402 3412 3914 1373 rc
SO
4458 4692 mt 4530 4692 L
4494 4656 mt 4494 4728 L
4924 4692 mt 4996 4692 L
4960 4656 mt 4960 4728 L
5390 4692 mt 5462 4692 L
5426 4656 mt 5426 4728 L
5856 4692 mt 5928 4692 L
5892 4656 mt 5892 4728 L
6322 4692 mt 6394 4692 L
6358 4656 mt 6358 4728 L
6788 4692 mt 6860 4692 L
6824 4656 mt 6824 4728 L
7254 4692 mt 7326 4692 L
7290 4656 mt 7290 4728 L
7720 4591 mt 7792 4591 L
7756 4555 mt 7756 4627 L
8187 3504 mt 8259 3504 L
8223 3468 mt 8223 3540 L
4469 4667 mt 4519 4717 L
4519 4667 mt 4469 4717 L
4935 4667 mt 4985 4717 L
4985 4667 mt 4935 4717 L
5401 4667 mt 5451 4717 L
5451 4667 mt 5401 4717 L
5867 4667 mt 5917 4717 L
5917 4667 mt 5867 4717 L
6333 4667 mt 6383 4717 L
6383 4667 mt 6333 4717 L
6799 4667 mt 6849 4717 L
6849 4667 mt 6799 4717 L
7265 4667 mt 7315 4717 L
7315 4667 mt 7265 4717 L
7731 4566 mt 7781 4616 L
7781 4566 mt 7731 4616 L
8198 3479 mt 8248 3529 L
8248 3479 mt 8198 3529 L
DA
gr

gs 4494 2777 3730 1917 rc
SO
c12
467 -853 466 1408 466 -1562 466 -233 466 233 466 463 466 -775 466 1357 
4494 3294 9 MP stroke
gr

c12
SO
gs 4402 2685 3914 2059 rc
0 j
0 -58 -58 0 0 58 58 0 4465 3265 5 MP
DP
0 -58 -58 0 0 58 58 0 4931 4622 5 MP
DP
0 -58 -58 0 0 58 58 0 5397 3847 5 MP
DP
0 -58 -58 0 0 58 58 0 5863 4310 5 MP
DP
0 -58 -58 0 0 58 58 0 6329 4543 5 MP
DP
0 -58 -58 0 0 58 58 0 6795 4310 5 MP
DP
0 -58 -58 0 0 58 58 0 7261 2748 5 MP
DP
0 -58 -58 0 0 58 58 0 7727 4156 5 MP
DP
0 -58 -58 0 0 58 58 0 8194 3303 5 MP
DP
gs 4494 2777 3730 1917 rc
DO
c13
467 412 466 -413 466 0 466 0 466 0 466 0 466 0 466 0 
4494 4692 9 MP stroke
gr

c13
DO
SO
36 47 -36 47 -36 -47 36 -47 4494 4739 5 MP
DP
36 47 -36 47 -36 -47 36 -47 4960 4739 5 MP
DP
36 47 -36 47 -36 -47 36 -47 5426 4739 5 MP
DP
36 47 -36 47 -36 -47 36 -47 5892 4739 5 MP
DP
36 47 -36 47 -36 -47 36 -47 6358 4739 5 MP
DP
36 47 -36 47 -36 -47 36 -47 6824 4739 5 MP
DP
36 47 -36 47 -36 -47 36 -47 7290 4739 5 MP
DP
36 47 -36 47 -36 -47 36 -47 7756 4326 5 MP
DP
36 47 -36 47 -36 -47 36 -47 8223 4738 5 MP
DP
DO
gr

c13
DO
gs 4494 2777 3730 1917 rc
DD
c14
467 0 466 0 466 0 466 0 466 0 466 0 466 0 466 0 
4494 4692 9 MP stroke
gr

c14
DD
gs 4402 4600 3914 185 rc
SO
24 W
4494 4692 PD
24 W
4960 4692 PD
24 W
5426 4692 PD
24 W
5892 4692 PD
24 W
6358 4692 PD
24 W
6824 4692 PD
24 W
7290 4692 PD
24 W
7756 4692 PD
24 W
8223 4692 PD
DD
gr

gs 4494 2777 3730 1917 rc
DA
c15
467 -346 466 0 466 0 466 0 466 0 466 0 466 0 466 0 
4494 4692 9 MP stroke
gr

c15
DA
gs 4402 4254 3914 531 rc
SO
0 j
-41 71 -41 -71 82 0 4453 4716 4 MP
DP
-41 71 -41 -71 82 0 4919 4716 4 MP
DP
-41 71 -41 -71 82 0 5385 4716 4 MP
DP
-41 71 -41 -71 82 0 5851 4716 4 MP
DP
-41 71 -41 -71 82 0 6317 4716 4 MP
DP
-41 71 -41 -71 82 0 6783 4716 4 MP
DP
-41 71 -41 -71 82 0 7249 4716 4 MP
DP
-41 71 -41 -71 82 0 7715 4716 4 MP
DP
-41 71 -41 -71 82 0 8182 4370 4 MP
DP
DA
gr

gs 4494 2777 3730 1917 rc
SO
c16
467 -29 466 0 466 0 466 0 466 0 466 0 466 0 466 0 
4494 4692 9 MP stroke
gr

c16
SO
gs 4402 4571 3914 214 rc
0 j
-71 41 0 -82 71 41 4447 4692 4 MP
DP
-71 41 0 -82 71 41 4913 4692 4 MP
DP
-71 41 0 -82 71 41 5379 4692 4 MP
DP
-71 41 0 -82 71 41 5845 4692 4 MP
DP
-71 41 0 -82 71 41 6311 4692 4 MP
DP
-71 41 0 -82 71 41 6777 4692 4 MP
DP
-71 41 0 -82 71 41 7243 4692 4 MP
DP
-71 41 0 -82 71 41 7709 4692 4 MP
DP
-71 41 0 -82 71 41 8176 4663 4 MP
DP
gr

gs 4494 2777 3730 1917 rc
DO
c17
467 -25 466 -2 466 0 466 0 466 0 466 0 466 0 466 0 
4494 4692 9 MP stroke
gr

c17
DO
gs 4402 4573 3914 212 rc
SO
0 j
0 82 -71 -41 71 -41 4470 4733 4 MP
DP
0 82 -71 -41 71 -41 4936 4733 4 MP
DP
0 82 -71 -41 71 -41 5402 4733 4 MP
DP
0 82 -71 -41 71 -41 5868 4733 4 MP
DP
0 82 -71 -41 71 -41 6334 4733 4 MP
DP
0 82 -71 -41 71 -41 6800 4733 4 MP
DP
0 82 -71 -41 71 -41 7266 4733 4 MP
DP
0 82 -71 -41 71 -41 7732 4731 4 MP
DP
0 82 -71 -41 71 -41 8199 4706 4 MP
DP
DO
gr

gs 4494 2777 3730 1917 rc
SO
c18
467 -5 466 0 466 0 466 0 466 0 466 0 466 0 466 0 
4494 4692 9 MP stroke
gr

c18
SO
gs 4402 4595 3914 190 rc
0 j
-21 -16 8 -25 -22 15 -21 -15 8 25 -21 16 26 0 8 24 
9 -24 26 0 4459 4680 11 MP
DP
-21 -16 8 -25 -22 15 -21 -15 8 25 -21 16 26 0 8 24 
9 -24 26 0 4925 4680 11 MP
DP
-21 -16 8 -25 -22 15 -21 -15 8 25 -21 16 26 0 8 24 
9 -24 26 0 5391 4680 11 MP
DP
-21 -16 8 -25 -22 15 -21 -15 8 25 -21 16 26 0 8 24 
9 -24 26 0 5857 4680 11 MP
DP
-21 -16 8 -25 -22 15 -21 -15 8 25 -21 16 26 0 8 24 
9 -24 26 0 6323 4680 11 MP
DP
-21 -16 8 -25 -22 15 -21 -15 8 25 -21 16 26 0 8 24 
9 -24 26 0 6789 4680 11 MP
DP
-21 -16 8 -25 -22 15 -21 -15 8 25 -21 16 26 0 8 24 
9 -24 26 0 7255 4680 11 MP
DP
-21 -16 8 -25 -22 15 -21 -15 8 25 -21 16 26 0 8 24 
9 -24 26 0 7721 4680 11 MP
DP
-21 -16 8 -25 -22 15 -21 -15 8 25 -21 16 26 0 8 24 
9 -24 26 0 8188 4675 11 MP
DP
gr

gs 4494 2777 3730 1917 rc
DO
c19
467 25 466 -145 466 0 466 0 466 0 466 0 466 0 466 0 
4494 4692 9 MP stroke
gr

c19
DO
gs 4402 4455 3914 330 rc
SO
0 j
-13 -18 13 -18 -21 0 -10 -18 -10 18 -21 0 13 18 -13 18 
21 0 10 18 10 -18 21 0 4463 4674 13 MP
DP
-13 -18 13 -18 -21 0 -10 -18 -10 18 -21 0 13 18 -13 18 
21 0 10 18 10 -18 21 0 4929 4674 13 MP
DP
-13 -18 13 -18 -21 0 -10 -18 -10 18 -21 0 13 18 -13 18 
21 0 10 18 10 -18 21 0 5395 4674 13 MP
DP
-13 -18 13 -18 -21 0 -10 -18 -10 18 -21 0 13 18 -13 18 
21 0 10 18 10 -18 21 0 5861 4674 13 MP
DP
-13 -18 13 -18 -21 0 -10 -18 -10 18 -21 0 13 18 -13 18 
21 0 10 18 10 -18 21 0 6327 4674 13 MP
DP
-13 -18 13 -18 -21 0 -10 -18 -10 18 -21 0 13 18 -13 18 
21 0 10 18 10 -18 21 0 6793 4674 13 MP
DP
-13 -18 13 -18 -21 0 -10 -18 -10 18 -21 0 13 18 -13 18 
21 0 10 18 10 -18 21 0 7259 4674 13 MP
DP
-13 -18 13 -18 -21 0 -10 -18 -10 18 -21 0 13 18 -13 18 
21 0 10 18 10 -18 21 0 7725 4529 13 MP
DP
-13 -18 13 -18 -21 0 -10 -18 -10 18 -21 0 13 18 -13 18 
21 0 10 18 10 -18 21 0 8192 4554 13 MP
DP
DO
gr

gs 4494 2777 3730 1917 rc
gr

0 sg
%%IncludeResource: font Helvetica
/Helvetica /WindowsLatin1Encoding 120 FMSR

4477 4736 mt 
( ) s
8207 2819 mt 
( ) s
SO
6 w
1 sg
0 2058 936 0 0 -2058 8503 3687 4 MP
PP
-936 0 0 2058 936 0 0 -2058 8503 3687 5 MP stroke
4 w
DO
SO
6 w
0 sg
8503 1629 mt 9439 1629 L
8503 3687 mt 9439 3687 L
9439 3687 mt 9439 1629 L
8503 3687 mt 8503 1629 L
8503 3687 mt 9439 3687 L
8503 3687 mt 8503 1629 L
8503 1629 mt 9439 1629 L
8503 3687 mt 9439 3687 L
9439 3687 mt 9439 1629 L
8503 3687 mt 8503 1629 L
8972 1776 mt 
(scpnrh4) s
gs 8503 1629 937 2059 rc
18 w
c8
360 0 8575 1734 2 MP stroke
gs 8663 1642 185 185 rc
  36   36 8755 1734 FO
gr

gr

18 w
c8
0 sg
8972 1944 mt 
(scpnrg3) s
gs 8503 1629 937 2059 rc
DO
c9
360 0 8575 1901 2 MP stroke
SO
gs 8663 1809 185 185 rc
0 j
41 71 -82 0 41 -71 8755 1948 4 MP
DP
gr

gr

c9
0 sg
8972 2112 mt 
(scpnrf2) s
gs 8503 1629 937 2059 rc
DD
c10
360 0 8575 2070 2 MP stroke
SO
gs 8663 1978 185 185 rc
8730 2045 mt 8780 2095 L
8780 2045 mt 8730 2095 L
gr

gr

c10
0 sg
8972 2280 mt 
(scpnre1) s
gs 8503 1629 937 2059 rc
DA
c11
360 0 8575 2238 2 MP stroke
SO
gs 8663 2146 185 185 rc
8719 2238 mt 8791 2238 L
8755 2202 mt 8755 2274 L
8730 2213 mt 8780 2263 L
8780 2213 mt 8730 2263 L
gr

gr

c11
0 sg
8972 2448 mt 
(scpe1) s
gs 8503 1629 937 2059 rc
c12
360 0 8575 2406 2 MP stroke
gs 8663 2314 185 185 rc
0 j
0 -58 -58 0 0 58 58 0 8726 2377 5 MP
DP
gr

gr

c12
0 sg
8972 2616 mt 
(scpd2) s
gs 8503 1629 937 2059 rc
DO
c13
360 0 8575 2574 2 MP stroke
SO
gs 8663 2482 185 185 rc
0 j
36 47 -36 47 -36 -47 36 -47 8755 2621 5 MP
DP
gr

gr

c13
0 sg
8972 2785 mt 
(scpc3) s
gs 8503 1629 937 2059 rc
DD
c14
360 0 8575 2741 2 MP stroke
SO
gs 8663 2649 185 185 rc
24 W
8755 2741 PD
gr

gr

c14
0 sg
8972 2953 mt 
(scpb4) s
gs 8503 1629 937 2059 rc
DA
c15
360 0 8575 2909 2 MP stroke
SO
gs 8663 2817 185 185 rc
0 j
-41 71 -41 -71 82 0 8714 2933 4 MP
DP
gr

gr

c15
0 sg
8972 3121 mt 
(scpa5) s
gs 8503 1629 937 2059 rc
c16
360 0 8575 3077 2 MP stroke
gs 8663 2985 185 185 rc
0 j
-71 41 0 -82 71 41 8708 3077 4 MP
DP
gr

gr

c16
0 sg
8972 3289 mt 
(scp63) s
gs 8503 1629 937 2059 rc
DO
c17
360 0 8575 3245 2 MP stroke
SO
gs 8663 3153 185 185 rc
0 j
0 82 -71 -41 71 -41 8731 3286 4 MP
DP
gr

gr

c17
0 sg
8972 3457 mt 
(scp52) s
gs 8503 1629 937 2059 rc
c18
360 0 8575 3413 2 MP stroke
gs 8663 3321 185 185 rc
0 j
-21 -16 8 -25 -22 15 -21 -15 8 25 -21 16 26 0 8 24 
9 -24 26 0 8720 3401 11 MP
DP
gr

gr

c18
0 sg
8972 3625 mt 
(scp41) s
gs 8503 1629 937 2059 rc
DO
c19
360 0 8575 3581 2 MP stroke
SO
gs 8663 3489 185 185 rc
0 j
-13 -18 13 -18 -21 0 -10 -18 -10 18 -21 0 13 18 -13 18 
21 0 10 18 10 -18 21 0 8724 3563 13 MP
DP
gr

6 w
gr

6 w
c19
0 sg
%%IncludeResource: font Helvetica-Bold
/Helvetica-Bold /WindowsLatin1Encoding 120 FMSR

1636 5106 mt 
(Columns Removed) s
5799 5126 mt 
(Columns Removed) s

end %%Color Dict

eplot
%%EndObject

epage
end

showpage

%%Trailer
%%EOF
