%!PS-Adobe-3.0 EPSF-3.0
%%Creator: MATLAB, The MathWorks, Inc. Version 8.2.0.701 (R2013b). Operating System: Microsoft Windows 8.
%%Title: D:\MICdatafiles\12plots\swapmic.eps
%%CreationDate: 09/05/2015  19:49:45
%%DocumentNeededFonts: Helvetica
%%+ Helvetica-Bold
%%DocumentProcessColors: Cyan Magenta Yellow Black
%%LanguageLevel: 2
%%Pages: 1
%%BoundingBox:  -138   192   733   649
%%EndComments

%%BeginProlog
% MathWorks dictionary
/MathWorks 160 dict begin
% definition operators
/bdef {bind def} bind def
/ldef {load def} bind def
/xdef {exch def} bdef
/xstore {exch store} bdef
% operator abbreviations
/c  /clip ldef
/cc /concat ldef
/cp /closepath ldef
/gr /grestore ldef
/gs /gsave ldef
/mt /moveto ldef
/np /newpath ldef
/cm /currentmatrix ldef
/sm /setmatrix ldef
/rm /rmoveto ldef
/rl /rlineto ldef
/s {show newpath} bdef
/sc {setcmykcolor} bdef
/sr /setrgbcolor ldef
/sg /setgray ldef
/w /setlinewidth ldef
/j /setlinejoin ldef
/cap /setlinecap ldef
/rc {rectclip} bdef
/rf {rectfill} bdef
% page state control
/pgsv () def
/bpage {/pgsv save def} bdef
/epage {pgsv restore} bdef
/bplot /gsave ldef
/eplot {stroke grestore} bdef
% orientation switch
/portraitMode 0 def /landscapeMode 1 def /rotateMode 2 def
% coordinate system mappings
/dpi2point 0 def
% font control
/FontSize 0 def
/FMS {/FontSize xstore findfont [FontSize 0 0 FontSize neg 0 0]
  makefont setfont} bdef
/ISOLatin1Encoding where {pop /WindowsLatin1Encoding 256 array bdef
ISOLatin1Encoding WindowsLatin1Encoding copy pop
/.notdef/.notdef/quotesinglbase/florin/quotedblbase/ellipsis/dagger
/daggerdbl/circumflex/perthousand/Scaron/guilsinglleft/OE/.notdef/.notdef
/.notdef/.notdef/quoteleft/quoteright/quotedblleft/quotedblright/bullet
/endash/emdash/tilde/trademark/scaron/guilsinglright/oe/.notdef/.notdef
/Ydieresis WindowsLatin1Encoding 128 32 getinterval astore pop}
{/WindowsLatin1Encoding StandardEncoding bdef} ifelse
/reencode {exch dup where {pop load} {pop StandardEncoding} ifelse
  exch dup 3 1 roll findfont dup length dict begin
  { 1 index /FID ne {def}{pop pop} ifelse } forall
  /Encoding exch def currentdict end definefont pop} bdef
/isroman {findfont /CharStrings get /Agrave known} bdef
/FMSR {3 1 roll 1 index dup isroman {reencode} {pop pop} ifelse
  exch FMS} bdef
/csm {1 dpi2point div -1 dpi2point div scale neg translate
 dup landscapeMode eq {pop -90 rotate}
  {rotateMode eq {90 rotate} if} ifelse} bdef
% line types: solid, dotted, dashed, dotdash
/SO { [] 0 setdash } bdef
/DO { [.5 dpi2point mul 4 dpi2point mul] 0 setdash } bdef
/DA { [6 dpi2point mul] 0 setdash } bdef
/DD { [.5 dpi2point mul 4 dpi2point mul 6 dpi2point mul 4
  dpi2point mul] 0 setdash } bdef
% macros for lines and objects
/L {lineto stroke} bdef
/MP {3 1 roll moveto 1 sub {rlineto} repeat} bdef
/AP {{rlineto} repeat} bdef
/PDlw -1 def
/W {/PDlw currentlinewidth def setlinewidth} def
/PP {closepath eofill} bdef
/DP {closepath stroke} bdef
/MR {4 -2 roll moveto dup  0 exch rlineto exch 0 rlineto
  neg 0 exch rlineto closepath} bdef
/FR {MR stroke} bdef
/PR {MR fill} bdef
/L1i {{currentfile picstr readhexstring pop} image} bdef
/tMatrix matrix def
/MakeOval {newpath tMatrix currentmatrix pop translate scale
0 0 1 0 360 arc tMatrix setmatrix} bdef
/FO {MakeOval stroke} bdef
/PO {MakeOval fill} bdef
/PD {currentlinewidth 2 div 0 360 arc fill
   PDlw -1 eq not {PDlw w /PDlw -1 def} if} def
/FA {newpath tMatrix currentmatrix pop translate scale
  0 0 1 5 -2 roll arc tMatrix setmatrix stroke} bdef
/PA {newpath tMatrix currentmatrix pop	translate 0 0 moveto scale
  0 0 1 5 -2 roll arc closepath tMatrix setmatrix fill} bdef
/FAn {newpath tMatrix currentmatrix pop translate scale
  0 0 1 5 -2 roll arcn tMatrix setmatrix stroke} bdef
/PAn {newpath tMatrix currentmatrix pop translate 0 0 moveto scale
  0 0 1 5 -2 roll arcn closepath tMatrix setmatrix fill} bdef
/vradius 0 def /hradius 0 def /lry 0 def
/lrx 0 def /uly 0 def /ulx 0 def /rad 0 def
/MRR {/vradius xdef /hradius xdef /lry xdef /lrx xdef /uly xdef
  /ulx xdef newpath tMatrix currentmatrix pop ulx hradius add uly
  vradius add translate hradius vradius scale 0 0 1 180 270 arc 
  tMatrix setmatrix lrx hradius sub uly vradius add translate
  hradius vradius scale 0 0 1 270 360 arc tMatrix setmatrix
  lrx hradius sub lry vradius sub translate hradius vradius scale
  0 0 1 0 90 arc tMatrix setmatrix ulx hradius add lry vradius sub
  translate hradius vradius scale 0 0 1 90 180 arc tMatrix setmatrix
  closepath} bdef
/FRR {MRR stroke } bdef
/PRR {MRR fill } bdef
/MlrRR {/lry xdef /lrx xdef /uly xdef /ulx xdef /rad lry uly sub 2 div def
  newpath tMatrix currentmatrix pop ulx rad add uly rad add translate
  rad rad scale 0 0 1 90 270 arc tMatrix setmatrix lrx rad sub lry rad
  sub translate rad rad scale 0 0 1 270 90 arc tMatrix setmatrix
  closepath} bdef
/FlrRR {MlrRR stroke } bdef
/PlrRR {MlrRR fill } bdef
/MtbRR {/lry xdef /lrx xdef /uly xdef /ulx xdef /rad lrx ulx sub 2 div def
  newpath tMatrix currentmatrix pop ulx rad add uly rad add translate
  rad rad scale 0 0 1 180 360 arc tMatrix setmatrix lrx rad sub lry rad
  sub translate rad rad scale 0 0 1 0 180 arc tMatrix setmatrix
  closepath} bdef
/FtbRR {MtbRR stroke } bdef
/PtbRR {MtbRR fill } bdef
/stri 6 array def /dtri 6 array def
/smat 6 array def /dmat 6 array def
/tmat1 6 array def /tmat2 6 array def /dif 3 array def
/asub {/ind2 exch def /ind1 exch def dup dup
  ind1 get exch ind2 get sub exch } bdef
/tri_to_matrix {
  2 0 asub 3 1 asub 4 0 asub 5 1 asub
  dup 0 get exch 1 get 7 -1 roll astore } bdef
/compute_transform {
  dmat dtri tri_to_matrix tmat1 invertmatrix 
  smat stri tri_to_matrix tmat2 concatmatrix } bdef
/ds {stri astore pop} bdef
/dt {dtri astore pop} bdef
/db {2 copy /cols xdef /rows xdef mul dup 3 mul string
  currentfile 
  3 index 0 eq {/ASCIIHexDecode filter}
  {/ASCII85Decode filter 3 index 2 eq {/RunLengthDecode filter} if }
  ifelse exch readstring pop
  dup 0 3 index getinterval /rbmap xdef
  dup 2 index dup getinterval /gbmap xdef
  1 index dup 2 mul exch getinterval /bbmap xdef pop pop}bdef
/it {gs np dtri aload pop moveto lineto lineto cp c
  cols rows 8 compute_transform 
  rbmap gbmap bbmap true 3 colorimage gr}bdef
/il {newpath moveto lineto stroke}bdef
currentdict end def
%%EndProlog

%%BeginSetup
MathWorks begin

0 cap

end
%%EndSetup

%%Page: 1 1
%%BeginPageSetup
%%PageBoundingBox:  -138   192   733   649
MathWorks begin
bpage
%%EndPageSetup

%%BeginObject: obj1
bplot

/dpi2point 12 def
portraitMode -1656 7788 csm

    0     0 10457  5474 rc
95 dict begin %Colortable dictionary
/c0 { 0.000000 0.000000 0.000000 sr} bdef
/c1 { 1.000000 1.000000 1.000000 sr} bdef
/c2 { 0.900000 0.000000 0.000000 sr} bdef
/c3 { 0.000000 0.820000 0.000000 sr} bdef
/c4 { 0.000000 0.000000 0.800000 sr} bdef
/c5 { 0.910000 0.820000 0.320000 sr} bdef
/c6 { 1.000000 0.260000 0.820000 sr} bdef
/c7 { 0.000000 0.820000 0.820000 sr} bdef
c0
1 j
1 sg
   0    0 10458 5475 rf
6 w
0 1916 3683 0 0 -1916 253 2238 4 MP
PP
-3683 0 0 1916 3683 0 0 -1916 253 2238 5 MP stroke
4 w
DO
0 sg
 253 2238 mt  253  322 L
 253  322 mt  253  322 L
 779 2238 mt  779  322 L
 779  322 mt  779  322 L
1305 2238 mt 1305  322 L
1305  322 mt 1305  322 L
1831 2238 mt 1831  322 L
1831  322 mt 1831  322 L
2357 2238 mt 2357  322 L
2357  322 mt 2357  322 L
2883 2238 mt 2883  322 L
2883  322 mt 2883  322 L
3409 2238 mt 3409  322 L
3409  322 mt 3409  322 L
3936 2238 mt 3936  322 L
3936  322 mt 3936  322 L
 253 2238 mt 3936 2238 L
3936 2238 mt 3936 2238 L
 253 1759 mt 3936 1759 L
3936 1759 mt 3936 1759 L
 253 1280 mt 3936 1280 L
3936 1280 mt 3936 1280 L
 253  801 mt 3936  801 L
3936  801 mt 3936  801 L
 253  322 mt 3936  322 L
3936  322 mt 3936  322 L
SO
6 w
 253  322 mt 3936  322 L
 253 2238 mt 3936 2238 L
3936 2238 mt 3936  322 L
 253 2238 mt  253  322 L
 253 2238 mt 3936 2238 L
 253 2238 mt  253  322 L
 253 2238 mt  253 2201 L
 253  322 mt  253  358 L
%%IncludeResource: font Helvetica
/Helvetica /WindowsLatin1Encoding 120 FMSR

 187 2383 mt 
(10) s
 779 2238 mt  779 2201 L
 779  322 mt  779  358 L
 713 2383 mt 
(20) s
1305 2238 mt 1305 2201 L
1305  322 mt 1305  358 L
1239 2383 mt 
(30) s
1831 2238 mt 1831 2201 L
1831  322 mt 1831  358 L
1765 2383 mt 
(40) s
2357 2238 mt 2357 2201 L
2357  322 mt 2357  358 L
2291 2383 mt 
(50) s
2883 2238 mt 2883 2201 L
2883  322 mt 2883  358 L
2817 2383 mt 
(60) s
3409 2238 mt 3409 2201 L
3409  322 mt 3409  358 L
3343 2383 mt 
(70) s
3936 2238 mt 3936 2201 L
3936  322 mt 3936  358 L
3870 2383 mt 
(80) s
 253 2238 mt  289 2238 L
3936 2238 mt 3899 2238 L
  15 2282 mt 
(-50) s
 253 1759 mt  289 1759 L
3936 1759 mt 3899 1759 L
 152 1803 mt 
(0) s
 253 1280 mt  289 1280 L
3936 1280 mt 3899 1280 L
  85 1324 mt 
(50) s
 253  801 mt  289  801 L
3936  801 mt 3899  801 L
  18  845 mt 
(100) s
 253  322 mt  289  322 L
3936  322 mt 3899  322 L
  18  366 mt 
(150) s
 253  322 mt 3936  322 L
 253 2238 mt 3936 2238 L
3936 2238 mt 3936  322 L
 253 2238 mt  253  322 L
gs 253 322 3684 1917 rc
18 w
/c8 { 0.000000 0.000000 1.000000 sr} bdef
c8
527 -19 526 30 526 106 526 -63 526 95 526 130 526 59 253 1291 8 MP stroke
gr

18 w
c8
gs 161 1199 3868 542 rc
  36   36  253 1291 FO
  36   36  779 1350 FO
  36   36 1305 1480 FO
  36   36 1831 1575 FO
  36   36 2357 1512 FO
  36   36 2883 1618 FO
  36   36 3409 1648 FO
  36   36 3936 1629 FO
gr

gs 253 322 3684 1917 rc
gr

0 sg
%%IncludeResource: font Helvetica-Bold
/Helvetica-Bold /WindowsLatin1Encoding 120 FMSR

1157  173 mt 
(Time to reach feasible region \(D) s
%%IncludeResource: font Helvetica-Bold
/Helvetica-Bold /WindowsLatin1Encoding 96 FMSR

2973  233 mt 
(f) s
%%IncludeResource: font Helvetica-Bold
/Helvetica-Bold /WindowsLatin1Encoding 120 FMSR

3004  173 mt 
(\)) s
gs 253 322 3684 1917 rc
DO
/c9 { 1.000000 0.000000 0.000000 sr} bdef
c9
527 79 526 541 526 -249 526 375 526 78 526 138 526 235 253 567 8 MP stroke
gr

c9
DO
gs 161 475 3868 1382 rc
SO
0 j
41 71 -82 0 41 -71 253 614 4 MP
DP
41 71 -82 0 41 -71 779 849 4 MP
DP
41 71 -82 0 41 -71 1305 987 4 MP
DP
41 71 -82 0 41 -71 1831 1065 4 MP
DP
41 71 -82 0 41 -71 2357 1440 4 MP
DP
41 71 -82 0 41 -71 2883 1191 4 MP
DP
41 71 -82 0 41 -71 3409 1732 4 MP
DP
41 71 -82 0 41 -71 3936 1811 4 MP
DP
DO
gr

gs 253 322 3684 1917 rc
DD
/c10 { 0.000000 1.000000 0.000000 sr} bdef
c10
527 49 526 -12 526 9 526 58 526 -34 526 48 526 12 253 1636 8 MP stroke
gr

c10
DD
gs 161 1544 3868 315 rc
SO
 228 1611 mt  278 1661 L
 278 1611 mt  228 1661 L
 754 1623 mt  804 1673 L
 804 1623 mt  754 1673 L
1280 1671 mt 1330 1721 L
1330 1671 mt 1280 1721 L
1806 1637 mt 1856 1687 L
1856 1637 mt 1806 1687 L
2332 1695 mt 2382 1745 L
2382 1695 mt 2332 1745 L
2858 1704 mt 2908 1754 L
2908 1704 mt 2858 1754 L
3384 1692 mt 3434 1742 L
3434 1692 mt 3384 1742 L
3911 1741 mt 3961 1791 L
3961 1741 mt 3911 1791 L
DD
gr

gs 253 322 3684 1917 rc
DA
/c11 { 0.000000 0.000000 0.172414 sr} bdef
c11
527 24 526 7 526 44 526 18 526 20 526 60 526 76 253 1492 8 MP stroke
gr

c11
DA
gs 161 1400 3868 434 rc
SO
 217 1492 mt  289 1492 L
 253 1456 mt  253 1528 L
 743 1568 mt  815 1568 L
 779 1532 mt  779 1604 L
1269 1628 mt 1341 1628 L
1305 1592 mt 1305 1664 L
1795 1648 mt 1867 1648 L
1831 1612 mt 1831 1684 L
2321 1666 mt 2393 1666 L
2357 1630 mt 2357 1702 L
2847 1710 mt 2919 1710 L
2883 1674 mt 2883 1746 L
3373 1717 mt 3445 1717 L
3409 1681 mt 3409 1753 L
3900 1741 mt 3972 1741 L
3936 1705 mt 3936 1777 L
 228 1467 mt  278 1517 L
 278 1467 mt  228 1517 L
 754 1543 mt  804 1593 L
 804 1543 mt  754 1593 L
1280 1603 mt 1330 1653 L
1330 1603 mt 1280 1653 L
1806 1623 mt 1856 1673 L
1856 1623 mt 1806 1673 L
2332 1641 mt 2382 1691 L
2382 1641 mt 2332 1691 L
2858 1685 mt 2908 1735 L
2908 1685 mt 2858 1735 L
3384 1692 mt 3434 1742 L
3434 1692 mt 3384 1742 L
3911 1716 mt 3961 1766 L
3961 1716 mt 3911 1766 L
DA
gr

gs 253 322 3684 1917 rc
SO
/c12 { 1.000000 0.103448 0.724138 sr} bdef
c12
527 28 526 -8 526 29 526 -14 526 8 526 21 526 17 253 1667 8 MP stroke
gr

c12
SO
gs 161 1575 3868 266 rc
0 j
0 -58 -58 0 0 58 58 0 224 1638 5 MP
DP
0 -58 -58 0 0 58 58 0 750 1655 5 MP
DP
0 -58 -58 0 0 58 58 0 1276 1676 5 MP
DP
0 -58 -58 0 0 58 58 0 1802 1684 5 MP
DP
0 -58 -58 0 0 58 58 0 2328 1670 5 MP
DP
0 -58 -58 0 0 58 58 0 2854 1699 5 MP
DP
0 -58 -58 0 0 58 58 0 3380 1691 5 MP
DP
0 -58 -58 0 0 58 58 0 3907 1719 5 MP
DP
gr

gs 253 322 3684 1917 rc
DO
/c13 { 1.000000 0.827586 0.000000 sr} bdef
c13
527 115 526 -86 526 123 526 154 526 -102 526 60 526 183 253 1275 8 MP stroke
gr

c13
DO
gs 161 1183 3868 632 rc
SO
0 j
36 47 -36 47 -36 -47 36 -47 253 1322 5 MP
DP
36 47 -36 47 -36 -47 36 -47 779 1505 5 MP
DP
36 47 -36 47 -36 -47 36 -47 1305 1565 5 MP
DP
36 47 -36 47 -36 -47 36 -47 1831 1463 5 MP
DP
36 47 -36 47 -36 -47 36 -47 2357 1617 5 MP
DP
36 47 -36 47 -36 -47 36 -47 2883 1740 5 MP
DP
36 47 -36 47 -36 -47 36 -47 3409 1654 5 MP
DP
36 47 -36 47 -36 -47 36 -47 3936 1769 5 MP
DP
DO
gr

gs 253 322 3684 1917 rc
DD
/c14 { 0.000000 0.344828 0.000000 sr} bdef
c14
527 657 526 -266 526 28 526 118 526 24 526 412 526 117 253 842 8 MP stroke
gr

c14
DD
gs 161 750 3868 1275 rc
SO
24 W
253 842 PD
24 W
779 959 PD
24 W
1305 1371 PD
24 W
1831 1395 PD
24 W
2357 1513 PD
24 W
2883 1541 PD
24 W
3409 1275 PD
24 W
3936 1932 PD
DD
gr

gs 253 322 3684 1917 rc
DA
/c15 { 0.517241 0.517241 1.000000 sr} bdef
c15
527 106 526 116 526 -24 526 -20 526 103 526 -50 526 256 253 1289 8 MP stroke
gr

c15
DA
gs 161 1197 3868 672 rc
SO
0 j
-41 71 -41 -71 82 0 212 1313 4 MP
DP
-41 71 -41 -71 82 0 738 1569 4 MP
DP
-41 71 -41 -71 82 0 1264 1519 4 MP
DP
-41 71 -41 -71 82 0 1790 1622 4 MP
DP
-41 71 -41 -71 82 0 2316 1602 4 MP
DP
-41 71 -41 -71 82 0 2842 1578 4 MP
DP
-41 71 -41 -71 82 0 3368 1694 4 MP
DP
-41 71 -41 -71 82 0 3895 1800 4 MP
DP
DA
gr

gs 253 322 3684 1917 rc
SO
/c16 { 0.620690 0.310345 0.275862 sr} bdef
c16
527 -174 526 118 526 -234 526 214 526 437 526 147 526 431 253 478 8 MP stroke
gr

c16
SO
gs 161 386 3868 1414 rc
0 j
-71 41 0 -82 71 41 206 478 4 MP
DP
-71 41 0 -82 71 41 732 909 4 MP
DP
-71 41 0 -82 71 41 1258 1056 4 MP
DP
-71 41 0 -82 71 41 1784 1493 4 MP
DP
-71 41 0 -82 71 41 2310 1707 4 MP
DP
-71 41 0 -82 71 41 2836 1473 4 MP
DP
-71 41 0 -82 71 41 3362 1591 4 MP
DP
-71 41 0 -82 71 41 3889 1417 4 MP
DP
gr

gs 253 322 3684 1917 rc
DO
/c17 { 0.000000 1.000000 0.758621 sr} bdef
c17
527 -55 526 204 526 -20 526 96 526 12 526 -79 526 254 253 1333 8 MP stroke
gr

c17
DO
gs 161 1241 3868 652 rc
SO
0 j
0 82 -71 -41 71 -41 229 1374 4 MP
DP
0 82 -71 -41 71 -41 755 1628 4 MP
DP
0 82 -71 -41 71 -41 1281 1549 4 MP
DP
0 82 -71 -41 71 -41 1807 1561 4 MP
DP
0 82 -71 -41 71 -41 2333 1657 4 MP
DP
0 82 -71 -41 71 -41 2859 1637 4 MP
DP
0 82 -71 -41 71 -41 3385 1841 4 MP
DP
0 82 -71 -41 71 -41 3912 1786 4 MP
DP
DO
gr

gs 253 322 3684 1917 rc
SO
/c18 { 0.000000 0.517241 0.586207 sr} bdef
c18
527 -136 526 -310 526 917 526 -313 526 41 526 197 526 255 253 774 8 MP stroke
gr

c18
SO
gs 161 682 3868 1282 rc
0 j
-21 -16 8 -25 -22 15 -21 -15 8 25 -21 16 26 0 8 24 
9 -24 26 0 218 762 11 MP
DP
-21 -16 8 -25 -22 15 -21 -15 8 25 -21 16 26 0 8 24 
9 -24 26 0 744 1017 11 MP
DP
-21 -16 8 -25 -22 15 -21 -15 8 25 -21 16 26 0 8 24 
9 -24 26 0 1270 1214 11 MP
DP
-21 -16 8 -25 -22 15 -21 -15 8 25 -21 16 26 0 8 24 
9 -24 26 0 1796 1255 11 MP
DP
-21 -16 8 -25 -22 15 -21 -15 8 25 -21 16 26 0 8 24 
9 -24 26 0 2322 942 11 MP
DP
-21 -16 8 -25 -22 15 -21 -15 8 25 -21 16 26 0 8 24 
9 -24 26 0 2848 1859 11 MP
DP
-21 -16 8 -25 -22 15 -21 -15 8 25 -21 16 26 0 8 24 
9 -24 26 0 3374 1549 11 MP
DP
-21 -16 8 -25 -22 15 -21 -15 8 25 -21 16 26 0 8 24 
9 -24 26 0 3901 1413 11 MP
DP
gr

gs 253 322 3684 1917 rc
DO
/c19 { 0.000000 0.000000 0.482759 sr} bdef
c19
527 -16 526 368 526 -311 526 364 526 145 526 -186 526 801 253 465 8 MP stroke
gr

c19
DO
gs 161 373 3868 1366 rc
SO
0 j
-13 -18 13 -18 -21 0 -10 -18 -10 18 -21 0 13 18 -13 18 
21 0 10 18 10 -18 21 0 222 447 13 MP
DP
-13 -18 13 -18 -21 0 -10 -18 -10 18 -21 0 13 18 -13 18 
21 0 10 18 10 -18 21 0 748 1248 13 MP
DP
-13 -18 13 -18 -21 0 -10 -18 -10 18 -21 0 13 18 -13 18 
21 0 10 18 10 -18 21 0 1274 1062 13 MP
DP
-13 -18 13 -18 -21 0 -10 -18 -10 18 -21 0 13 18 -13 18 
21 0 10 18 10 -18 21 0 1800 1207 13 MP
DP
-13 -18 13 -18 -21 0 -10 -18 -10 18 -21 0 13 18 -13 18 
21 0 10 18 10 -18 21 0 2326 1571 13 MP
DP
-13 -18 13 -18 -21 0 -10 -18 -10 18 -21 0 13 18 -13 18 
21 0 10 18 10 -18 21 0 2852 1260 13 MP
DP
-13 -18 13 -18 -21 0 -10 -18 -10 18 -21 0 13 18 -13 18 
21 0 10 18 10 -18 21 0 3378 1628 13 MP
DP
-13 -18 13 -18 -21 0 -10 -18 -10 18 -21 0 13 18 -13 18 
21 0 10 18 10 -18 21 0 3905 1612 13 MP
DP
DO
gr

gs 253 322 3684 1917 rc
SO
6 w
gr

6 w
SO
1 sg
0 1916 3585 0 0 -1916 4359 2247 4 MP
PP
-3585 0 0 1916 3585 0 0 -1916 4359 2247 5 MP stroke
4 w
DO
0 sg
4359 2247 mt 4359  331 L
4359  331 mt 4359  331 L
4871 2247 mt 4871  331 L
4871  331 mt 4871  331 L
5383 2247 mt 5383  331 L
5383  331 mt 5383  331 L
5895 2247 mt 5895  331 L
5895  331 mt 5895  331 L
6407 2247 mt 6407  331 L
6407  331 mt 6407  331 L
6919 2247 mt 6919  331 L
6919  331 mt 6919  331 L
7431 2247 mt 7431  331 L
7431  331 mt 7431  331 L
7944 2247 mt 7944  331 L
7944  331 mt 7944  331 L
4359 2247 mt 7944 2247 L
7944 2247 mt 7944 2247 L
4359 1863 mt 7944 1863 L
7944 1863 mt 7944 1863 L
4359 1480 mt 7944 1480 L
7944 1480 mt 7944 1480 L
4359 1097 mt 7944 1097 L
7944 1097 mt 7944 1097 L
4359  714 mt 7944  714 L
7944  714 mt 7944  714 L
4359  331 mt 7944  331 L
7944  331 mt 7944  331 L
SO
6 w
4359  331 mt 7944  331 L
4359 2247 mt 7944 2247 L
7944 2247 mt 7944  331 L
4359 2247 mt 4359  331 L
4359 2247 mt 7944 2247 L
4359 2247 mt 4359  331 L
4359 2247 mt 4359 2211 L
4359  331 mt 4359  366 L
%%IncludeResource: font Helvetica
/Helvetica /WindowsLatin1Encoding 120 FMSR

4293 2392 mt 
(10) s
4871 2247 mt 4871 2211 L
4871  331 mt 4871  366 L
4805 2392 mt 
(20) s
5383 2247 mt 5383 2211 L
5383  331 mt 5383  366 L
5317 2392 mt 
(30) s
5895 2247 mt 5895 2211 L
5895  331 mt 5895  366 L
5829 2392 mt 
(40) s
6407 2247 mt 6407 2211 L
6407  331 mt 6407  366 L
6341 2392 mt 
(50) s
6919 2247 mt 6919 2211 L
6919  331 mt 6919  366 L
6853 2392 mt 
(60) s
7431 2247 mt 7431 2211 L
7431  331 mt 7431  366 L
7365 2392 mt 
(70) s
7944 2247 mt 7944 2211 L
7944  331 mt 7944  366 L
7878 2392 mt 
(80) s
4359 2247 mt 4394 2247 L
7944 2247 mt 7908 2247 L
4258 2291 mt 
(0) s
4359 1863 mt 4394 1863 L
7944 1863 mt 7908 1863 L
4158 1907 mt 
(0.2) s
4359 1480 mt 4394 1480 L
7944 1480 mt 7908 1480 L
4158 1524 mt 
(0.4) s
4359 1097 mt 4394 1097 L
7944 1097 mt 7908 1097 L
4158 1141 mt 
(0.6) s
4359  714 mt 4394  714 L
7944  714 mt 7908  714 L
4158  758 mt 
(0.8) s
4359  331 mt 4394  331 L
7944  331 mt 7908  331 L
4258  375 mt 
(1) s
4359  331 mt 7944  331 L
4359 2247 mt 7944 2247 L
7944 2247 mt 7944  331 L
4359 2247 mt 4359  331 L
gs 4359 331 3586 1917 rc
18 w
c8
513 36 512 -83 512 -6 512 0 512 0 512 0 512 0 4359 2246 8 MP stroke
gr

18 w
c8
gs 4267 2065 3770 274 rc
  36   36 4359 2246 FO
  36   36 4871 2246 FO
  36   36 5383 2246 FO
  36   36 5895 2246 FO
  36   36 6407 2246 FO
  36   36 6919 2240 FO
  36   36 7431 2157 FO
  36   36 7944 2193 FO
gr

gs 4359 331 3586 1917 rc
gr

0 sg
%%IncludeResource: font Helvetica-Bold
/Helvetica-Bold /WindowsLatin1Encoding 120 FMSR

5479  236 mt 
(Wilcoxon rank sum test) s
gs 4359 331 3586 1917 rc
DO
c9
513 -45 512 -1813 512 12 512 -13 512 0 512 0 512 0 4359 2246 8 MP stroke
gr

c9
DO
gs 4267 295 3770 2044 rc
SO
0 j
41 71 -82 0 41 -71 4359 2293 4 MP
DP
41 71 -82 0 41 -71 4871 2293 4 MP
DP
41 71 -82 0 41 -71 5383 2293 4 MP
DP
41 71 -82 0 41 -71 5895 2293 4 MP
DP
41 71 -82 0 41 -71 6407 2280 4 MP
DP
41 71 -82 0 41 -71 6919 2292 4 MP
DP
41 71 -82 0 41 -71 7431 479 4 MP
DP
41 71 -82 0 41 -71 7944 434 4 MP
DP
DO
gs 4359 331 3586 1917 rc
DD
c10
513 -1447 512 95 512 -95 512 -10 512 0 512 0 512 0 4359 2246 8 MP stroke
gr

c10
DD
gs 4267 697 3770 1642 rc
SO
4334 2221 mt 4384 2271 L
4384 2221 mt 4334 2271 L
4846 2221 mt 4896 2271 L
4896 2221 mt 4846 2271 L
5358 2221 mt 5408 2271 L
5408 2221 mt 5358 2271 L
5870 2221 mt 5920 2271 L
5920 2221 mt 5870 2271 L
6382 2211 mt 6432 2261 L
6432 2211 mt 6382 2261 L
6894 2116 mt 6944 2166 L
6944 2116 mt 6894 2166 L
7406 2211 mt 7456 2261 L
7456 2211 mt 7406 2261 L
7919  764 mt 7969  814 L
7969  764 mt 7919  814 L
DD
gr

gs 4359 331 3586 1917 rc
DA
c11
513 -696 512 -247 512 -78 512 -2 512 0 512 0 512 0 4359 2246 8 MP stroke
gr

c11
DA
gs 4267 1131 3770 1208 rc
SO
4323 2246 mt 4395 2246 L
4359 2210 mt 4359 2282 L
4835 2246 mt 4907 2246 L
4871 2210 mt 4871 2282 L
5347 2246 mt 5419 2246 L
5383 2210 mt 5383 2282 L
5859 2246 mt 5931 2246 L
5895 2210 mt 5895 2282 L
6371 2244 mt 6443 2244 L
6407 2208 mt 6407 2280 L
6883 2166 mt 6955 2166 L
6919 2130 mt 6919 2202 L
7395 1919 mt 7467 1919 L
7431 1883 mt 7431 1955 L
7908 1223 mt 7980 1223 L
7944 1187 mt 7944 1259 L
4334 2221 mt 4384 2271 L
4384 2221 mt 4334 2271 L
4846 2221 mt 4896 2271 L
4896 2221 mt 4846 2271 L
5358 2221 mt 5408 2271 L
5408 2221 mt 5358 2271 L
5870 2221 mt 5920 2271 L
5920 2221 mt 5870 2271 L
6382 2219 mt 6432 2269 L
6432 2219 mt 6382 2269 L
6894 2141 mt 6944 2191 L
6944 2141 mt 6894 2191 L
7406 1894 mt 7456 1944 L
7456 1894 mt 7406 1944 L
7919 1198 mt 7969 1248 L
7969 1198 mt 7919 1248 L
DA
gr

gs 4359 331 3586 1917 rc
SO
c12
513 -715 512 10 512 -41 512 0 512 1 512 -1 512 0 4359 2246 8 MP stroke
gr

c12
SO
gs 4267 1408 3770 931 rc
0 -58 -58 0 0 58 58 0 4330 2217 5 MP
DP
0 -58 -58 0 0 58 58 0 4842 2217 5 MP
DP
0 -58 -58 0 0 58 58 0 5354 2216 5 MP
DP
0 -58 -58 0 0 58 58 0 5866 2217 5 MP
DP
0 -58 -58 0 0 58 58 0 6378 2217 5 MP
DP
0 -58 -58 0 0 58 58 0 6890 2176 5 MP
DP
0 -58 -58 0 0 58 58 0 7402 2186 5 MP
DP
0 -58 -58 0 0 58 58 0 7915 1471 5 MP
DP
gr

gs 4359 331 3586 1917 rc
DO
c13
513 -1104 512 525 512 -679 512 -1 512 3 512 -3 512 0 4359 2246 8 MP stroke
gr

c13
DO
gs 4267 895 3770 1444 rc
SO
36 47 -36 47 -36 -47 36 -47 4359 2293 5 MP
DP
36 47 -36 47 -36 -47 36 -47 4871 2293 5 MP
DP
36 47 -36 47 -36 -47 36 -47 5383 2290 5 MP
DP
36 47 -36 47 -36 -47 36 -47 5895 2293 5 MP
DP
36 47 -36 47 -36 -47 36 -47 6407 2292 5 MP
DP
36 47 -36 47 -36 -47 36 -47 6919 1613 5 MP
DP
36 47 -36 47 -36 -47 36 -47 7431 2138 5 MP
DP
36 47 -36 47 -36 -47 36 -47 7944 1034 5 MP
DP
DO
gr

gs 4359 331 3586 1917 rc
DD
c14
513 -555 512 249 512 -82 512 -150 512 -48 512 -10 512 0 4359 2246 8 MP stroke
gr

c14
DD
gs 4267 1558 3770 781 rc
SO
24 W
4359 2246 PD
24 W
4871 2246 PD
24 W
5383 2236 PD
24 W
5895 2188 PD
24 W
6407 2038 PD
24 W
6919 1956 PD
24 W
7431 2205 PD
24 W
7944 1650 PD
DD
gr

gs 4359 331 3586 1917 rc
DA
c15
513 -683 512 -54 512 -4 512 34 512 -34 512 3 512 -3 4359 2246 8 MP stroke
gr

c15
DA
gs 4267 1413 3770 926 rc
SO
-41 71 -41 -71 82 0 4318 2270 4 MP
DP
-41 71 -41 -71 82 0 4830 2267 4 MP
DP
-41 71 -41 -71 82 0 5342 2270 4 MP
DP
-41 71 -41 -71 82 0 5854 2236 4 MP
DP
-41 71 -41 -71 82 0 6366 2270 4 MP
DP
-41 71 -41 -71 82 0 6878 2266 4 MP
DP
-41 71 -41 -71 82 0 7390 2212 4 MP
DP
-41 71 -41 -71 82 0 7903 1529 4 MP
DP
DA
gr

gs 4359 331 3586 1917 rc
SO
c16
513 61 512 -103 512 1252 512 -1361 512 -66 512 0 512 0 4359 2246 8 MP stroke
gr

c16
SO
gs 4267 727 3770 1612 rc
-71 41 0 -82 71 41 4312 2246 4 MP
DP
-71 41 0 -82 71 41 4824 2246 4 MP
DP
-71 41 0 -82 71 41 5336 2246 4 MP
DP
-71 41 0 -82 71 41 5848 2180 4 MP
DP
-71 41 0 -82 71 41 6360 819 4 MP
DP
-71 41 0 -82 71 41 6872 2071 4 MP
DP
-71 41 0 -82 71 41 7384 1968 4 MP
DP
-71 41 0 -82 71 41 7897 2029 4 MP
DP
gr

gs 4359 331 3586 1917 rc
DO
c17
513 -459 512 -1252 512 5 512 -63 512 0 512 18 512 -18 4359 2246 8 MP stroke
gr

c17
DO
gs 4267 385 3770 1954 rc
SO
0 82 -71 -41 71 -41 4335 2287 4 MP
DP
0 82 -71 -41 71 -41 4847 2269 4 MP
DP
0 82 -71 -41 71 -41 5359 2287 4 MP
DP
0 82 -71 -41 71 -41 5871 2287 4 MP
DP
0 82 -71 -41 71 -41 6383 2224 4 MP
DP
0 82 -71 -41 71 -41 6895 2229 4 MP
DP
0 82 -71 -41 71 -41 7407 977 4 MP
DP
0 82 -71 -41 71 -41 7920 518 4 MP
DP
DO
gr

gs 4359 331 3586 1917 rc
SO
c18
513 266 512 760 512 -1139 512 0 512 9 512 -9 512 0 4359 2246 8 MP stroke
gr

c18
SO
gs 4267 1015 3770 1324 rc
-21 -16 8 -25 -22 15 -21 -15 8 25 -21 16 26 0 8 24 
9 -24 26 0 4324 2234 11 MP
DP
-21 -16 8 -25 -22 15 -21 -15 8 25 -21 16 26 0 8 24 
9 -24 26 0 4836 2234 11 MP
DP
-21 -16 8 -25 -22 15 -21 -15 8 25 -21 16 26 0 8 24 
9 -24 26 0 5348 2225 11 MP
DP
-21 -16 8 -25 -22 15 -21 -15 8 25 -21 16 26 0 8 24 
9 -24 26 0 5860 2234 11 MP
DP
-21 -16 8 -25 -22 15 -21 -15 8 25 -21 16 26 0 8 24 
9 -24 26 0 6372 2234 11 MP
DP
-21 -16 8 -25 -22 15 -21 -15 8 25 -21 16 26 0 8 24 
9 -24 26 0 6884 1095 11 MP
DP
-21 -16 8 -25 -22 15 -21 -15 8 25 -21 16 26 0 8 24 
9 -24 26 0 7396 1855 11 MP
DP
-21 -16 8 -25 -22 15 -21 -15 8 25 -21 16 26 0 8 24 
9 -24 26 0 7909 2121 11 MP
DP
gr

gs 4359 331 3586 1917 rc
DO
c19
513 455 512 -1018 512 399 512 -392 512 -11 512 4 512 -6 4359 2246 8 MP stroke
gr

c19
DO
gs 4267 1130 3770 1209 rc
SO
-13 -18 13 -18 -21 0 -10 -18 -10 18 -21 0 13 18 -13 18 
21 0 10 18 10 -18 21 0 4328 2228 13 MP
DP
-13 -18 13 -18 -21 0 -10 -18 -10 18 -21 0 13 18 -13 18 
21 0 10 18 10 -18 21 0 4840 2222 13 MP
DP
-13 -18 13 -18 -21 0 -10 -18 -10 18 -21 0 13 18 -13 18 
21 0 10 18 10 -18 21 0 5352 2226 13 MP
DP
-13 -18 13 -18 -21 0 -10 -18 -10 18 -21 0 13 18 -13 18 
21 0 10 18 10 -18 21 0 5864 2215 13 MP
DP
-13 -18 13 -18 -21 0 -10 -18 -10 18 -21 0 13 18 -13 18 
21 0 10 18 10 -18 21 0 6376 1823 13 MP
DP
-13 -18 13 -18 -21 0 -10 -18 -10 18 -21 0 13 18 -13 18 
21 0 10 18 10 -18 21 0 6888 2222 13 MP
DP
-13 -18 13 -18 -21 0 -10 -18 -10 18 -21 0 13 18 -13 18 
21 0 10 18 10 -18 21 0 7400 1204 13 MP
DP
-13 -18 13 -18 -21 0 -10 -18 -10 18 -21 0 13 18 -13 18 
21 0 10 18 10 -18 21 0 7913 1659 13 MP
DP
DO
gr

gs 4359 331 3586 1917 rc
SO
6 w
gr
gr

6 w
c19
SO
1 sg
0 1915 3719 0 0 -1915 235 4593 4 MP
PP
-3719 0 0 1915 3719 0 0 -1915 235 4593 5 MP stroke
4 w
DO
0 sg
 235 4593 mt  235 2678 L
 235 2678 mt  235 2678 L
 766 4593 mt  766 2678 L
 766 2678 mt  766 2678 L
1297 4593 mt 1297 2678 L
1297 2678 mt 1297 2678 L
1828 4593 mt 1828 2678 L
1828 2678 mt 1828 2678 L
2360 4593 mt 2360 2678 L
2360 2678 mt 2360 2678 L
2891 4593 mt 2891 2678 L
2891 2678 mt 2891 2678 L
3422 4593 mt 3422 2678 L
3422 2678 mt 3422 2678 L
3954 4593 mt 3954 2678 L
3954 2678 mt 3954 2678 L
 235 4593 mt 3954 4593 L
3954 4593 mt 3954 4593 L
 235 4319 mt 3954 4319 L
3954 4319 mt 3954 4319 L
 235 4045 mt 3954 4045 L
3954 4045 mt 3954 4045 L
 235 3772 mt 3954 3772 L
3954 3772 mt 3954 3772 L
 235 3498 mt 3954 3498 L
3954 3498 mt 3954 3498 L
 235 3225 mt 3954 3225 L
3954 3225 mt 3954 3225 L
 235 2951 mt 3954 2951 L
3954 2951 mt 3954 2951 L
 235 2678 mt 3954 2678 L
3954 2678 mt 3954 2678 L
SO
6 w
 235 2678 mt 3954 2678 L
 235 4593 mt 3954 4593 L
3954 4593 mt 3954 2678 L
 235 4593 mt  235 2678 L
 235 4593 mt 3954 4593 L
 235 4593 mt  235 2678 L
 235 4593 mt  235 4555 L
 235 2678 mt  235 2715 L
%%IncludeResource: font Helvetica
/Helvetica /WindowsLatin1Encoding 120 FMSR

 169 4738 mt 
(10) s
 766 4593 mt  766 4555 L
 766 2678 mt  766 2715 L
 700 4738 mt 
(20) s
1297 4593 mt 1297 4555 L
1297 2678 mt 1297 2715 L
1231 4738 mt 
(30) s
1828 4593 mt 1828 4555 L
1828 2678 mt 1828 2715 L
1762 4738 mt 
(40) s
2360 4593 mt 2360 4555 L
2360 2678 mt 2360 2715 L
2294 4738 mt 
(50) s
2891 4593 mt 2891 4555 L
2891 2678 mt 2891 2715 L
2825 4738 mt 
(60) s
3422 4593 mt 3422 4555 L
3422 2678 mt 3422 2715 L
3356 4738 mt 
(70) s
3954 4593 mt 3954 4555 L
3954 2678 mt 3954 2715 L
3888 4738 mt 
(80) s
 235 4593 mt  272 4593 L
3954 4593 mt 3916 4593 L
  -3 4637 mt 
(-50) s
 235 4319 mt  272 4319 L
3954 4319 mt 3916 4319 L
  -3 4363 mt 
(-40) s
 235 4045 mt  272 4045 L
3954 4045 mt 3916 4045 L
  -3 4089 mt 
(-30) s
 235 3772 mt  272 3772 L
3954 3772 mt 3916 3772 L
  -3 3816 mt 
(-20) s
 235 3498 mt  272 3498 L
3954 3498 mt 3916 3498 L
  -3 3542 mt 
(-10) s
 235 3225 mt  272 3225 L
3954 3225 mt 3916 3225 L
 134 3269 mt 
(0) s
 235 2951 mt  272 2951 L
3954 2951 mt 3916 2951 L
  67 2995 mt 
(10) s
 235 2678 mt  272 2678 L
3954 2678 mt 3916 2678 L
  67 2722 mt 
(20) s
 235 2678 mt 3954 2678 L
 235 4593 mt 3954 4593 L
3954 4593 mt 3954 2678 L
 235 4593 mt  235 2678 L
gs 235 2678 3720 1916 rc
18 w
c8
532 45 531 75 531 91 532 81 531 117 531 136 531 157 235 3153 8 MP stroke
gr

18 w
c8
gs 143 3061 3904 887 rc
  36   36  235 3153 FO
  36   36  766 3310 FO
  36   36 1297 3446 FO
  36   36 1828 3563 FO
  36   36 2360 3644 FO
  36   36 2891 3735 FO
  36   36 3422 3810 FO
  36   36 3954 3855 FO
gr

gs 235 2678 3720 1916 rc
gr

0 sg
%%IncludeResource: font Helvetica-Bold
/Helvetica-Bold /WindowsLatin1Encoding 120 FMSR

1512 2529 mt 
(Solution Quality \(D) s
%%IncludeResource: font Helvetica-Bold
/Helvetica-Bold /WindowsLatin1Encoding 96 FMSR

2592 2589 mt 
(s) s
%%IncludeResource: font Helvetica-Bold
/Helvetica-Bold /WindowsLatin1Encoding 120 FMSR

2645 2529 mt 
(\)) s
gs 235 2678 3720 1916 rc
DO
c9
532 164 531 149 531 215 532 214 531 235 531 280 531 341 235 2864 8 MP stroke
gr

c9
DO
gs 143 2772 3904 1783 rc
SO
0 j
41 71 -82 0 41 -71 235 2911 4 MP
DP
41 71 -82 0 41 -71 766 3252 4 MP
DP
41 71 -82 0 41 -71 1297 3532 4 MP
DP
41 71 -82 0 41 -71 1828 3767 4 MP
DP
41 71 -82 0 41 -71 2360 3981 4 MP
DP
41 71 -82 0 41 -71 2891 4196 4 MP
DP
41 71 -82 0 41 -71 3422 4345 4 MP
DP
41 71 -82 0 41 -71 3954 4509 4 MP
DP
DO
gr

gs 235 2678 3720 1916 rc
DD
c10
532 -5 531 16 531 11 532 26 531 20 531 24 531 44 235 3244 8 MP stroke
gr

c10
DD
gs 143 3152 3904 326 rc
SO
 210 3219 mt  260 3269 L
 260 3219 mt  210 3269 L
 741 3263 mt  791 3313 L
 791 3263 mt  741 3313 L
1272 3287 mt 1322 3337 L
1322 3287 mt 1272 3337 L
1803 3307 mt 1853 3357 L
1853 3307 mt 1803 3357 L
2335 3333 mt 2385 3383 L
2385 3333 mt 2335 3383 L
2866 3344 mt 2916 3394 L
2916 3344 mt 2866 3394 L
3397 3360 mt 3447 3410 L
3447 3360 mt 3397 3410 L
3929 3355 mt 3979 3405 L
3979 3355 mt 3929 3405 L
DD
gr

gs 235 2678 3720 1916 rc
DA
c11
532 26 531 22 531 20 532 48 531 36 531 59 531 74 235 3205 8 MP stroke
gr

c11
DA
gs 143 3113 3904 470 rc
SO
 199 3205 mt  271 3205 L
 235 3169 mt  235 3241 L
 730 3279 mt  802 3279 L
 766 3243 mt  766 3315 L
1261 3338 mt 1333 3338 L
1297 3302 mt 1297 3374 L
1792 3374 mt 1864 3374 L
1828 3338 mt 1828 3410 L
2324 3422 mt 2396 3422 L
2360 3386 mt 2360 3458 L
2855 3442 mt 2927 3442 L
2891 3406 mt 2891 3478 L
3386 3464 mt 3458 3464 L
3422 3428 mt 3422 3500 L
3918 3490 mt 3990 3490 L
3954 3454 mt 3954 3526 L
 210 3180 mt  260 3230 L
 260 3180 mt  210 3230 L
 741 3254 mt  791 3304 L
 791 3254 mt  741 3304 L
1272 3313 mt 1322 3363 L
1322 3313 mt 1272 3363 L
1803 3349 mt 1853 3399 L
1853 3349 mt 1803 3399 L
2335 3397 mt 2385 3447 L
2385 3397 mt 2335 3447 L
2866 3417 mt 2916 3467 L
2916 3417 mt 2866 3467 L
3397 3439 mt 3447 3489 L
3447 3439 mt 3397 3489 L
3929 3465 mt 3979 3515 L
3979 3465 mt 3929 3515 L
DA
gr

gs 235 2678 3720 1916 rc
SO
c12
532 6 531 -8 531 -1 532 8 531 0 531 6 531 4 235 3230 8 MP stroke
gr

c12
SO
gs 143 3138 3904 203 rc
0 j
0 -58 -58 0 0 58 58 0 206 3201 5 MP
DP
0 -58 -58 0 0 58 58 0 737 3205 5 MP
DP
0 -58 -58 0 0 58 58 0 1268 3211 5 MP
DP
0 -58 -58 0 0 58 58 0 1799 3211 5 MP
DP
0 -58 -58 0 0 58 58 0 2331 3219 5 MP
DP
0 -58 -58 0 0 58 58 0 2862 3218 5 MP
DP
0 -58 -58 0 0 58 58 0 3393 3210 5 MP
DP
0 -58 -58 0 0 58 58 0 3925 3216 5 MP
DP
gr

gs 235 2678 3720 1916 rc
DO
c13
532 40 531 41 531 58 532 34 531 86 531 71 531 129 235 3140 8 MP stroke
gr

c13
DO
gs 143 3048 3904 644 rc
SO
0 j
36 47 -36 47 -36 -47 36 -47 235 3187 5 MP
DP
36 47 -36 47 -36 -47 36 -47 766 3316 5 MP
DP
36 47 -36 47 -36 -47 36 -47 1297 3387 5 MP
DP
36 47 -36 47 -36 -47 36 -47 1828 3473 5 MP
DP
36 47 -36 47 -36 -47 36 -47 2360 3507 5 MP
DP
36 47 -36 47 -36 -47 36 -47 2891 3565 5 MP
DP
36 47 -36 47 -36 -47 36 -47 3422 3606 5 MP
DP
36 47 -36 47 -36 -47 36 -47 3954 3646 5 MP
DP
DO
gr

gs 235 2678 3720 1916 rc
DD
c14
532 57 531 121 531 128 532 114 531 144 531 207 531 206 235 2916 8 MP stroke
gr

c14
DD
gs 143 2824 3904 1162 rc
SO
24 W
235 2916 PD
24 W
766 3122 PD
24 W
1297 3329 PD
24 W
1828 3473 PD
24 W
2360 3587 PD
24 W
2891 3715 PD
24 W
3422 3836 PD
24 W
3954 3893 PD
DD
gr

gs 235 2678 3720 1916 rc
DA
c15
532 32 531 42 531 7 532 46 531 66 531 82 531 107 235 3156 8 MP stroke
gr

c15
DA
gs 143 3064 3904 567 rc
SO
0 j
-41 71 -41 -71 82 0 194 3180 4 MP
DP
-41 71 -41 -71 82 0 725 3287 4 MP
DP
-41 71 -41 -71 82 0 1256 3369 4 MP
DP
-41 71 -41 -71 82 0 1787 3435 4 MP
DP
-41 71 -41 -71 82 0 2319 3481 4 MP
DP
-41 71 -41 -71 82 0 2850 3488 4 MP
DP
-41 71 -41 -71 82 0 3381 3530 4 MP
DP
-41 71 -41 -71 82 0 3913 3562 4 MP
DP
DA
gr

gs 235 2678 3720 1916 rc
SO
c16
532 62 531 68 531 84 532 103 531 130 531 159 531 198 235 2936 8 MP stroke
gr

c16
SO
gs 143 2844 3904 989 rc
0 j
-71 41 0 -82 71 41 188 2936 4 MP
DP
-71 41 0 -82 71 41 719 3134 4 MP
DP
-71 41 0 -82 71 41 1250 3293 4 MP
DP
-71 41 0 -82 71 41 1781 3423 4 MP
DP
-71 41 0 -82 71 41 2313 3526 4 MP
DP
-71 41 0 -82 71 41 2844 3610 4 MP
DP
-71 41 0 -82 71 41 3375 3678 4 MP
DP
-71 41 0 -82 71 41 3907 3740 4 MP
DP
gr

gs 235 2678 3720 1916 rc
DO
c17
532 -2 531 11 531 -10 532 53 531 13 531 51 531 60 235 3200 8 MP stroke
gr

c17
DO
gs 143 3108 3904 363 rc
SO
0 j
0 82 -71 -41 71 -41 211 3241 4 MP
DP
0 82 -71 -41 71 -41 742 3301 4 MP
DP
0 82 -71 -41 71 -41 1273 3352 4 MP
DP
0 82 -71 -41 71 -41 1804 3365 4 MP
DP
0 82 -71 -41 71 -41 2336 3418 4 MP
DP
0 82 -71 -41 71 -41 2867 3408 4 MP
DP
0 82 -71 -41 71 -41 3398 3419 4 MP
DP
0 82 -71 -41 71 -41 3930 3417 4 MP
DP
DO
gr

gs 235 2678 3720 1916 rc
SO
c18
532 54 531 42 531 75 532 64 531 118 531 104 531 168 235 3036 8 MP stroke
gr

c18
SO
gs 143 2944 3904 810 rc
0 j
-21 -16 8 -25 -22 15 -21 -15 8 25 -21 16 26 0 8 24 
9 -24 26 0 200 3024 11 MP
DP
-21 -16 8 -25 -22 15 -21 -15 8 25 -21 16 26 0 8 24 
9 -24 26 0 731 3192 11 MP
DP
-21 -16 8 -25 -22 15 -21 -15 8 25 -21 16 26 0 8 24 
9 -24 26 0 1262 3296 11 MP
DP
-21 -16 8 -25 -22 15 -21 -15 8 25 -21 16 26 0 8 24 
9 -24 26 0 1793 3414 11 MP
DP
-21 -16 8 -25 -22 15 -21 -15 8 25 -21 16 26 0 8 24 
9 -24 26 0 2325 3478 11 MP
DP
-21 -16 8 -25 -22 15 -21 -15 8 25 -21 16 26 0 8 24 
9 -24 26 0 2856 3553 11 MP
DP
-21 -16 8 -25 -22 15 -21 -15 8 25 -21 16 26 0 8 24 
9 -24 26 0 3387 3595 11 MP
DP
-21 -16 8 -25 -22 15 -21 -15 8 25 -21 16 26 0 8 24 
9 -24 26 0 3919 3649 11 MP
DP
gr

gs 235 2678 3720 1916 rc
DO
c19
532 29 531 -8 531 63 532 47 531 64 531 118 531 138 235 3075 8 MP stroke
gr

c19
DO
gs 143 2983 3904 636 rc
SO
0 j
-13 -18 13 -18 -21 0 -10 -18 -10 18 -21 0 13 18 -13 18 
21 0 10 18 10 -18 21 0 204 3057 13 MP
DP
-13 -18 13 -18 -21 0 -10 -18 -10 18 -21 0 13 18 -13 18 
21 0 10 18 10 -18 21 0 735 3195 13 MP
DP
-13 -18 13 -18 -21 0 -10 -18 -10 18 -21 0 13 18 -13 18 
21 0 10 18 10 -18 21 0 1266 3313 13 MP
DP
-13 -18 13 -18 -21 0 -10 -18 -10 18 -21 0 13 18 -13 18 
21 0 10 18 10 -18 21 0 1797 3377 13 MP
DP
-13 -18 13 -18 -21 0 -10 -18 -10 18 -21 0 13 18 -13 18 
21 0 10 18 10 -18 21 0 2329 3424 13 MP
DP
-13 -18 13 -18 -21 0 -10 -18 -10 18 -21 0 13 18 -13 18 
21 0 10 18 10 -18 21 0 2860 3487 13 MP
DP
-13 -18 13 -18 -21 0 -10 -18 -10 18 -21 0 13 18 -13 18 
21 0 10 18 10 -18 21 0 3391 3479 13 MP
DP
-13 -18 13 -18 -21 0 -10 -18 -10 18 -21 0 13 18 -13 18 
21 0 10 18 10 -18 21 0 3923 3508 13 MP
DP
DO
gr

gs 235 2678 3720 1916 rc
SO
6 w
gr

6 w
SO
1 sg
0 1915 3612 0 0 -1915 4359 4629 4 MP
PP
-3612 0 0 1915 3612 0 0 -1915 4359 4629 5 MP stroke
4 w
DO
0 sg
4359 4629 mt 4359 2714 L
4359 2714 mt 4359 2714 L
4875 4629 mt 4875 2714 L
4875 2714 mt 4875 2714 L
5391 4629 mt 5391 2714 L
5391 2714 mt 5391 2714 L
5907 4629 mt 5907 2714 L
5907 2714 mt 5907 2714 L
6423 4629 mt 6423 2714 L
6423 2714 mt 6423 2714 L
6939 4629 mt 6939 2714 L
6939 2714 mt 6939 2714 L
7455 4629 mt 7455 2714 L
7455 2714 mt 7455 2714 L
7971 4629 mt 7971 2714 L
7971 2714 mt 7971 2714 L
4359 4629 mt 7971 4629 L
7971 4629 mt 7971 4629 L
4359 4355 mt 7971 4355 L
7971 4355 mt 7971 4355 L
4359 4081 mt 7971 4081 L
7971 4081 mt 7971 4081 L
4359 3808 mt 7971 3808 L
7971 3808 mt 7971 3808 L
4359 3534 mt 7971 3534 L
7971 3534 mt 7971 3534 L
4359 3261 mt 7971 3261 L
7971 3261 mt 7971 3261 L
4359 2987 mt 7971 2987 L
7971 2987 mt 7971 2987 L
4359 2714 mt 7971 2714 L
7971 2714 mt 7971 2714 L
SO
6 w
4359 2714 mt 7971 2714 L
4359 4629 mt 7971 4629 L
7971 4629 mt 7971 2714 L
4359 4629 mt 4359 2714 L
4359 4629 mt 7971 4629 L
4359 4629 mt 4359 2714 L
4359 4629 mt 4359 4592 L
4359 2714 mt 4359 2750 L
%%IncludeResource: font Helvetica
/Helvetica /WindowsLatin1Encoding 120 FMSR

4293 4774 mt 
(10) s
4875 4629 mt 4875 4592 L
4875 2714 mt 4875 2750 L
4809 4774 mt 
(20) s
5391 4629 mt 5391 4592 L
5391 2714 mt 5391 2750 L
5325 4774 mt 
(30) s
5907 4629 mt 5907 4592 L
5907 2714 mt 5907 2750 L
5841 4774 mt 
(40) s
6423 4629 mt 6423 4592 L
6423 2714 mt 6423 2750 L
6357 4774 mt 
(50) s
6939 4629 mt 6939 4592 L
6939 2714 mt 6939 2750 L
6873 4774 mt 
(60) s
7455 4629 mt 7455 4592 L
7455 2714 mt 7455 2750 L
7389 4774 mt 
(70) s
7971 4629 mt 7971 4592 L
7971 2714 mt 7971 2750 L
7905 4774 mt 
(80) s
4359 4629 mt 4395 4629 L
7971 4629 mt 7934 4629 L
4258 4673 mt 
(0) s
4359 4355 mt 4395 4355 L
7971 4355 mt 7934 4355 L
4091 4399 mt 
(0.05) s
4359 4081 mt 4395 4081 L
7971 4081 mt 7934 4081 L
4158 4125 mt 
(0.1) s
4359 3808 mt 4395 3808 L
7971 3808 mt 7934 3808 L
4091 3852 mt 
(0.15) s
4359 3534 mt 4395 3534 L
7971 3534 mt 7934 3534 L
4158 3578 mt 
(0.2) s
4359 3261 mt 4395 3261 L
7971 3261 mt 7934 3261 L
4091 3305 mt 
(0.25) s
4359 2987 mt 4395 2987 L
7971 2987 mt 7934 2987 L
4158 3031 mt 
(0.3) s
4359 2714 mt 4395 2714 L
7971 2714 mt 7934 2714 L
4091 2758 mt 
(0.35) s
4359 2714 mt 7971 2714 L
4359 4629 mt 7971 4629 L
7971 4629 mt 7971 2714 L
4359 4629 mt 4359 2714 L
gs 4359 2714 3613 1916 rc
18 w
c8
516 0 516 0 516 0 516 0 516 0 516 0 516 0 4359 4628 8 MP stroke
gr

18 w
c8
gs 4267 4536 3797 185 rc
  36   36 4359 4628 FO
  36   36 4875 4628 FO
  36   36 5391 4628 FO
  36   36 5907 4628 FO
  36   36 6423 4628 FO
  36   36 6939 4628 FO
  36   36 7455 4628 FO
  36   36 7971 4628 FO
gr

gs 4359 2714 3613 1916 rc
gr

0 sg
%%IncludeResource: font Helvetica-Bold
/Helvetica-Bold /WindowsLatin1Encoding 120 FMSR

5492 2619 mt 
(Wilcoxon rank sum test) s
gs 4359 2714 3613 1916 rc
DO
c9
516 0 516 0 516 0 516 0 516 0 516 1170 516 -1170 4359 4628 8 MP stroke
gr

c9
DO
gs 4267 3366 3797 1355 rc
SO
0 j
41 71 -82 0 41 -71 4359 4675 4 MP
DP
41 71 -82 0 41 -71 4875 3505 4 MP
DP
41 71 -82 0 41 -71 5391 4675 4 MP
DP
41 71 -82 0 41 -71 5907 4675 4 MP
DP
41 71 -82 0 41 -71 6423 4675 4 MP
DP
41 71 -82 0 41 -71 6939 4675 4 MP
DP
41 71 -82 0 41 -71 7455 4675 4 MP
DP
41 71 -82 0 41 -71 7971 4675 4 MP
DP
DO
gr

gs 4359 2714 3613 1916 rc
DD
c10
516 0 516 0 516 0 516 0 516 0 516 0 516 0 4359 4628 8 MP stroke
gr

c10
DD
gs 4267 4536 3797 185 rc
SO
4334 4603 mt 4384 4653 L
4384 4603 mt 4334 4653 L
4850 4603 mt 4900 4653 L
4900 4603 mt 4850 4653 L
5366 4603 mt 5416 4653 L
5416 4603 mt 5366 4653 L
5882 4603 mt 5932 4653 L
5932 4603 mt 5882 4653 L
6398 4603 mt 6448 4653 L
6448 4603 mt 6398 4653 L
6914 4603 mt 6964 4653 L
6964 4603 mt 6914 4653 L
7430 4603 mt 7480 4653 L
7480 4603 mt 7430 4653 L
7946 4603 mt 7996 4653 L
7996 4603 mt 7946 4653 L
DD
gr

gs 4359 2714 3613 1916 rc
DA
c11
516 0 516 0 516 0 516 0 516 0 516 0 516 2 4359 4626 8 MP stroke
gr

c11
DA
gs 4267 4534 3797 187 rc
SO
4323 4626 mt 4395 4626 L
4359 4590 mt 4359 4662 L
4839 4628 mt 4911 4628 L
4875 4592 mt 4875 4664 L
5355 4628 mt 5427 4628 L
5391 4592 mt 5391 4664 L
5871 4628 mt 5943 4628 L
5907 4592 mt 5907 4664 L
6387 4628 mt 6459 4628 L
6423 4592 mt 6423 4664 L
6903 4628 mt 6975 4628 L
6939 4592 mt 6939 4664 L
7419 4628 mt 7491 4628 L
7455 4592 mt 7455 4664 L
7935 4628 mt 8007 4628 L
7971 4592 mt 7971 4664 L
4334 4601 mt 4384 4651 L
4384 4601 mt 4334 4651 L
4850 4603 mt 4900 4653 L
4900 4603 mt 4850 4653 L
5366 4603 mt 5416 4653 L
5416 4603 mt 5366 4653 L
5882 4603 mt 5932 4653 L
5932 4603 mt 5882 4653 L
6398 4603 mt 6448 4653 L
6448 4603 mt 6398 4653 L
6914 4603 mt 6964 4653 L
6964 4603 mt 6914 4653 L
7430 4603 mt 7480 4653 L
7480 4603 mt 7430 4653 L
7946 4603 mt 7996 4653 L
7996 4603 mt 7946 4653 L
DA
gr

gs 4359 2714 3613 1916 rc
SO
c12
516 0 516 0 516 0 516 0 516 0 516 11 516 176 4359 4441 8 MP stroke
gr

c12
SO
gs 4267 4349 3797 372 rc
0 j
0 -58 -58 0 0 58 58 0 4330 4412 5 MP
DP
0 -58 -58 0 0 58 58 0 4846 4588 5 MP
DP
0 -58 -58 0 0 58 58 0 5362 4599 5 MP
DP
0 -58 -58 0 0 58 58 0 5878 4599 5 MP
DP
0 -58 -58 0 0 58 58 0 6394 4599 5 MP
DP
0 -58 -58 0 0 58 58 0 6910 4599 5 MP
DP
0 -58 -58 0 0 58 58 0 7426 4599 5 MP
DP
0 -58 -58 0 0 58 58 0 7942 4599 5 MP
DP
gr

gs 4359 2714 3613 1916 rc
DO
c13
516 0 516 0 516 0 516 0 516 0 516 0 516 0 4359 4628 8 MP stroke
gr

c13
DO
gs 4267 4536 3797 185 rc
SO
0 j
36 47 -36 47 -36 -47 36 -47 4359 4675 5 MP
DP
36 47 -36 47 -36 -47 36 -47 4875 4675 5 MP
DP
36 47 -36 47 -36 -47 36 -47 5391 4675 5 MP
DP
36 47 -36 47 -36 -47 36 -47 5907 4675 5 MP
DP
36 47 -36 47 -36 -47 36 -47 6423 4675 5 MP
DP
36 47 -36 47 -36 -47 36 -47 6939 4675 5 MP
DP
36 47 -36 47 -36 -47 36 -47 7455 4675 5 MP
DP
36 47 -36 47 -36 -47 36 -47 7971 4675 5 MP
DP
DO
gr

gs 4359 2714 3613 1916 rc
DD
c14
516 0 516 0 516 0 516 0 516 0 516 0 516 0 4359 4628 8 MP stroke
gr

c14
DD
gs 4267 4536 3797 185 rc
SO
24 W
4359 4628 PD
24 W
4875 4628 PD
24 W
5391 4628 PD
24 W
5907 4628 PD
24 W
6423 4628 PD
24 W
6939 4628 PD
24 W
7455 4628 PD
24 W
7971 4628 PD
DD
gr

gs 4359 2714 3613 1916 rc
DA
c15
516 0 516 0 516 0 516 0 516 0 516 0 516 0 4359 4628 8 MP stroke
gr

c15
DA
gs 4267 4536 3797 185 rc
SO
0 j
-41 71 -41 -71 82 0 4318 4652 4 MP
DP
-41 71 -41 -71 82 0 4834 4652 4 MP
DP
-41 71 -41 -71 82 0 5350 4652 4 MP
DP
-41 71 -41 -71 82 0 5866 4652 4 MP
DP
-41 71 -41 -71 82 0 6382 4652 4 MP
DP
-41 71 -41 -71 82 0 6898 4652 4 MP
DP
-41 71 -41 -71 82 0 7414 4652 4 MP
DP
-41 71 -41 -71 82 0 7930 4652 4 MP
DP
DA
gr

gs 4359 2714 3613 1916 rc
SO
c16
516 0 516 0 516 0 516 0 516 0 516 0 516 0 4359 4628 8 MP stroke
gr

c16
SO
gs 4267 4536 3797 185 rc
0 j
-71 41 0 -82 71 41 4312 4628 4 MP
DP
-71 41 0 -82 71 41 4828 4628 4 MP
DP
-71 41 0 -82 71 41 5344 4628 4 MP
DP
-71 41 0 -82 71 41 5860 4628 4 MP
DP
-71 41 0 -82 71 41 6376 4628 4 MP
DP
-71 41 0 -82 71 41 6892 4628 4 MP
DP
-71 41 0 -82 71 41 7408 4628 4 MP
DP
-71 41 0 -82 71 41 7924 4628 4 MP
DP
gr

gs 4359 2714 3613 1916 rc
DO
c17
516 0 516 0 516 0 516 0 516 0 516 0 516 0 4359 4628 8 MP stroke
gr

c17
DO
gs 4267 4536 3797 185 rc
SO
0 j
0 82 -71 -41 71 -41 4335 4669 4 MP
DP
0 82 -71 -41 71 -41 4851 4669 4 MP
DP
0 82 -71 -41 71 -41 5367 4669 4 MP
DP
0 82 -71 -41 71 -41 5883 4669 4 MP
DP
0 82 -71 -41 71 -41 6399 4669 4 MP
DP
0 82 -71 -41 71 -41 6915 4669 4 MP
DP
0 82 -71 -41 71 -41 7431 4669 4 MP
DP
0 82 -71 -41 71 -41 7947 4669 4 MP
DP
DO
gr

gs 4359 2714 3613 1916 rc
SO
c18
516 0 516 0 516 0 516 0 516 0 516 518 516 -518 4359 4628 8 MP stroke
gr

c18
SO
gs 4267 4018 3797 703 rc
0 j
-21 -16 8 -25 -22 15 -21 -15 8 25 -21 16 26 0 8 24 
9 -24 26 0 4324 4616 11 MP
DP
-21 -16 8 -25 -22 15 -21 -15 8 25 -21 16 26 0 8 24 
9 -24 26 0 4840 4098 11 MP
DP
-21 -16 8 -25 -22 15 -21 -15 8 25 -21 16 26 0 8 24 
9 -24 26 0 5356 4616 11 MP
DP
-21 -16 8 -25 -22 15 -21 -15 8 25 -21 16 26 0 8 24 
9 -24 26 0 5872 4616 11 MP
DP
-21 -16 8 -25 -22 15 -21 -15 8 25 -21 16 26 0 8 24 
9 -24 26 0 6388 4616 11 MP
DP
-21 -16 8 -25 -22 15 -21 -15 8 25 -21 16 26 0 8 24 
9 -24 26 0 6904 4616 11 MP
DP
-21 -16 8 -25 -22 15 -21 -15 8 25 -21 16 26 0 8 24 
9 -24 26 0 7420 4616 11 MP
DP
-21 -16 8 -25 -22 15 -21 -15 8 25 -21 16 26 0 8 24 
9 -24 26 0 7936 4616 11 MP
DP
gr

gs 4359 2714 3613 1916 rc
DO
c19
516 0 516 0 516 0 516 0 516 0 516 1714 516 -1714 4359 4628 8 MP stroke
gr

c19
DO
gs 4267 2822 3797 1899 rc
SO
0 j
-13 -18 13 -18 -21 0 -10 -18 -10 18 -21 0 13 18 -13 18 
21 0 10 18 10 -18 21 0 4328 4610 13 MP
DP
-13 -18 13 -18 -21 0 -10 -18 -10 18 -21 0 13 18 -13 18 
21 0 10 18 10 -18 21 0 4844 2896 13 MP
DP
-13 -18 13 -18 -21 0 -10 -18 -10 18 -21 0 13 18 -13 18 
21 0 10 18 10 -18 21 0 5360 4610 13 MP
DP
-13 -18 13 -18 -21 0 -10 -18 -10 18 -21 0 13 18 -13 18 
21 0 10 18 10 -18 21 0 5876 4610 13 MP
DP
-13 -18 13 -18 -21 0 -10 -18 -10 18 -21 0 13 18 -13 18 
21 0 10 18 10 -18 21 0 6392 4610 13 MP
DP
-13 -18 13 -18 -21 0 -10 -18 -10 18 -21 0 13 18 -13 18 
21 0 10 18 10 -18 21 0 6908 4610 13 MP
DP
-13 -18 13 -18 -21 0 -10 -18 -10 18 -21 0 13 18 -13 18 
21 0 10 18 10 -18 21 0 7424 4610 13 MP
DP
-13 -18 13 -18 -21 0 -10 -18 -10 18 -21 0 13 18 -13 18 
21 0 10 18 10 -18 21 0 7940 4610 13 MP
DP
DO
gr

gs 4359 2714 3613 1916 rc
gr

0 sg
%%IncludeResource: font Helvetica
/Helvetica /WindowsLatin1Encoding 120 FMSR

4342 4672 mt 
( ) s
7955 2756 mt 
( ) s
SO
6 w
1 sg
0 2058 936 0 0 -2058 8119 3613 4 MP
PP
-936 0 0 2058 936 0 0 -2058 8119 3613 5 MP stroke
4 w
DO
SO
6 w
0 sg
8119 1555 mt 9055 1555 L
8119 3613 mt 9055 3613 L
9055 3613 mt 9055 1555 L
8119 3613 mt 8119 1555 L
8119 3613 mt 9055 3613 L
8119 3613 mt 8119 1555 L
8119 1555 mt 9055 1555 L
8119 3613 mt 9055 3613 L
9055 3613 mt 9055 1555 L
8119 3613 mt 8119 1555 L
8588 1702 mt 
(scpnrh4) s
gs 8119 1555 937 2059 rc
18 w
c8
360 0 8191 1660 2 MP stroke
gs 8279 1568 185 185 rc
  36   36 8371 1660 FO
gr

gr

18 w
c8
0 sg
8588 1870 mt 
(scpnrg3) s
gs 8119 1555 937 2059 rc
DO
c9
360 0 8191 1827 2 MP stroke
SO
gs 8279 1735 185 185 rc
0 j
41 71 -82 0 41 -71 8371 1874 4 MP
DP
gr

gr

c9
0 sg
8588 2038 mt 
(scpnrf2) s
gs 8119 1555 937 2059 rc
DD
c10
360 0 8191 1995 2 MP stroke
SO
gs 8279 1903 185 186 rc
8346 1970 mt 8396 2020 L
8396 1970 mt 8346 2020 L
gr

gr

c10
0 sg
8588 2206 mt 
(scpnre1) s
gs 8119 1555 937 2059 rc
DA
c11
360 0 8191 2164 2 MP stroke
SO
gs 8279 2072 185 185 rc
8335 2164 mt 8407 2164 L
8371 2128 mt 8371 2200 L
8346 2139 mt 8396 2189 L
8396 2139 mt 8346 2189 L
gr

gr

c11
0 sg
8588 2374 mt 
(scpe1) s
gs 8119 1555 937 2059 rc
c12
360 0 8191 2332 2 MP stroke
gs 8279 2240 185 185 rc
0 j
0 -58 -58 0 0 58 58 0 8342 2303 5 MP
DP
gr

gr

c12
0 sg
8588 2542 mt 
(scpd2) s
gs 8119 1555 937 2059 rc
DO
c13
360 0 8191 2500 2 MP stroke
SO
gs 8279 2408 185 185 rc
0 j
36 47 -36 47 -36 -47 36 -47 8371 2547 5 MP
DP
gr

gr

c13
0 sg
8588 2711 mt 
(scpc3) s
gs 8119 1555 937 2059 rc
DD
c14
360 0 8191 2667 2 MP stroke
SO
gs 8279 2575 185 185 rc
24 W
8371 2667 PD
gr

gr

c14
0 sg
8588 2879 mt 
(scpb4) s
gs 8119 1555 937 2059 rc
DA
c15
360 0 8191 2835 2 MP stroke
SO
gs 8279 2743 185 185 rc
0 j
-41 71 -41 -71 82 0 8330 2859 4 MP
DP
gr

gr

c15
0 sg
8588 3047 mt 
(scpa5) s
gs 8119 1555 937 2059 rc
c16
360 0 8191 3003 2 MP stroke
gs 8279 2911 185 185 rc
0 j
-71 41 0 -82 71 41 8324 3003 4 MP
DP
gr

gr

c16
0 sg
8588 3215 mt 
(scp63) s
gs 8119 1555 937 2059 rc
DO
c17
360 0 8191 3171 2 MP stroke
SO
gs 8279 3079 185 185 rc
0 j
0 82 -71 -41 71 -41 8347 3212 4 MP
DP
gr

gr

c17
0 sg
8588 3383 mt 
(scp52) s
gs 8119 1555 937 2059 rc
c18
360 0 8191 3339 2 MP stroke
gs 8279 3247 185 185 rc
0 j
-21 -16 8 -25 -22 15 -21 -15 8 25 -21 16 26 0 8 24 
9 -24 26 0 8336 3327 11 MP
DP
gr

gr

c18
0 sg
8588 3551 mt 
(scp41) s
gs 8119 1555 937 2059 rc
DO
c19
360 0 8191 3507 2 MP stroke
SO
gs 8279 3415 185 185 rc
0 j
-13 -18 13 -18 -21 0 -10 -18 -10 18 -21 0 13 18 -13 18 
21 0 10 18 10 -18 21 0 8340 3489 13 MP
DP
gr

6 w
gr

6 w
c19
0 sg
%%IncludeResource: font Helvetica-Bold
/Helvetica-Bold /WindowsLatin1Encoding 120 FMSR

1429 5007 mt 
(Elements Swapped) s
5556 4964 mt 
(Elements Swapped) s

end %%Color Dict

eplot
%%EndObject

epage
end

showpage

%%Trailer
%%EOF
