%!PS-Adobe-3.0 EPSF-3.0
%%Creator: MATLAB, The MathWorks, Inc. Version 8.2.0.701 (R2013b). Operating System: Microsoft Windows 8.
%%Title: D:\journal\12plots\Swap.eps
%%CreationDate: 09/05/2015  19:26:31
%%DocumentNeededFonts: Helvetica
%%+ Helvetica-Bold
%%DocumentProcessColors: Cyan Magenta Yellow Black
%%LanguageLevel: 2
%%Pages: 1
%%BoundingBox:  -138   192   733   649
%%EndComments

%%BeginProlog
% MathWorks dictionary
/MathWorks 160 dict begin
% definition operators
/bdef {bind def} bind def
/ldef {load def} bind def
/xdef {exch def} bdef
/xstore {exch store} bdef
% operator abbreviations
/c  /clip ldef
/cc /concat ldef
/cp /closepath ldef
/gr /grestore ldef
/gs /gsave ldef
/mt /moveto ldef
/np /newpath ldef
/cm /currentmatrix ldef
/sm /setmatrix ldef
/rm /rmoveto ldef
/rl /rlineto ldef
/s {show newpath} bdef
/sc {setcmykcolor} bdef
/sr /setrgbcolor ldef
/sg /setgray ldef
/w /setlinewidth ldef
/j /setlinejoin ldef
/cap /setlinecap ldef
/rc {rectclip} bdef
/rf {rectfill} bdef
% page state control
/pgsv () def
/bpage {/pgsv save def} bdef
/epage {pgsv restore} bdef
/bplot /gsave ldef
/eplot {stroke grestore} bdef
% orientation switch
/portraitMode 0 def /landscapeMode 1 def /rotateMode 2 def
% coordinate system mappings
/dpi2point 0 def
% font control
/FontSize 0 def
/FMS {/FontSize xstore findfont [FontSize 0 0 FontSize neg 0 0]
  makefont setfont} bdef
/ISOLatin1Encoding where {pop /WindowsLatin1Encoding 256 array bdef
ISOLatin1Encoding WindowsLatin1Encoding copy pop
/.notdef/.notdef/quotesinglbase/florin/quotedblbase/ellipsis/dagger
/daggerdbl/circumflex/perthousand/Scaron/guilsinglleft/OE/.notdef/.notdef
/.notdef/.notdef/quoteleft/quoteright/quotedblleft/quotedblright/bullet
/endash/emdash/tilde/trademark/scaron/guilsinglright/oe/.notdef/.notdef
/Ydieresis WindowsLatin1Encoding 128 32 getinterval astore pop}
{/WindowsLatin1Encoding StandardEncoding bdef} ifelse
/reencode {exch dup where {pop load} {pop StandardEncoding} ifelse
  exch dup 3 1 roll findfont dup length dict begin
  { 1 index /FID ne {def}{pop pop} ifelse } forall
  /Encoding exch def currentdict end definefont pop} bdef
/isroman {findfont /CharStrings get /Agrave known} bdef
/FMSR {3 1 roll 1 index dup isroman {reencode} {pop pop} ifelse
  exch FMS} bdef
/csm {1 dpi2point div -1 dpi2point div scale neg translate
 dup landscapeMode eq {pop -90 rotate}
  {rotateMode eq {90 rotate} if} ifelse} bdef
% line types: solid, dotted, dashed, dotdash
/SO { [] 0 setdash } bdef
/DO { [.5 dpi2point mul 4 dpi2point mul] 0 setdash } bdef
/DA { [6 dpi2point mul] 0 setdash } bdef
/DD { [.5 dpi2point mul 4 dpi2point mul 6 dpi2point mul 4
  dpi2point mul] 0 setdash } bdef
% macros for lines and objects
/L {lineto stroke} bdef
/MP {3 1 roll moveto 1 sub {rlineto} repeat} bdef
/AP {{rlineto} repeat} bdef
/PDlw -1 def
/W {/PDlw currentlinewidth def setlinewidth} def
/PP {closepath eofill} bdef
/DP {closepath stroke} bdef
/MR {4 -2 roll moveto dup  0 exch rlineto exch 0 rlineto
  neg 0 exch rlineto closepath} bdef
/FR {MR stroke} bdef
/PR {MR fill} bdef
/L1i {{currentfile picstr readhexstring pop} image} bdef
/tMatrix matrix def
/MakeOval {newpath tMatrix currentmatrix pop translate scale
0 0 1 0 360 arc tMatrix setmatrix} bdef
/FO {MakeOval stroke} bdef
/PO {MakeOval fill} bdef
/PD {currentlinewidth 2 div 0 360 arc fill
   PDlw -1 eq not {PDlw w /PDlw -1 def} if} def
/FA {newpath tMatrix currentmatrix pop translate scale
  0 0 1 5 -2 roll arc tMatrix setmatrix stroke} bdef
/PA {newpath tMatrix currentmatrix pop	translate 0 0 moveto scale
  0 0 1 5 -2 roll arc closepath tMatrix setmatrix fill} bdef
/FAn {newpath tMatrix currentmatrix pop translate scale
  0 0 1 5 -2 roll arcn tMatrix setmatrix stroke} bdef
/PAn {newpath tMatrix currentmatrix pop translate 0 0 moveto scale
  0 0 1 5 -2 roll arcn closepath tMatrix setmatrix fill} bdef
/vradius 0 def /hradius 0 def /lry 0 def
/lrx 0 def /uly 0 def /ulx 0 def /rad 0 def
/MRR {/vradius xdef /hradius xdef /lry xdef /lrx xdef /uly xdef
  /ulx xdef newpath tMatrix currentmatrix pop ulx hradius add uly
  vradius add translate hradius vradius scale 0 0 1 180 270 arc 
  tMatrix setmatrix lrx hradius sub uly vradius add translate
  hradius vradius scale 0 0 1 270 360 arc tMatrix setmatrix
  lrx hradius sub lry vradius sub translate hradius vradius scale
  0 0 1 0 90 arc tMatrix setmatrix ulx hradius add lry vradius sub
  translate hradius vradius scale 0 0 1 90 180 arc tMatrix setmatrix
  closepath} bdef
/FRR {MRR stroke } bdef
/PRR {MRR fill } bdef
/MlrRR {/lry xdef /lrx xdef /uly xdef /ulx xdef /rad lry uly sub 2 div def
  newpath tMatrix currentmatrix pop ulx rad add uly rad add translate
  rad rad scale 0 0 1 90 270 arc tMatrix setmatrix lrx rad sub lry rad
  sub translate rad rad scale 0 0 1 270 90 arc tMatrix setmatrix
  closepath} bdef
/FlrRR {MlrRR stroke } bdef
/PlrRR {MlrRR fill } bdef
/MtbRR {/lry xdef /lrx xdef /uly xdef /ulx xdef /rad lrx ulx sub 2 div def
  newpath tMatrix currentmatrix pop ulx rad add uly rad add translate
  rad rad scale 0 0 1 180 360 arc tMatrix setmatrix lrx rad sub lry rad
  sub translate rad rad scale 0 0 1 0 180 arc tMatrix setmatrix
  closepath} bdef
/FtbRR {MtbRR stroke } bdef
/PtbRR {MtbRR fill } bdef
/stri 6 array def /dtri 6 array def
/smat 6 array def /dmat 6 array def
/tmat1 6 array def /tmat2 6 array def /dif 3 array def
/asub {/ind2 exch def /ind1 exch def dup dup
  ind1 get exch ind2 get sub exch } bdef
/tri_to_matrix {
  2 0 asub 3 1 asub 4 0 asub 5 1 asub
  dup 0 get exch 1 get 7 -1 roll astore } bdef
/compute_transform {
  dmat dtri tri_to_matrix tmat1 invertmatrix 
  smat stri tri_to_matrix tmat2 concatmatrix } bdef
/ds {stri astore pop} bdef
/dt {dtri astore pop} bdef
/db {2 copy /cols xdef /rows xdef mul dup 3 mul string
  currentfile 
  3 index 0 eq {/ASCIIHexDecode filter}
  {/ASCII85Decode filter 3 index 2 eq {/RunLengthDecode filter} if }
  ifelse exch readstring pop
  dup 0 3 index getinterval /rbmap xdef
  dup 2 index dup getinterval /gbmap xdef
  1 index dup 2 mul exch getinterval /bbmap xdef pop pop}bdef
/it {gs np dtri aload pop moveto lineto lineto cp c
  cols rows 8 compute_transform 
  rbmap gbmap bbmap true 3 colorimage gr}bdef
/il {newpath moveto lineto stroke}bdef
currentdict end def
%%EndProlog

%%BeginSetup
MathWorks begin

0 cap

end
%%EndSetup

%%Page: 1 1
%%BeginPageSetup
%%PageBoundingBox:  -138   192   733   649
MathWorks begin
bpage
%%EndPageSetup

%%BeginObject: obj1
bplot

/dpi2point 12 def
portraitMode -1656 7788 csm

    0     0 10457  5474 rc
95 dict begin %Colortable dictionary
/c0 { 0.000000 0.000000 0.000000 sr} bdef
/c1 { 1.000000 1.000000 1.000000 sr} bdef
/c2 { 0.900000 0.000000 0.000000 sr} bdef
/c3 { 0.000000 0.820000 0.000000 sr} bdef
/c4 { 0.000000 0.000000 0.800000 sr} bdef
/c5 { 0.910000 0.820000 0.320000 sr} bdef
/c6 { 1.000000 0.260000 0.820000 sr} bdef
/c7 { 0.000000 0.820000 0.820000 sr} bdef
c0
1 j
1 sg
   0    0 10458 5475 rf
6 w
0 1916 3719 0 0 -1916 325 2193 4 MP
PP
-3719 0 0 1916 3719 0 0 -1916 325 2193 5 MP stroke
4 w
DO
0 sg
 325 2193 mt  325  277 L
 325  277 mt  325  277 L
 789 2193 mt  789  277 L
 789  277 mt  789  277 L
1254 2193 mt 1254  277 L
1254  277 mt 1254  277 L
1719 2193 mt 1719  277 L
1719  277 mt 1719  277 L
2184 2193 mt 2184  277 L
2184  277 mt 2184  277 L
2649 2193 mt 2649  277 L
2649  277 mt 2649  277 L
3114 2193 mt 3114  277 L
3114  277 mt 3114  277 L
3579 2193 mt 3579  277 L
3579  277 mt 3579  277 L
4044 2193 mt 4044  277 L
4044  277 mt 4044  277 L
 325 2193 mt 4044 2193 L
4044 2193 mt 4044 2193 L
 325 1714 mt 4044 1714 L
4044 1714 mt 4044 1714 L
 325 1235 mt 4044 1235 L
4044 1235 mt 4044 1235 L
 325  756 mt 4044  756 L
4044  756 mt 4044  756 L
 325  277 mt 4044  277 L
4044  277 mt 4044  277 L
SO
6 w
 325  277 mt 4044  277 L
 325 2193 mt 4044 2193 L
4044 2193 mt 4044  277 L
 325 2193 mt  325  277 L
 325 2193 mt 4044 2193 L
 325 2193 mt  325  277 L
 325 2193 mt  325 2155 L
 325  277 mt  325  314 L
%%IncludeResource: font Helvetica
/Helvetica /WindowsLatin1Encoding 120 FMSR

 259 2338 mt 
(10) s
 789 2193 mt  789 2155 L
 789  277 mt  789  314 L
 723 2338 mt 
(20) s
1254 2193 mt 1254 2155 L
1254  277 mt 1254  314 L
1188 2338 mt 
(30) s
1719 2193 mt 1719 2155 L
1719  277 mt 1719  314 L
1653 2338 mt 
(40) s
2184 2193 mt 2184 2155 L
2184  277 mt 2184  314 L
2118 2338 mt 
(50) s
2649 2193 mt 2649 2155 L
2649  277 mt 2649  314 L
2583 2338 mt 
(60) s
3114 2193 mt 3114 2155 L
3114  277 mt 3114  314 L
3048 2338 mt 
(70) s
3579 2193 mt 3579 2155 L
3579  277 mt 3579  314 L
3513 2338 mt 
(80) s
4044 2193 mt 4044 2155 L
4044  277 mt 4044  314 L
3978 2338 mt 
(90) s
 325 2193 mt  362 2193 L
4044 2193 mt 4006 2193 L
 224 2237 mt 
(0) s
 325 1714 mt  362 1714 L
4044 1714 mt 4006 1714 L
 157 1758 mt 
(50) s
 325 1235 mt  362 1235 L
4044 1235 mt 4006 1235 L
  90 1279 mt 
(100) s
 325  756 mt  362  756 L
4044  756 mt 4006  756 L
  90  800 mt 
(150) s
 325  277 mt  362  277 L
4044  277 mt 4006  277 L
  90  321 mt 
(200) s
 325  277 mt 4044  277 L
 325 2193 mt 4044 2193 L
4044 2193 mt 4044  277 L
 325 2193 mt  325  277 L
gs 325 277 3720 1917 rc
18 w
/c8 { 0.000000 0.000000 1.000000 sr} bdef
c8
465 97 465 42 465 79 465 86 465 -149 465 109 465 116 464 9 
325 1665 9 MP stroke
gr

18 w
c8
gs 233 1573 3904 574 rc
  36   36  325 1665 FO
  36   36  789 1674 FO
  36   36 1254 1790 FO
  36   36 1719 1899 FO
  36   36 2184 1750 FO
  36   36 2649 1836 FO
  36   36 3114 1915 FO
  36   36 3579 1957 FO
  36   36 4044 2054 FO
gr

gs 325 277 3720 1917 rc
gr

0 sg
%%IncludeResource: font Helvetica-Bold
/Helvetica-Bold /WindowsLatin1Encoding 120 FMSR

1247  128 mt 
(Time to reach feasible region \(D) s
%%IncludeResource: font Helvetica-Bold
/Helvetica-Bold /WindowsLatin1Encoding 96 FMSR

3063  188 mt 
(f) s
%%IncludeResource: font Helvetica-Bold
/Helvetica-Bold /WindowsLatin1Encoding 120 FMSR

3094  128 mt 
(\)) s
gs 325 277 3720 1917 rc
DO
/c9 { 1.000000 0.000000 0.000000 sr} bdef
c9
465 401 465 267 465 -421 465 -42 465 552 465 -86 465 253 464 79 
325 976 9 MP stroke
gr

c9
DO
gs 233 884 3904 1188 rc
SO
0 j
41 71 -82 0 41 -71 325 1023 4 MP
DP
41 71 -82 0 41 -71 789 1102 4 MP
DP
41 71 -82 0 41 -71 1254 1355 4 MP
DP
41 71 -82 0 41 -71 1719 1269 4 MP
DP
41 71 -82 0 41 -71 2184 1821 4 MP
DP
41 71 -82 0 41 -71 2649 1779 4 MP
DP
41 71 -82 0 41 -71 3114 1358 4 MP
DP
41 71 -82 0 41 -71 3579 1625 4 MP
DP
41 71 -82 0 41 -71 4044 2026 4 MP
DP
DO
gr

gs 325 277 3720 1917 rc
DD
/c10 { 0.000000 1.000000 0.000000 sr} bdef
c10
465 -9 465 28 465 44 465 -37 465 -27 465 43 465 23 464 0 
325 2057 9 MP stroke
gr

c10
DD
gs 233 1965 3904 259 rc
SO
 300 2032 mt  350 2082 L
 350 2032 mt  300 2082 L
 764 2032 mt  814 2082 L
 814 2032 mt  764 2082 L
1229 2055 mt 1279 2105 L
1279 2055 mt 1229 2105 L
1694 2098 mt 1744 2148 L
1744 2098 mt 1694 2148 L
2159 2071 mt 2209 2121 L
2209 2071 mt 2159 2121 L
2624 2034 mt 2674 2084 L
2674 2034 mt 2624 2084 L
3089 2078 mt 3139 2128 L
3139 2078 mt 3089 2128 L
3554 2106 mt 3604 2156 L
3604 2106 mt 3554 2156 L
4019 2097 mt 4069 2147 L
4069 2097 mt 4019 2147 L
DD
gr

gs 325 277 3720 1917 rc
DA
/c11 { 0.000000 0.000000 0.172414 sr} bdef
c11
465 -20 465 11 465 -17 465 43 465 38 465 -2 465 61 464 42 
325 1873 9 MP stroke
gr

c11
DA
gs 233 1781 3904 367 rc
SO
 289 1873 mt  361 1873 L
 325 1837 mt  325 1909 L
 753 1915 mt  825 1915 L
 789 1879 mt  789 1951 L
1218 1976 mt 1290 1976 L
1254 1940 mt 1254 2012 L
1683 1974 mt 1755 1974 L
1719 1938 mt 1719 2010 L
2148 2012 mt 2220 2012 L
2184 1976 mt 2184 2048 L
2613 2055 mt 2685 2055 L
2649 2019 mt 2649 2091 L
3078 2038 mt 3150 2038 L
3114 2002 mt 3114 2074 L
3543 2049 mt 3615 2049 L
3579 2013 mt 3579 2085 L
4008 2029 mt 4080 2029 L
4044 1993 mt 4044 2065 L
 300 1848 mt  350 1898 L
 350 1848 mt  300 1898 L
 764 1890 mt  814 1940 L
 814 1890 mt  764 1940 L
1229 1951 mt 1279 2001 L
1279 1951 mt 1229 2001 L
1694 1949 mt 1744 1999 L
1744 1949 mt 1694 1999 L
2159 1987 mt 2209 2037 L
2209 1987 mt 2159 2037 L
2624 2030 mt 2674 2080 L
2674 2030 mt 2624 2080 L
3089 2013 mt 3139 2063 L
3139 2013 mt 3089 2063 L
3554 2024 mt 3604 2074 L
3604 2024 mt 3554 2074 L
4019 2004 mt 4069 2054 L
4069 2004 mt 4019 2054 L
DA
gr

gs 325 277 3720 1917 rc
SO
/c12 { 1.000000 0.103448 0.724138 sr} bdef
c12
465 0 465 -2 465 14 465 -25 465 0 465 -2 465 20 464 -14 
325 2072 9 MP stroke
gr

c12
SO
gs 233 1959 3904 212 rc
0 j
0 -58 -58 0 0 58 58 0 296 2043 5 MP
DP
0 -58 -58 0 0 58 58 0 760 2029 5 MP
DP
0 -58 -58 0 0 58 58 0 1225 2049 5 MP
DP
0 -58 -58 0 0 58 58 0 1690 2047 5 MP
DP
0 -58 -58 0 0 58 58 0 2155 2047 5 MP
DP
0 -58 -58 0 0 58 58 0 2620 2022 5 MP
DP
0 -58 -58 0 0 58 58 0 3085 2036 5 MP
DP
0 -58 -58 0 0 58 58 0 3550 2034 5 MP
DP
0 -58 -58 0 0 58 58 0 4015 2034 5 MP
DP
gr

gs 325 277 3720 1917 rc
DO
/c13 { 1.000000 0.827586 0.000000 sr} bdef
c13
465 42 465 47 465 -49 465 104 465 -37 465 114 465 159 464 -67 
325 1758 9 MP stroke
gr

c13
DO
gs 233 1599 3904 565 rc
SO
0 j
36 47 -36 47 -36 -47 36 -47 325 1805 5 MP
DP
36 47 -36 47 -36 -47 36 -47 789 1738 5 MP
DP
36 47 -36 47 -36 -47 36 -47 1254 1897 5 MP
DP
36 47 -36 47 -36 -47 36 -47 1719 2011 5 MP
DP
36 47 -36 47 -36 -47 36 -47 2184 1974 5 MP
DP
36 47 -36 47 -36 -47 36 -47 2649 2078 5 MP
DP
36 47 -36 47 -36 -47 36 -47 3114 2029 5 MP
DP
36 47 -36 47 -36 -47 36 -47 3579 2076 5 MP
DP
36 47 -36 47 -36 -47 36 -47 4044 2118 5 MP
DP
DO
gr

gs 325 277 3720 1917 rc
DD
/c14 { 0.000000 0.344828 0.000000 sr} bdef
c14
465 181 465 33 465 -86 465 115 465 269 465 -4 465 313 464 -90 
325 1255 9 MP stroke
gr

c14
DD
gs 233 1073 3904 1006 rc
SO
24 W
325 1255 PD
24 W
789 1165 PD
24 W
1254 1478 PD
24 W
1719 1474 PD
24 W
2184 1743 PD
24 W
2649 1858 PD
24 W
3114 1772 PD
24 W
3579 1805 PD
24 W
4044 1986 PD
DD
gr

gs 325 277 3720 1917 rc
DA
/c15 { 0.517241 0.517241 1.000000 sr} bdef
c15
465 -70 465 98 465 5 465 -15 465 209 465 -140 465 159 464 54 
325 1614 9 MP stroke
gr

c15
DA
gs 233 1522 3904 555 rc
SO
0 j
-41 71 -41 -71 82 0 284 1638 4 MP
DP
-41 71 -41 -71 82 0 748 1692 4 MP
DP
-41 71 -41 -71 82 0 1213 1851 4 MP
DP
-41 71 -41 -71 82 0 1678 1711 4 MP
DP
-41 71 -41 -71 82 0 2143 1920 4 MP
DP
-41 71 -41 -71 82 0 2608 1905 4 MP
DP
-41 71 -41 -71 82 0 3073 1910 4 MP
DP
-41 71 -41 -71 82 0 3538 2008 4 MP
DP
-41 71 -41 -71 82 0 4003 1938 4 MP
DP
DA
gr

gs 325 277 3720 1917 rc
SO
/c16 { 0.620690 0.310345 0.275862 sr} bdef
c16
465 -149 465 -101 465 -23 465 304 465 -48 465 -32 465 218 464 189 
325 1050 9 MP stroke
gr

c16
SO
gs 233 958 3904 816 rc
0 j
-71 41 0 -82 71 41 278 1050 4 MP
DP
-71 41 0 -82 71 41 742 1239 4 MP
DP
-71 41 0 -82 71 41 1207 1457 4 MP
DP
-71 41 0 -82 71 41 1672 1425 4 MP
DP
-71 41 0 -82 71 41 2137 1377 4 MP
DP
-71 41 0 -82 71 41 2602 1681 4 MP
DP
-71 41 0 -82 71 41 3067 1658 4 MP
DP
-71 41 0 -82 71 41 3532 1557 4 MP
DP
-71 41 0 -82 71 41 3997 1408 4 MP
DP
gr

gs 325 277 3720 1917 rc
DO
/c17 { 0.000000 1.000000 0.758621 sr} bdef
c17
465 -52 465 110 465 -35 465 138 465 -100 465 124 465 58 464 143 
325 1685 9 MP stroke
gr

c17
DO
gs 233 1593 3904 623 rc
SO
0 j
0 82 -71 -41 71 -41 301 1726 4 MP
DP
0 82 -71 -41 71 -41 765 1869 4 MP
DP
0 82 -71 -41 71 -41 1230 1927 4 MP
DP
0 82 -71 -41 71 -41 1695 2051 4 MP
DP
0 82 -71 -41 71 -41 2160 1951 4 MP
DP
0 82 -71 -41 71 -41 2625 2089 4 MP
DP
0 82 -71 -41 71 -41 3090 2054 4 MP
DP
0 82 -71 -41 71 -41 3555 2164 4 MP
DP
0 82 -71 -41 71 -41 4020 2112 4 MP
DP
DO
gr

gs 325 277 3720 1917 rc
SO
/c18 { 0.000000 0.517241 0.586207 sr} bdef
c18
465 304 465 -299 465 -189 465 231 465 59 465 586 465 -112 464 170 
325 1079 9 MP stroke
gr

c18
SO
gs 233 987 3904 1119 rc
0 j
-21 -16 8 -25 -22 15 -21 -15 8 25 -21 16 26 0 8 24 
9 -24 26 0 290 1067 11 MP
DP
-21 -16 8 -25 -22 15 -21 -15 8 25 -21 16 26 0 8 24 
9 -24 26 0 754 1237 11 MP
DP
-21 -16 8 -25 -22 15 -21 -15 8 25 -21 16 26 0 8 24 
9 -24 26 0 1219 1125 11 MP
DP
-21 -16 8 -25 -22 15 -21 -15 8 25 -21 16 26 0 8 24 
9 -24 26 0 1684 1711 11 MP
DP
-21 -16 8 -25 -22 15 -21 -15 8 25 -21 16 26 0 8 24 
9 -24 26 0 2149 1770 11 MP
DP
-21 -16 8 -25 -22 15 -21 -15 8 25 -21 16 26 0 8 24 
9 -24 26 0 2614 2001 11 MP
DP
-21 -16 8 -25 -22 15 -21 -15 8 25 -21 16 26 0 8 24 
9 -24 26 0 3079 1812 11 MP
DP
-21 -16 8 -25 -22 15 -21 -15 8 25 -21 16 26 0 8 24 
9 -24 26 0 3544 1513 11 MP
DP
-21 -16 8 -25 -22 15 -21 -15 8 25 -21 16 26 0 8 24 
9 -24 26 0 4009 1817 11 MP
DP
gr

gs 325 277 3720 1917 rc
DO
/c19 { 0.000000 0.000000 0.482759 sr} bdef
c19
465 -152 465 404 465 230 465 -270 465 252 465 235 465 143 464 223 
325 748 9 MP stroke
gr

c19
DO
gs 233 656 3904 1402 rc
SO
0 j
-13 -18 13 -18 -21 0 -10 -18 -10 18 -21 0 13 18 -13 18 
21 0 10 18 10 -18 21 0 294 730 13 MP
DP
-13 -18 13 -18 -21 0 -10 -18 -10 18 -21 0 13 18 -13 18 
21 0 10 18 10 -18 21 0 758 953 13 MP
DP
-13 -18 13 -18 -21 0 -10 -18 -10 18 -21 0 13 18 -13 18 
21 0 10 18 10 -18 21 0 1223 1096 13 MP
DP
-13 -18 13 -18 -21 0 -10 -18 -10 18 -21 0 13 18 -13 18 
21 0 10 18 10 -18 21 0 1688 1331 13 MP
DP
-13 -18 13 -18 -21 0 -10 -18 -10 18 -21 0 13 18 -13 18 
21 0 10 18 10 -18 21 0 2153 1583 13 MP
DP
-13 -18 13 -18 -21 0 -10 -18 -10 18 -21 0 13 18 -13 18 
21 0 10 18 10 -18 21 0 2618 1313 13 MP
DP
-13 -18 13 -18 -21 0 -10 -18 -10 18 -21 0 13 18 -13 18 
21 0 10 18 10 -18 21 0 3083 1543 13 MP
DP
-13 -18 13 -18 -21 0 -10 -18 -10 18 -21 0 13 18 -13 18 
21 0 10 18 10 -18 21 0 3548 1947 13 MP
DP
-13 -18 13 -18 -21 0 -10 -18 -10 18 -21 0 13 18 -13 18 
21 0 10 18 10 -18 21 0 4013 1795 13 MP
DP
DO
gr

gs 325 277 3720 1917 rc
SO
6 w
gr

6 w
SO
1 sg
0 1916 4026 0 0 -1916 4530 2202 4 MP
PP
-4026 0 0 1916 4026 0 0 -1916 4530 2202 5 MP stroke
4 w
DO
0 sg
4530 2202 mt 4530  286 L
4530  286 mt 4530  286 L
5033 2202 mt 5033  286 L
5033  286 mt 5033  286 L
5536 2202 mt 5536  286 L
5536  286 mt 5536  286 L
6039 2202 mt 6039  286 L
6039  286 mt 6039  286 L
6543 2202 mt 6543  286 L
6543  286 mt 6543  286 L
7046 2202 mt 7046  286 L
7046  286 mt 7046  286 L
7549 2202 mt 7549  286 L
7549  286 mt 7549  286 L
8052 2202 mt 8052  286 L
8052  286 mt 8052  286 L
8556 2202 mt 8556  286 L
8556  286 mt 8556  286 L
4530 2202 mt 8556 2202 L
8556 2202 mt 8556 2202 L
4530 1723 mt 8556 1723 L
8556 1723 mt 8556 1723 L
4530 1244 mt 8556 1244 L
8556 1244 mt 8556 1244 L
4530  764 mt 8556  764 L
8556  764 mt 8556  764 L
4530  286 mt 8556  286 L
8556  286 mt 8556  286 L
SO
6 w
4530  286 mt 8556  286 L
4530 2202 mt 8556 2202 L
8556 2202 mt 8556  286 L
4530 2202 mt 4530  286 L
4530 2202 mt 8556 2202 L
4530 2202 mt 4530  286 L
4530 2202 mt 4530 2161 L
4530  286 mt 4530  326 L
%%IncludeResource: font Helvetica
/Helvetica /WindowsLatin1Encoding 120 FMSR

4464 2347 mt 
(10) s
5033 2202 mt 5033 2161 L
5033  286 mt 5033  326 L
4967 2347 mt 
(20) s
5536 2202 mt 5536 2161 L
5536  286 mt 5536  326 L
5470 2347 mt 
(30) s
6039 2202 mt 6039 2161 L
6039  286 mt 6039  326 L
5973 2347 mt 
(40) s
6543 2202 mt 6543 2161 L
6543  286 mt 6543  326 L
6477 2347 mt 
(50) s
7046 2202 mt 7046 2161 L
7046  286 mt 7046  326 L
6980 2347 mt 
(60) s
7549 2202 mt 7549 2161 L
7549  286 mt 7549  326 L
7483 2347 mt 
(70) s
8052 2202 mt 8052 2161 L
8052  286 mt 8052  326 L
7986 2347 mt 
(80) s
8556 2202 mt 8556 2161 L
8556  286 mt 8556  326 L
8490 2347 mt 
(90) s
4530 2202 mt 4570 2202 L
8556 2202 mt 8515 2202 L
4429 2246 mt 
(0) s
4530 1723 mt 4570 1723 L
8556 1723 mt 8515 1723 L
4262 1767 mt 
(0.05) s
4530 1244 mt 4570 1244 L
8556 1244 mt 8515 1244 L
4329 1288 mt 
(0.1) s
4530  764 mt 4570  764 L
8556  764 mt 8515  764 L
4262  808 mt 
(0.15) s
4530  286 mt 4570  286 L
8556  286 mt 8515  286 L
4329  330 mt 
(0.2) s
4530  286 mt 8556  286 L
4530 2202 mt 8556 2202 L
8556 2202 mt 8556  286 L
4530 2202 mt 4530  286 L
gs 4530 286 4027 1917 rc
18 w
c8
504 -7 503 -18 503 0 503 0 504 0 503 0 503 0 503 0 
4530 2201 9 MP stroke
gr

18 w
c8
gs 4438 2084 4211 210 rc
  36   36 4530 2201 FO
  36   36 5033 2201 FO
  36   36 5536 2201 FO
  36   36 6039 2201 FO
  36   36 6543 2201 FO
  36   36 7046 2201 FO
  36   36 7549 2201 FO
  36   36 8052 2183 FO
  36   36 8556 2176 FO
gr

gs 4530 286 4027 1917 rc
gr

0 sg
%%IncludeResource: font Helvetica-Bold
/Helvetica-Bold /WindowsLatin1Encoding 120 FMSR

5870  191 mt 
(Wilcoxon rank sum test) s
gs 4530 286 4027 1917 rc
DO
c9
504 -1753 503 -1 503 32 503 9 504 -41 503 0 503 0 503 0 
4530 2201 9 MP stroke
gr

c9
DO
gs 4438 355 4211 1939 rc
SO
0 j
41 71 -82 0 41 -71 4530 2248 4 MP
DP
41 71 -82 0 41 -71 5033 2248 4 MP
DP
41 71 -82 0 41 -71 5536 2248 4 MP
DP
41 71 -82 0 41 -71 6039 2248 4 MP
DP
41 71 -82 0 41 -71 6543 2207 4 MP
DP
41 71 -82 0 41 -71 7046 2216 4 MP
DP
41 71 -82 0 41 -71 7549 2248 4 MP
DP
41 71 -82 0 41 -71 8052 2247 4 MP
DP
41 71 -82 0 41 -71 8556 494 4 MP
DP
DO
gr

gs 4530 286 4027 1917 rc
DD
c10
504 0 503 0 503 0 503 0 504 0 503 0 503 0 503 0 
4530 2201 9 MP stroke
gr

c10
DD
gs 4438 2109 4211 185 rc
SO
4505 2176 mt 4555 2226 L
4555 2176 mt 4505 2226 L
5008 2176 mt 5058 2226 L
5058 2176 mt 5008 2226 L
5511 2176 mt 5561 2226 L
5561 2176 mt 5511 2226 L
6014 2176 mt 6064 2226 L
6064 2176 mt 6014 2226 L
6518 2176 mt 6568 2226 L
6568 2176 mt 6518 2226 L
7021 2176 mt 7071 2226 L
7071 2176 mt 7021 2226 L
7524 2176 mt 7574 2226 L
7574 2176 mt 7524 2226 L
8027 2176 mt 8077 2226 L
8077 2176 mt 8027 2226 L
8531 2176 mt 8581 2226 L
8581 2176 mt 8531 2226 L
DD
gr

gs 4530 286 4027 1917 rc
DA
c11
504 0 503 0 503 0 503 0 504 0 503 0 503 0 503 0 
4530 2201 9 MP stroke
gr

c11
DA
gs 4438 2109 4211 185 rc
SO
4494 2201 mt 4566 2201 L
4530 2165 mt 4530 2237 L
4997 2201 mt 5069 2201 L
5033 2165 mt 5033 2237 L
5500 2201 mt 5572 2201 L
5536 2165 mt 5536 2237 L
6003 2201 mt 6075 2201 L
6039 2165 mt 6039 2237 L
6507 2201 mt 6579 2201 L
6543 2165 mt 6543 2237 L
7010 2201 mt 7082 2201 L
7046 2165 mt 7046 2237 L
7513 2201 mt 7585 2201 L
7549 2165 mt 7549 2237 L
8016 2201 mt 8088 2201 L
8052 2165 mt 8052 2237 L
8520 2201 mt 8592 2201 L
8556 2165 mt 8556 2237 L
4505 2176 mt 4555 2226 L
4555 2176 mt 4505 2226 L
5008 2176 mt 5058 2226 L
5058 2176 mt 5008 2226 L
5511 2176 mt 5561 2226 L
5561 2176 mt 5511 2226 L
6014 2176 mt 6064 2226 L
6064 2176 mt 6014 2226 L
6518 2176 mt 6568 2226 L
6568 2176 mt 6518 2226 L
7021 2176 mt 7071 2226 L
7071 2176 mt 7021 2226 L
7524 2176 mt 7574 2226 L
7574 2176 mt 7524 2226 L
8027 2176 mt 8077 2226 L
8077 2176 mt 8027 2226 L
8531 2176 mt 8581 2226 L
8581 2176 mt 8531 2226 L
DA
gr

gs 4530 286 4027 1917 rc
SO
c12
504 0 503 0 503 0 503 0 504 0 503 0 503 0 503 0 
4530 2201 9 MP stroke
gr

c12
SO
gs 4438 2109 4211 185 rc
0 j
0 -58 -58 0 0 58 58 0 4501 2172 5 MP
DP
0 -58 -58 0 0 58 58 0 5004 2172 5 MP
DP
0 -58 -58 0 0 58 58 0 5507 2172 5 MP
DP
0 -58 -58 0 0 58 58 0 6010 2172 5 MP
DP
0 -58 -58 0 0 58 58 0 6514 2172 5 MP
DP
0 -58 -58 0 0 58 58 0 7017 2172 5 MP
DP
0 -58 -58 0 0 58 58 0 7520 2172 5 MP
DP
0 -58 -58 0 0 58 58 0 8023 2172 5 MP
DP
0 -58 -58 0 0 58 58 0 8527 2172 5 MP
DP
gr

gs 4530 286 4027 1917 rc
DO
c13
504 -638 503 -17 503 164 503 -168 504 2 503 -2 503 0 503 0 
4530 2201 9 MP stroke
gr

c13
DO
gs 4438 1450 4211 844 rc
SO
0 j
36 47 -36 47 -36 -47 36 -47 4530 2248 5 MP
DP
36 47 -36 47 -36 -47 36 -47 5033 2248 5 MP
DP
36 47 -36 47 -36 -47 36 -47 5536 2248 5 MP
DP
36 47 -36 47 -36 -47 36 -47 6039 2246 5 MP
DP
36 47 -36 47 -36 -47 36 -47 6543 2248 5 MP
DP
36 47 -36 47 -36 -47 36 -47 7046 2080 5 MP
DP
36 47 -36 47 -36 -47 36 -47 7549 2244 5 MP
DP
36 47 -36 47 -36 -47 36 -47 8052 2227 5 MP
DP
36 47 -36 47 -36 -47 36 -47 8556 1589 5 MP
DP
DO
gr

gs 4530 286 4027 1917 rc
DD
c14
504 -1110 503 0 503 62 503 -137 504 -21 503 0 503 0 503 0 
4530 2201 9 MP stroke
gr

c14
DD
gs 4438 903 4211 1391 rc
SO
24 W
4530 2201 PD
24 W
5033 2201 PD
24 W
5536 2201 PD
24 W
6039 2201 PD
24 W
6543 2180 PD
24 W
7046 2043 PD
24 W
7549 2105 PD
24 W
8052 2105 PD
24 W
8556 995 PD
DD
gr

gs 4530 286 4027 1917 rc
DA
c15
504 2 503 -2 503 0 503 0 504 0 503 0 503 0 503 0 
4530 2201 9 MP stroke
gr

c15
DA
gs 4438 2107 4211 187 rc
SO
0 j
-41 71 -41 -71 82 0 4489 2225 4 MP
DP
-41 71 -41 -71 82 0 4992 2225 4 MP
DP
-41 71 -41 -71 82 0 5495 2225 4 MP
DP
-41 71 -41 -71 82 0 5998 2225 4 MP
DP
-41 71 -41 -71 82 0 6502 2225 4 MP
DP
-41 71 -41 -71 82 0 7005 2225 4 MP
DP
-41 71 -41 -71 82 0 7508 2225 4 MP
DP
-41 71 -41 -71 82 0 8011 2223 4 MP
DP
-41 71 -41 -71 82 0 8515 2225 4 MP
DP
DA
gr

gs 4530 286 4027 1917 rc
SO
c16
504 0 503 4 503 2 503 -6 504 0 503 0 503 0 503 0 
4530 2201 9 MP stroke
gr

c16
SO
gs 4438 2103 4211 191 rc
0 j
-71 41 0 -82 71 41 4483 2201 4 MP
DP
-71 41 0 -82 71 41 4986 2201 4 MP
DP
-71 41 0 -82 71 41 5489 2201 4 MP
DP
-71 41 0 -82 71 41 5992 2201 4 MP
DP
-71 41 0 -82 71 41 6496 2201 4 MP
DP
-71 41 0 -82 71 41 6999 2195 4 MP
DP
-71 41 0 -82 71 41 7502 2197 4 MP
DP
-71 41 0 -82 71 41 8005 2201 4 MP
DP
-71 41 0 -82 71 41 8509 2201 4 MP
DP
gr

gs 4530 286 4027 1917 rc
DO
c17
504 230 503 -280 503 -32 503 -38 504 6 503 -10 503 0 503 0 
4530 2201 9 MP stroke
gr

c17
DO
gs 4438 1755 4211 539 rc
SO
0 j
0 82 -71 -41 71 -41 4506 2242 4 MP
DP
0 82 -71 -41 71 -41 5009 2242 4 MP
DP
0 82 -71 -41 71 -41 5512 2242 4 MP
DP
0 82 -71 -41 71 -41 6015 2232 4 MP
DP
0 82 -71 -41 71 -41 6519 2238 4 MP
DP
0 82 -71 -41 71 -41 7022 2200 4 MP
DP
0 82 -71 -41 71 -41 7525 2168 4 MP
DP
0 82 -71 -41 71 -41 8028 1888 4 MP
DP
0 82 -71 -41 71 -41 8532 2118 4 MP
DP
DO
gr

gs 4530 286 4027 1917 rc
SO
c18
504 -578 503 165 503 1246 503 -1309 504 -94 503 -8 503 0 503 0 
4530 2201 9 MP stroke
gr

c18
SO
gs 4438 698 4211 1596 rc
0 j
-21 -16 8 -25 -22 15 -21 -15 8 25 -21 16 26 0 8 24 
9 -24 26 0 4495 2189 11 MP
DP
-21 -16 8 -25 -22 15 -21 -15 8 25 -21 16 26 0 8 24 
9 -24 26 0 4998 2189 11 MP
DP
-21 -16 8 -25 -22 15 -21 -15 8 25 -21 16 26 0 8 24 
9 -24 26 0 5501 2189 11 MP
DP
-21 -16 8 -25 -22 15 -21 -15 8 25 -21 16 26 0 8 24 
9 -24 26 0 6004 2181 11 MP
DP
-21 -16 8 -25 -22 15 -21 -15 8 25 -21 16 26 0 8 24 
9 -24 26 0 6508 2087 11 MP
DP
-21 -16 8 -25 -22 15 -21 -15 8 25 -21 16 26 0 8 24 
9 -24 26 0 7011 778 11 MP
DP
-21 -16 8 -25 -22 15 -21 -15 8 25 -21 16 26 0 8 24 
9 -24 26 0 7514 2024 11 MP
DP
-21 -16 8 -25 -22 15 -21 -15 8 25 -21 16 26 0 8 24 
9 -24 26 0 8017 2189 11 MP
DP
-21 -16 8 -25 -22 15 -21 -15 8 25 -21 16 26 0 8 24 
9 -24 26 0 8521 1611 11 MP
DP
gr

gs 4530 286 4027 1917 rc
DO
c19
504 222 503 -459 503 -12 503 18 504 -16 503 -2 503 0 503 0 
4530 2201 9 MP stroke
gr

c19
DO
gs 4438 1638 4211 656 rc
SO
0 j
-13 -18 13 -18 -21 0 -10 -18 -10 18 -21 0 13 18 -13 18 
21 0 10 18 10 -18 21 0 4499 2183 13 MP
DP
-13 -18 13 -18 -21 0 -10 -18 -10 18 -21 0 13 18 -13 18 
21 0 10 18 10 -18 21 0 5002 2183 13 MP
DP
-13 -18 13 -18 -21 0 -10 -18 -10 18 -21 0 13 18 -13 18 
21 0 10 18 10 -18 21 0 5505 2183 13 MP
DP
-13 -18 13 -18 -21 0 -10 -18 -10 18 -21 0 13 18 -13 18 
21 0 10 18 10 -18 21 0 6008 2181 13 MP
DP
-13 -18 13 -18 -21 0 -10 -18 -10 18 -21 0 13 18 -13 18 
21 0 10 18 10 -18 21 0 6512 2165 13 MP
DP
-13 -18 13 -18 -21 0 -10 -18 -10 18 -21 0 13 18 -13 18 
21 0 10 18 10 -18 21 0 7015 2183 13 MP
DP
-13 -18 13 -18 -21 0 -10 -18 -10 18 -21 0 13 18 -13 18 
21 0 10 18 10 -18 21 0 7518 2171 13 MP
DP
-13 -18 13 -18 -21 0 -10 -18 -10 18 -21 0 13 18 -13 18 
21 0 10 18 10 -18 21 0 8021 1712 13 MP
DP
-13 -18 13 -18 -21 0 -10 -18 -10 18 -21 0 13 18 -13 18 
21 0 10 18 10 -18 21 0 8525 1934 13 MP
DP
DO
gr

gs 4530 286 4027 1917 rc
SO
6 w
gr

6 w
SO
1 sg
0 1915 3729 0 0 -1915 351 4602 4 MP
PP
-3729 0 0 1915 3729 0 0 -1915 351 4602 5 MP stroke
4 w
DO
0 sg
 351 4602 mt  351 2687 L
 351 2687 mt  351 2687 L
 817 4602 mt  817 2687 L
 817 2687 mt  817 2687 L
1283 4602 mt 1283 2687 L
1283 2687 mt 1283 2687 L
1749 4602 mt 1749 2687 L
1749 2687 mt 1749 2687 L
2215 4602 mt 2215 2687 L
2215 2687 mt 2215 2687 L
2681 4602 mt 2681 2687 L
2681 2687 mt 2681 2687 L
3147 4602 mt 3147 2687 L
3147 2687 mt 3147 2687 L
3613 4602 mt 3613 2687 L
3613 2687 mt 3613 2687 L
4080 4602 mt 4080 2687 L
4080 2687 mt 4080 2687 L
 351 4602 mt 4080 4602 L
4080 4602 mt 4080 4602 L
 351 4328 mt 4080 4328 L
4080 4328 mt 4080 4328 L
 351 4054 mt 4080 4054 L
4080 4054 mt 4080 4054 L
 351 3781 mt 4080 3781 L
4080 3781 mt 4080 3781 L
 351 3507 mt 4080 3507 L
4080 3507 mt 4080 3507 L
 351 3234 mt 4080 3234 L
4080 3234 mt 4080 3234 L
 351 2960 mt 4080 2960 L
4080 2960 mt 4080 2960 L
 351 2687 mt 4080 2687 L
4080 2687 mt 4080 2687 L
SO
6 w
 351 2687 mt 4080 2687 L
 351 4602 mt 4080 4602 L
4080 4602 mt 4080 2687 L
 351 4602 mt  351 2687 L
 351 4602 mt 4080 4602 L
 351 4602 mt  351 2687 L
 351 4602 mt  351 4564 L
 351 2687 mt  351 2724 L
%%IncludeResource: font Helvetica
/Helvetica /WindowsLatin1Encoding 120 FMSR

 285 4747 mt 
(10) s
 817 4602 mt  817 4564 L
 817 2687 mt  817 2724 L
 751 4747 mt 
(20) s
1283 4602 mt 1283 4564 L
1283 2687 mt 1283 2724 L
1217 4747 mt 
(30) s
1749 4602 mt 1749 4564 L
1749 2687 mt 1749 2724 L
1683 4747 mt 
(40) s
2215 4602 mt 2215 4564 L
2215 2687 mt 2215 2724 L
2149 4747 mt 
(50) s
2681 4602 mt 2681 4564 L
2681 2687 mt 2681 2724 L
2615 4747 mt 
(60) s
3147 4602 mt 3147 4564 L
3147 2687 mt 3147 2724 L
3081 4747 mt 
(70) s
3613 4602 mt 3613 4564 L
3613 2687 mt 3613 2724 L
3547 4747 mt 
(80) s
4080 4602 mt 4080 4564 L
4080 2687 mt 4080 2724 L
4014 4747 mt 
(90) s
 351 4602 mt  388 4602 L
4080 4602 mt 4042 4602 L
 113 4646 mt 
(-20) s
 351 4328 mt  388 4328 L
4080 4328 mt 4042 4328 L
 113 4372 mt 
(-15) s
 351 4054 mt  388 4054 L
4080 4054 mt 4042 4054 L
 113 4098 mt 
(-10) s
 351 3781 mt  388 3781 L
4080 3781 mt 4042 3781 L
 180 3825 mt 
(-5) s
 351 3507 mt  388 3507 L
4080 3507 mt 4042 3507 L
 250 3551 mt 
(0) s
 351 3234 mt  388 3234 L
4080 3234 mt 4042 3234 L
 250 3278 mt 
(5) s
 351 2960 mt  388 2960 L
4080 2960 mt 4042 2960 L
 183 3004 mt 
(10) s
 351 2687 mt  388 2687 L
4080 2687 mt 4042 2687 L
 183 2731 mt 
(15) s
 351 2687 mt 4080 2687 L
 351 4602 mt 4080 4602 L
4080 4602 mt 4080 2687 L
 351 4602 mt  351 2687 L
gs 351 2687 3730 1916 rc
18 w
c8
467 42 466 62 466 53 466 73 466 95 466 107 466 117 466 160 
351 3256 9 MP stroke
gr

18 w
c8
gs 259 3164 3914 894 rc
  36   36  351 3256 FO
  36   36  817 3416 FO
  36   36 1283 3533 FO
  36   36 1749 3640 FO
  36   36 2215 3735 FO
  36   36 2681 3808 FO
  36   36 3147 3861 FO
  36   36 3613 3923 FO
  36   36 4080 3965 FO
gr

gs 351 2687 3730 1916 rc
gr

0 sg
%%IncludeResource: font Helvetica-Bold
/Helvetica-Bold /WindowsLatin1Encoding 120 FMSR

1633 2538 mt 
(Solution Quality \(D) s
%%IncludeResource: font Helvetica-Bold
/Helvetica-Bold /WindowsLatin1Encoding 96 FMSR

2713 2598 mt 
(s) s
%%IncludeResource: font Helvetica-Bold
/Helvetica-Bold /WindowsLatin1Encoding 120 FMSR

2766 2538 mt 
(\)) s
gs 351 2687 3730 1916 rc
DO
c9
467 151 466 122 466 212 466 116 466 194 466 228 466 301 466 322 
351 2862 9 MP stroke
gr

c9
DO
gs 259 2770 3914 1831 rc
SO
0 j
41 71 -82 0 41 -71 351 2909 4 MP
DP
41 71 -82 0 41 -71 817 3231 4 MP
DP
41 71 -82 0 41 -71 1283 3532 4 MP
DP
41 71 -82 0 41 -71 1749 3760 4 MP
DP
41 71 -82 0 41 -71 2215 3954 4 MP
DP
41 71 -82 0 41 -71 2681 4070 4 MP
DP
41 71 -82 0 41 -71 3147 4282 4 MP
DP
41 71 -82 0 41 -71 3613 4404 4 MP
DP
41 71 -82 0 41 -71 4080 4555 4 MP
DP
DO
gr

gs 351 2687 3730 1916 rc
DD
c10
467 0 466 11 466 27 466 2 466 24 466 14 466 17 466 25 
351 3504 9 MP stroke
gr

c10
DD
gs 259 3412 3914 305 rc
SO
 326 3479 mt  376 3529 L
 376 3479 mt  326 3529 L
 792 3504 mt  842 3554 L
 842 3504 mt  792 3554 L
1258 3521 mt 1308 3571 L
1308 3521 mt 1258 3571 L
1724 3535 mt 1774 3585 L
1774 3535 mt 1724 3585 L
2190 3559 mt 2240 3609 L
2240 3559 mt 2190 3609 L
2656 3561 mt 2706 3611 L
2706 3561 mt 2656 3611 L
3122 3588 mt 3172 3638 L
3172 3588 mt 3122 3638 L
3588 3599 mt 3638 3649 L
3638 3599 mt 3588 3649 L
4055 3599 mt 4105 3649 L
4105 3599 mt 4055 3649 L
DD
gr

gs 351 2687 3730 1916 rc
DA
c11
467 34 466 26 466 25 466 44 466 0 466 60 466 51 466 44 
351 3398 9 MP stroke
gr

c11
DA
gs 259 3306 3914 469 rc
SO
 315 3398 mt  387 3398 L
 351 3362 mt  351 3434 L
 781 3442 mt  853 3442 L
 817 3406 mt  817 3478 L
1247 3493 mt 1319 3493 L
1283 3457 mt 1283 3529 L
1713 3553 mt 1785 3553 L
1749 3517 mt 1749 3589 L
2179 3553 mt 2251 3553 L
2215 3517 mt 2215 3589 L
2645 3597 mt 2717 3597 L
2681 3561 mt 2681 3633 L
3111 3622 mt 3183 3622 L
3147 3586 mt 3147 3658 L
3577 3648 mt 3649 3648 L
3613 3612 mt 3613 3684 L
4044 3682 mt 4116 3682 L
4080 3646 mt 4080 3718 L
 326 3373 mt  376 3423 L
 376 3373 mt  326 3423 L
 792 3417 mt  842 3467 L
 842 3417 mt  792 3467 L
1258 3468 mt 1308 3518 L
1308 3468 mt 1258 3518 L
1724 3528 mt 1774 3578 L
1774 3528 mt 1724 3578 L
2190 3528 mt 2240 3578 L
2240 3528 mt 2190 3578 L
2656 3572 mt 2706 3622 L
2706 3572 mt 2656 3622 L
3122 3597 mt 3172 3647 L
3172 3597 mt 3122 3647 L
3588 3623 mt 3638 3673 L
3638 3623 mt 3588 3673 L
4055 3657 mt 4105 3707 L
4105 3657 mt 4055 3707 L
DA
gr

gs 351 2687 3730 1916 rc
SO
c12
467 -3 466 2 466 0 466 0 466 1 466 -3 466 2 466 -2 
351 3507 9 MP stroke
gr

c12
SO
gs 259 3412 3914 188 rc
0 j
0 -58 -58 0 0 58 58 0 322 3478 5 MP
DP
0 -58 -58 0 0 58 58 0 788 3476 5 MP
DP
0 -58 -58 0 0 58 58 0 1254 3478 5 MP
DP
0 -58 -58 0 0 58 58 0 1720 3475 5 MP
DP
0 -58 -58 0 0 58 58 0 2186 3476 5 MP
DP
0 -58 -58 0 0 58 58 0 2652 3476 5 MP
DP
0 -58 -58 0 0 58 58 0 3118 3476 5 MP
DP
0 -58 -58 0 0 58 58 0 3584 3478 5 MP
DP
0 -58 -58 0 0 58 58 0 4051 3475 5 MP
DP
gr

gs 351 2687 3730 1916 rc
DO
c13
467 25 466 30 466 63 466 52 466 51 466 87 466 89 466 114 
351 3370 9 MP stroke
gr

c13
DO
gs 259 3278 3914 696 rc
SO
0 j
36 47 -36 47 -36 -47 36 -47 351 3417 5 MP
DP
36 47 -36 47 -36 -47 36 -47 817 3531 5 MP
DP
36 47 -36 47 -36 -47 36 -47 1283 3620 5 MP
DP
36 47 -36 47 -36 -47 36 -47 1749 3707 5 MP
DP
36 47 -36 47 -36 -47 36 -47 2215 3758 5 MP
DP
36 47 -36 47 -36 -47 36 -47 2681 3810 5 MP
DP
36 47 -36 47 -36 -47 36 -47 3147 3873 5 MP
DP
36 47 -36 47 -36 -47 36 -47 3613 3903 5 MP
DP
36 47 -36 47 -36 -47 36 -47 4080 3928 5 MP
DP
DO
gr

gs 351 2687 3730 1916 rc
DD
c14
467 92 466 45 466 115 466 120 466 163 466 180 466 150 466 279 
351 3042 9 MP stroke
gr

c14
DD
gs 259 2950 3914 1329 rc
SO
24 W
351 3042 PD
24 W
817 3321 PD
24 W
1283 3471 PD
24 W
1749 3651 PD
24 W
2215 3814 PD
24 W
2681 3934 PD
24 W
3147 4049 PD
24 W
3613 4094 PD
24 W
4080 4186 PD
DD
gr

gs 351 2687 3730 1916 rc
DA
c15
467 28 466 29 466 49 466 27 466 30 466 85 466 57 466 44 
351 3350 9 MP stroke
gr

c15
DA
gs 259 3258 3914 534 rc
SO
0 j
-41 71 -41 -71 82 0 310 3374 4 MP
DP
-41 71 -41 -71 82 0 776 3418 4 MP
DP
-41 71 -41 -71 82 0 1242 3475 4 MP
DP
-41 71 -41 -71 82 0 1708 3560 4 MP
DP
-41 71 -41 -71 82 0 2174 3590 4 MP
DP
-41 71 -41 -71 82 0 2640 3617 4 MP
DP
-41 71 -41 -71 82 0 3106 3666 4 MP
DP
-41 71 -41 -71 82 0 3572 3695 4 MP
DP
-41 71 -41 -71 82 0 4039 3723 4 MP
DP
DA
gr

gs 351 2687 3730 1916 rc
SO
c16
467 94 466 22 466 95 466 75 466 95 466 144 466 100 466 162 
351 2997 9 MP stroke
gr

c16
SO
gs 259 2905 3914 972 rc
0 j
-71 41 0 -82 71 41 304 2997 4 MP
DP
-71 41 0 -82 71 41 770 3159 4 MP
DP
-71 41 0 -82 71 41 1236 3259 4 MP
DP
-71 41 0 -82 71 41 1702 3403 4 MP
DP
-71 41 0 -82 71 41 2168 3498 4 MP
DP
-71 41 0 -82 71 41 2634 3573 4 MP
DP
-71 41 0 -82 71 41 3100 3668 4 MP
DP
-71 41 0 -82 71 41 3566 3690 4 MP
DP
-71 41 0 -82 71 41 4033 3784 4 MP
DP
gr

gs 351 2687 3730 1916 rc
DO
c17
467 14 466 26 466 16 466 27 466 37 466 42 466 51 466 95 
351 3414 9 MP stroke
gr

c17
DO
gs 259 3322 3914 493 rc
SO
0 j
0 82 -71 -41 71 -41 327 3455 4 MP
DP
0 82 -71 -41 71 -41 793 3550 4 MP
DP
0 82 -71 -41 71 -41 1259 3601 4 MP
DP
0 82 -71 -41 71 -41 1725 3643 4 MP
DP
0 82 -71 -41 71 -41 2191 3680 4 MP
DP
0 82 -71 -41 71 -41 2657 3707 4 MP
DP
0 82 -71 -41 71 -41 3123 3723 4 MP
DP
0 82 -71 -41 71 -41 3589 3749 4 MP
DP
0 82 -71 -41 71 -41 4056 3763 4 MP
DP
DO
gr

gs 351 2687 3730 1916 rc
SO
c18
467 62 466 80 466 57 466 95 466 76 466 133 466 112 466 140 
351 3241 9 MP stroke
gr

c18
SO
gs 259 3149 3914 940 rc
0 j
-21 -16 8 -25 -22 15 -21 -15 8 25 -21 16 26 0 8 24 
9 -24 26 0 316 3229 11 MP
DP
-21 -16 8 -25 -22 15 -21 -15 8 25 -21 16 26 0 8 24 
9 -24 26 0 782 3369 11 MP
DP
-21 -16 8 -25 -22 15 -21 -15 8 25 -21 16 26 0 8 24 
9 -24 26 0 1248 3481 11 MP
DP
-21 -16 8 -25 -22 15 -21 -15 8 25 -21 16 26 0 8 24 
9 -24 26 0 1714 3614 11 MP
DP
-21 -16 8 -25 -22 15 -21 -15 8 25 -21 16 26 0 8 24 
9 -24 26 0 2180 3690 11 MP
DP
-21 -16 8 -25 -22 15 -21 -15 8 25 -21 16 26 0 8 24 
9 -24 26 0 2646 3785 11 MP
DP
-21 -16 8 -25 -22 15 -21 -15 8 25 -21 16 26 0 8 24 
9 -24 26 0 3112 3842 11 MP
DP
-21 -16 8 -25 -22 15 -21 -15 8 25 -21 16 26 0 8 24 
9 -24 26 0 3578 3922 11 MP
DP
-21 -16 8 -25 -22 15 -21 -15 8 25 -21 16 26 0 8 24 
9 -24 26 0 4045 3984 11 MP
DP
gr

gs 351 2687 3730 1916 rc
DO
c19
467 64 466 31 466 44 466 32 466 48 466 96 466 84 466 137 
351 3314 9 MP stroke
gr

c19
DO
gs 259 3222 3914 721 rc
SO
0 j
-13 -18 13 -18 -21 0 -10 -18 -10 18 -21 0 13 18 -13 18 
21 0 10 18 10 -18 21 0 320 3296 13 MP
DP
-13 -18 13 -18 -21 0 -10 -18 -10 18 -21 0 13 18 -13 18 
21 0 10 18 10 -18 21 0 786 3433 13 MP
DP
-13 -18 13 -18 -21 0 -10 -18 -10 18 -21 0 13 18 -13 18 
21 0 10 18 10 -18 21 0 1252 3517 13 MP
DP
-13 -18 13 -18 -21 0 -10 -18 -10 18 -21 0 13 18 -13 18 
21 0 10 18 10 -18 21 0 1718 3613 13 MP
DP
-13 -18 13 -18 -21 0 -10 -18 -10 18 -21 0 13 18 -13 18 
21 0 10 18 10 -18 21 0 2184 3661 13 MP
DP
-13 -18 13 -18 -21 0 -10 -18 -10 18 -21 0 13 18 -13 18 
21 0 10 18 10 -18 21 0 2650 3693 13 MP
DP
-13 -18 13 -18 -21 0 -10 -18 -10 18 -21 0 13 18 -13 18 
21 0 10 18 10 -18 21 0 3116 3737 13 MP
DP
-13 -18 13 -18 -21 0 -10 -18 -10 18 -21 0 13 18 -13 18 
21 0 10 18 10 -18 21 0 3582 3768 13 MP
DP
-13 -18 13 -18 -21 0 -10 -18 -10 18 -21 0 13 18 -13 18 
21 0 10 18 10 -18 21 0 4049 3832 13 MP
DP
DO
gr

gs 351 2687 3730 1916 rc
SO
6 w
gr

6 w
SO
1 sg
0 1915 4026 0 0 -1915 4548 4647 4 MP
PP
-4026 0 0 1915 4026 0 0 -1915 4548 4647 5 MP stroke
4 w
DO
0 sg
4548 4647 mt 4548 2732 L
4548 2732 mt 4548 2732 L
5051 4647 mt 5051 2732 L
5051 2732 mt 5051 2732 L
5554 4647 mt 5554 2732 L
5554 2732 mt 5554 2732 L
6057 4647 mt 6057 2732 L
6057 2732 mt 6057 2732 L
6561 4647 mt 6561 2732 L
6561 2732 mt 6561 2732 L
7064 4647 mt 7064 2732 L
7064 2732 mt 7064 2732 L
7567 4647 mt 7567 2732 L
7567 2732 mt 7567 2732 L
8070 4647 mt 8070 2732 L
8070 2732 mt 8070 2732 L
8574 4647 mt 8574 2732 L
8574 2732 mt 8574 2732 L
4548 4647 mt 8574 4647 L
8574 4647 mt 8574 4647 L
4548 4264 mt 8574 4264 L
8574 4264 mt 8574 4264 L
4548 3881 mt 8574 3881 L
8574 3881 mt 8574 3881 L
4548 3498 mt 8574 3498 L
8574 3498 mt 8574 3498 L
4548 3115 mt 8574 3115 L
8574 3115 mt 8574 3115 L
4548 2732 mt 8574 2732 L
8574 2732 mt 8574 2732 L
SO
6 w
4548 2732 mt 8574 2732 L
4548 4647 mt 8574 4647 L
8574 4647 mt 8574 2732 L
4548 4647 mt 4548 2732 L
4548 4647 mt 8574 4647 L
4548 4647 mt 4548 2732 L
4548 4647 mt 4548 4606 L
4548 2732 mt 4548 2772 L
%%IncludeResource: font Helvetica
/Helvetica /WindowsLatin1Encoding 120 FMSR

4482 4792 mt 
(10) s
5051 4647 mt 5051 4606 L
5051 2732 mt 5051 2772 L
4985 4792 mt 
(20) s
5554 4647 mt 5554 4606 L
5554 2732 mt 5554 2772 L
5488 4792 mt 
(30) s
6057 4647 mt 6057 4606 L
6057 2732 mt 6057 2772 L
5991 4792 mt 
(40) s
6561 4647 mt 6561 4606 L
6561 2732 mt 6561 2772 L
6495 4792 mt 
(50) s
7064 4647 mt 7064 4606 L
7064 2732 mt 7064 2772 L
6998 4792 mt 
(60) s
7567 4647 mt 7567 4606 L
7567 2732 mt 7567 2772 L
7501 4792 mt 
(70) s
8070 4647 mt 8070 4606 L
8070 2732 mt 8070 2772 L
8004 4792 mt 
(80) s
8574 4647 mt 8574 4606 L
8574 2732 mt 8574 2772 L
8508 4792 mt 
(90) s
4548 4647 mt 4588 4647 L
8574 4647 mt 8533 4647 L
4447 4691 mt 
(0) s
4548 4264 mt 4588 4264 L
8574 4264 mt 8533 4264 L
4347 4308 mt 
(0.2) s
4548 3881 mt 4588 3881 L
8574 3881 mt 8533 3881 L
4347 3925 mt 
(0.4) s
4548 3498 mt 4588 3498 L
8574 3498 mt 8533 3498 L
4347 3542 mt 
(0.6) s
4548 3115 mt 4588 3115 L
8574 3115 mt 8533 3115 L
4347 3159 mt 
(0.8) s
4548 2732 mt 4588 2732 L
8574 2732 mt 8533 2732 L
4447 2776 mt 
(1) s
4548 2732 mt 8574 2732 L
4548 4647 mt 8574 4647 L
8574 4647 mt 8574 2732 L
4548 4647 mt 4548 2732 L
gs 4548 2732 4027 1916 rc
18 w
c8
504 0 503 0 503 0 503 0 504 0 503 138 503 -138 503 0 
4548 4646 9 MP stroke
gr

18 w
c8
gs 4456 4416 4211 323 rc
  36   36 4548 4646 FO
  36   36 5051 4646 FO
  36   36 5554 4508 FO
  36   36 6057 4646 FO
  36   36 6561 4646 FO
  36   36 7064 4646 FO
  36   36 7567 4646 FO
  36   36 8070 4646 FO
  36   36 8574 4646 FO
gr

gs 4548 2732 4027 1916 rc
gr

0 sg
%%IncludeResource: font Helvetica-Bold
/Helvetica-Bold /WindowsLatin1Encoding 120 FMSR

5888 2637 mt 
(Wilcoxon rank sum test) s
gs 4548 2732 4027 1916 rc
DO
c9
504 0 503 0 503 0 503 0 504 0 503 735 503 -735 503 0 
4548 4646 9 MP stroke
gr

c9
DO
gs 4456 3819 4211 920 rc
SO
0 j
41 71 -82 0 41 -71 4548 4693 4 MP
DP
41 71 -82 0 41 -71 5051 4693 4 MP
DP
41 71 -82 0 41 -71 5554 3958 4 MP
DP
41 71 -82 0 41 -71 6057 4693 4 MP
DP
41 71 -82 0 41 -71 6561 4693 4 MP
DP
41 71 -82 0 41 -71 7064 4693 4 MP
DP
41 71 -82 0 41 -71 7567 4693 4 MP
DP
41 71 -82 0 41 -71 8070 4693 4 MP
DP
41 71 -82 0 41 -71 8574 4693 4 MP
DP
DO
gr

gs 4548 2732 4027 1916 rc
DD
c10
504 0 503 0 503 0 503 0 504 0 503 0 503 7 503 1192 
4548 3447 9 MP stroke
gr

c10
DD
gs 4456 3355 4211 1384 rc
SO
4523 3422 mt 4573 3472 L
4573 3422 mt 4523 3472 L
5026 4614 mt 5076 4664 L
5076 4614 mt 5026 4664 L
5529 4621 mt 5579 4671 L
5579 4621 mt 5529 4671 L
6032 4621 mt 6082 4671 L
6082 4621 mt 6032 4671 L
6536 4621 mt 6586 4671 L
6586 4621 mt 6536 4671 L
7039 4621 mt 7089 4671 L
7089 4621 mt 7039 4671 L
7542 4621 mt 7592 4671 L
7592 4621 mt 7542 4671 L
8045 4621 mt 8095 4671 L
8095 4621 mt 8045 4671 L
8549 4621 mt 8599 4671 L
8599 4621 mt 8549 4671 L
DD
gr

gs 4548 2732 4027 1916 rc
DA
c11
504 0 503 0 503 0 503 0 504 0 503 190 503 -190 503 0 
4548 4646 9 MP stroke
gr

c11
DA
gs 4456 4364 4211 375 rc
SO
4512 4646 mt 4584 4646 L
4548 4610 mt 4548 4682 L
5015 4646 mt 5087 4646 L
5051 4610 mt 5051 4682 L
5518 4456 mt 5590 4456 L
5554 4420 mt 5554 4492 L
6021 4646 mt 6093 4646 L
6057 4610 mt 6057 4682 L
6525 4646 mt 6597 4646 L
6561 4610 mt 6561 4682 L
7028 4646 mt 7100 4646 L
7064 4610 mt 7064 4682 L
7531 4646 mt 7603 4646 L
7567 4610 mt 7567 4682 L
8034 4646 mt 8106 4646 L
8070 4610 mt 8070 4682 L
8538 4646 mt 8610 4646 L
8574 4610 mt 8574 4682 L
4523 4621 mt 4573 4671 L
4573 4621 mt 4523 4671 L
5026 4621 mt 5076 4671 L
5076 4621 mt 5026 4671 L
5529 4431 mt 5579 4481 L
5579 4431 mt 5529 4481 L
6032 4621 mt 6082 4671 L
6082 4621 mt 6032 4671 L
6536 4621 mt 6586 4671 L
6586 4621 mt 6536 4671 L
7039 4621 mt 7089 4671 L
7089 4621 mt 7039 4671 L
7542 4621 mt 7592 4671 L
7592 4621 mt 7542 4671 L
8045 4621 mt 8095 4671 L
8095 4621 mt 8045 4671 L
8549 4621 mt 8599 4671 L
8599 4621 mt 8549 4671 L
DA
gr

gs 4548 2732 4027 1916 rc
SO
c12
5051 4007 PD
gr

c12
SO
gs 4959 3915 3708 517 rc
0 j
0 -58 -58 0 0 58 58 0 5022 3978 5 MP
DP
gr

gs 4548 2732 4027 1916 rc
503 0 503 0 504 -332 6057 4339 4 MP stroke
gr

gs 4959 3915 3708 517 rc
0 j
0 -58 -58 0 0 58 58 0 6028 4310 5 MP
DP
0 -58 -58 0 0 58 58 0 6532 3978 5 MP
DP
0 -58 -58 0 0 58 58 0 7035 3978 5 MP
DP
0 -58 -58 0 0 58 58 0 7538 3978 5 MP
DP
gr

gs 4548 2732 4027 1916 rc
8574 4339 PD
gr

gs 4959 3915 3708 517 rc
0 j
0 -58 -58 0 0 58 58 0 8545 4310 5 MP
DP
gr

gs 4548 2732 4027 1916 rc
DO
c13
504 0 503 0 503 0 503 0 504 0 503 0 503 70 503 -70 
4548 4646 9 MP stroke
gr

c13
DO
gs 4456 4484 4211 255 rc
SO
0 j
36 47 -36 47 -36 -47 36 -47 4548 4693 5 MP
DP
36 47 -36 47 -36 -47 36 -47 5051 4623 5 MP
DP
36 47 -36 47 -36 -47 36 -47 5554 4693 5 MP
DP
36 47 -36 47 -36 -47 36 -47 6057 4693 5 MP
DP
36 47 -36 47 -36 -47 36 -47 6561 4693 5 MP
DP
36 47 -36 47 -36 -47 36 -47 7064 4693 5 MP
DP
36 47 -36 47 -36 -47 36 -47 7567 4693 5 MP
DP
36 47 -36 47 -36 -47 36 -47 8070 4693 5 MP
DP
36 47 -36 47 -36 -47 36 -47 8574 4693 5 MP
DP
DO
gr

gs 4548 2732 4027 1916 rc
DD
c14
504 0 503 0 503 0 503 0 504 0 503 170 503 -170 503 0 
4548 4646 9 MP stroke
gr

c14
DD
gs 4456 4384 4211 355 rc
SO
24 W
4548 4646 PD
24 W
5051 4646 PD
24 W
5554 4476 PD
24 W
6057 4646 PD
24 W
6561 4646 PD
24 W
7064 4646 PD
24 W
7567 4646 PD
24 W
8070 4646 PD
24 W
8574 4646 PD
DD
gr

gs 4548 2732 4027 1916 rc
DA
c15
504 0 503 0 503 0 503 0 504 46 503 -46 503 0 503 0 
4548 4646 9 MP stroke
gr

c15
DA
gs 4456 4508 4211 231 rc
SO
0 j
-41 71 -41 -71 82 0 4507 4670 4 MP
DP
-41 71 -41 -71 82 0 5010 4670 4 MP
DP
-41 71 -41 -71 82 0 5513 4670 4 MP
DP
-41 71 -41 -71 82 0 6016 4624 4 MP
DP
-41 71 -41 -71 82 0 6520 4670 4 MP
DP
-41 71 -41 -71 82 0 7023 4670 4 MP
DP
-41 71 -41 -71 82 0 7526 4670 4 MP
DP
-41 71 -41 -71 82 0 8029 4670 4 MP
DP
-41 71 -41 -71 82 0 8533 4670 4 MP
DP
DA
gr

gs 4548 2732 4027 1916 rc
SO
c16
504 0 503 0 503 7 503 597 504 -604 503 0 503 0 503 0 
4548 4646 9 MP stroke
gr

c16
SO
gs 4456 3950 4211 789 rc
0 j
-71 41 0 -82 71 41 4501 4646 4 MP
DP
-71 41 0 -82 71 41 5004 4646 4 MP
DP
-71 41 0 -82 71 41 5507 4646 4 MP
DP
-71 41 0 -82 71 41 6010 4646 4 MP
DP
-71 41 0 -82 71 41 6514 4042 4 MP
DP
-71 41 0 -82 71 41 7017 4639 4 MP
DP
-71 41 0 -82 71 41 7520 4646 4 MP
DP
-71 41 0 -82 71 41 8023 4646 4 MP
DP
-71 41 0 -82 71 41 8527 4646 4 MP
DP
gr

gs 4548 2732 4027 1916 rc
DO
c17
504 0 503 0 503 0 503 0 504 0 503 0 503 1837 503 -1837 
4548 4646 9 MP stroke
gr

c17
DO
gs 4456 2717 4211 2022 rc
SO
0 j
0 82 -71 -41 71 -41 4524 4687 4 MP
DP
0 82 -71 -41 71 -41 5027 2850 4 MP
DP
0 82 -71 -41 71 -41 5530 4687 4 MP
DP
0 82 -71 -41 71 -41 6033 4687 4 MP
DP
0 82 -71 -41 71 -41 6537 4687 4 MP
DP
0 82 -71 -41 71 -41 7040 4687 4 MP
DP
0 82 -71 -41 71 -41 7543 4687 4 MP
DP
0 82 -71 -41 71 -41 8046 4687 4 MP
DP
0 82 -71 -41 71 -41 8550 4687 4 MP
DP
DO
gs 4548 2732 4027 1916 rc
SO
c18
504 0 503 0 503 0 503 0 504 0 503 854 503 -854 503 0 
4548 4646 9 MP stroke
gr

c18
SO
gs 4456 3700 4211 1039 rc
-21 -16 8 -25 -22 15 -21 -15 8 25 -21 16 26 0 8 24 
9 -24 26 0 4513 4634 11 MP
DP
-21 -16 8 -25 -22 15 -21 -15 8 25 -21 16 26 0 8 24 
9 -24 26 0 5016 4634 11 MP
DP
-21 -16 8 -25 -22 15 -21 -15 8 25 -21 16 26 0 8 24 
9 -24 26 0 5519 3780 11 MP
DP
-21 -16 8 -25 -22 15 -21 -15 8 25 -21 16 26 0 8 24 
9 -24 26 0 6022 4634 11 MP
DP
-21 -16 8 -25 -22 15 -21 -15 8 25 -21 16 26 0 8 24 
9 -24 26 0 6526 4634 11 MP
DP
-21 -16 8 -25 -22 15 -21 -15 8 25 -21 16 26 0 8 24 
9 -24 26 0 7029 4634 11 MP
DP
-21 -16 8 -25 -22 15 -21 -15 8 25 -21 16 26 0 8 24 
9 -24 26 0 7532 4634 11 MP
DP
-21 -16 8 -25 -22 15 -21 -15 8 25 -21 16 26 0 8 24 
9 -24 26 0 8035 4634 11 MP
DP
-21 -16 8 -25 -22 15 -21 -15 8 25 -21 16 26 0 8 24 
9 -24 26 0 8539 4634 11 MP
DP
gr

gs 4548 2732 4027 1916 rc
DO
c19
504 0 503 0 503 0 503 0 504 0 503 844 503 -833 503 -11 
4548 4646 9 MP stroke
gr

c19
DO
gs 4456 3710 4211 1029 rc
SO
-13 -18 13 -18 -21 0 -10 -18 -10 18 -21 0 13 18 -13 18 
21 0 10 18 10 -18 21 0 4517 4628 13 MP
DP
-13 -18 13 -18 -21 0 -10 -18 -10 18 -21 0 13 18 -13 18 
21 0 10 18 10 -18 21 0 5020 4617 13 MP
DP
-13 -18 13 -18 -21 0 -10 -18 -10 18 -21 0 13 18 -13 18 
21 0 10 18 10 -18 21 0 5523 3784 13 MP
DP
-13 -18 13 -18 -21 0 -10 -18 -10 18 -21 0 13 18 -13 18 
21 0 10 18 10 -18 21 0 6026 4628 13 MP
DP
-13 -18 13 -18 -21 0 -10 -18 -10 18 -21 0 13 18 -13 18 
21 0 10 18 10 -18 21 0 6530 4628 13 MP
DP
-13 -18 13 -18 -21 0 -10 -18 -10 18 -21 0 13 18 -13 18 
21 0 10 18 10 -18 21 0 7033 4628 13 MP
DP
-13 -18 13 -18 -21 0 -10 -18 -10 18 -21 0 13 18 -13 18 
21 0 10 18 10 -18 21 0 7536 4628 13 MP
DP
-13 -18 13 -18 -21 0 -10 -18 -10 18 -21 0 13 18 -13 18 
21 0 10 18 10 -18 21 0 8039 4628 13 MP
DP
-13 -18 13 -18 -21 0 -10 -18 -10 18 -21 0 13 18 -13 18 
21 0 10 18 10 -18 21 0 8543 4628 13 MP
DP
DO
gr

gs 4548 2732 4027 1916 rc
gr
gr

c19
0 sg
%%IncludeResource: font Helvetica
/Helvetica /WindowsLatin1Encoding 120 FMSR

4531 4690 mt 
( ) s
8558 2774 mt 
( ) s
SO
6 w
1 sg
0 2058 936 0 0 -2058 8758 3298 4 MP
PP
-936 0 0 2058 936 0 0 -2058 8758 3298 5 MP stroke
4 w
DO
SO
6 w
0 sg
8758 1240 mt 9694 1240 L
8758 3298 mt 9694 3298 L
9694 3298 mt 9694 1240 L
8758 3298 mt 8758 1240 L
8758 3298 mt 9694 3298 L
8758 3298 mt 8758 1240 L
8758 1240 mt 9694 1240 L
8758 3298 mt 9694 3298 L
9694 3298 mt 9694 1240 L
8758 3298 mt 8758 1240 L
9227 1387 mt 
(scpnrh4) s
gs 8758 1240 937 2059 rc
18 w
c8
360 0 8830 1345 2 MP stroke
gs 8918 1253 185 185 rc
  36   36 9010 1345 FO
gr

gr

18 w
c8
0 sg
9227 1555 mt 
(scpnrg3) s
gs 8758 1240 937 2059 rc
DO
c9
360 0 8830 1512 2 MP stroke
SO
gs 8918 1420 185 185 rc
0 j
41 71 -82 0 41 -71 9010 1559 4 MP
DP
gr

gr

c9
0 sg
9227 1723 mt 
(scpnrf2) s
gs 8758 1240 937 2059 rc
DD
c10
360 0 8830 1680 2 MP stroke
SO
gs 8918 1588 185 185 rc
8985 1655 mt 9035 1705 L
9035 1655 mt 8985 1705 L
gr

gr

c10
0 sg
9227 1891 mt 
(scpnre1) s
gs 8758 1240 937 2059 rc
DA
c11
360 0 8830 1848 2 MP stroke
SO
gs 8918 1756 185 185 rc
8974 1848 mt 9046 1848 L
9010 1812 mt 9010 1884 L
8985 1823 mt 9035 1873 L
9035 1823 mt 8985 1873 L
gr

gr

c11
0 sg
9227 2059 mt 
(scpe1) s
gs 8758 1240 937 2059 rc
c12
360 0 8830 2016 2 MP stroke
gs 8918 1924 185 186 rc
0 j
0 -58 -58 0 0 58 58 0 8981 1987 5 MP
DP
gr

gr

c12
0 sg
9227 2227 mt 
(scpd2) s
gs 8758 1240 937 2059 rc
DO
c13
360 0 8830 2185 2 MP stroke
SO
gs 8918 2093 185 185 rc
0 j
36 47 -36 47 -36 -47 36 -47 9010 2232 5 MP
DP
gr

gr

c13
0 sg
9227 2396 mt 
(scpc3) s
gs 8758 1240 937 2059 rc
DD
c14
360 0 8830 2352 2 MP stroke
SO
gs 8918 2260 185 185 rc
24 W
9010 2352 PD
gr

gr

c14
0 sg
9227 2564 mt 
(scpb4) s
gs 8758 1240 937 2059 rc
DA
c15
360 0 8830 2520 2 MP stroke
SO
gs 8918 2428 185 185 rc
0 j
-41 71 -41 -71 82 0 8969 2544 4 MP
DP
gr

gr

c15
0 sg
9227 2732 mt 
(scpa5) s
gs 8758 1240 937 2059 rc
c16
360 0 8830 2688 2 MP stroke
gs 8918 2596 185 185 rc
0 j
-71 41 0 -82 71 41 8963 2688 4 MP
DP
gr

gr

c16
0 sg
9227 2900 mt 
(scp63) s
gs 8758 1240 937 2059 rc
DO
c17
360 0 8830 2856 2 MP stroke
SO
gs 8918 2764 185 185 rc
0 j
0 82 -71 -41 71 -41 8986 2897 4 MP
DP
gr

gr

c17
0 sg
9227 3068 mt 
(scp52) s
gs 8758 1240 937 2059 rc
c18
360 0 8830 3024 2 MP stroke
gs 8918 2932 185 185 rc
0 j
-21 -16 8 -25 -22 15 -21 -15 8 25 -21 16 26 0 8 24 
9 -24 26 0 8975 3012 11 MP
DP
gr

gr

c18
0 sg
9227 3236 mt 
(scp41) s
gs 8758 1240 937 2059 rc
DO
c19
360 0 8830 3192 2 MP stroke
SO
gs 8918 3100 185 185 rc
0 j
-13 -18 13 -18 -21 0 -10 -18 -10 18 -21 0 13 18 -13 18 
21 0 10 18 10 -18 21 0 8979 3174 13 MP
DP
gr

6 w
gr

6 w
c19
0 sg
%%IncludeResource: font Helvetica-Bold
/Helvetica-Bold /WindowsLatin1Encoding 120 FMSR

6016 4991 mt 
(Elements Swapped) s
1618 4962 mt 
(Elements Swapped) s

end %%Color Dict

eplot
%%EndObject

epage
end

showpage

%%Trailer
%%EOF
